{
    "_links": {
        "self": {
            "href": "http:\/\/projecten-3-groep-7-webshop-aoste.dd:8083\/nl\/product\/le-vegetarien-groentespread-aubergine?_format=hal_json"
        },
        "type": {
            "href": "http:\/\/projecten-3-groep-7-webshop-aoste.dd:8083\/rest\/type\/node\/product"
        },
        "http:\/\/projecten-3-groep-7-webshop-aoste.dd:8083\/rest\/relation\/node\/product\/revision_uid": [
            {
                "href": "http:\/\/projecten-3-groep-7-webshop-aoste.dd:8083\/en\/user\/1?_format=hal_json"
            }
        ],
        "http:\/\/projecten-3-groep-7-webshop-aoste.dd:8083\/rest\/relation\/node\/product\/uid": [
            {
                "href": "http:\/\/projecten-3-groep-7-webshop-aoste.dd:8083\/en\/user\/1?_format=hal_json",
                "lang": "nl"
            },
            {
                "href": "http:\/\/projecten-3-groep-7-webshop-aoste.dd:8083\/en\/user\/1?_format=hal_json",
                "lang": "fr"
            }
        ],
        "http:\/\/projecten-3-groep-7-webshop-aoste.dd:8083\/rest\/relation\/node\/product\/field_image": [
            {
                "href": ""
            }
        ],
        "http:\/\/projecten-3-groep-7-webshop-aoste.dd:8083\/rest\/relation\/node\/product\/field_product_categorie": [
            {
                "href": "http:\/\/projecten-3-groep-7-webshop-aoste.dd:8083\/nl\/broodbeleg?_format=hal_json"
            }
        ],
        "http:\/\/projecten-3-groep-7-webshop-aoste.dd:8083\/rest\/relation\/node\/product\/field_product_gebruikt_in": [
            {
                "href": "http:\/\/projecten-3-groep-7-webshop-aoste.dd:8083\/nl\/recepten\/gevulde-aubergine-met-parelcouscous?_format=hal_json"
            }
        ]
    },
    "uuid": [
        {
            "value": "4b7a34ec-879e-4cd2-a30f-a35247b9070b"
        }
    ],
    "langcode": [
        {
            "value": "nl",
            "lang": "nl"
        },
        {
            "value": "fr",
            "lang": "fr"
        }
    ],
    "type": [
        {
            "target_id": "product"
        }
    ],
    "revision_timestamp": [
        {
            "value": "2020-12-12T15:59:05+00:00",
            "format": "Y-m-d\\TH:i:sP"
        }
    ],
    "_embedded": {
        "http:\/\/projecten-3-groep-7-webshop-aoste.dd:8083\/rest\/relation\/node\/product\/revision_uid": [
            {
                "_links": {
                    "self": {
                        "href": "http:\/\/projecten-3-groep-7-webshop-aoste.dd:8083\/en\/user\/1?_format=hal_json"
                    },
                    "type": {
                        "href": "http:\/\/projecten-3-groep-7-webshop-aoste.dd:8083\/rest\/type\/user\/user"
                    }
                },
                "uuid": [
                    {
                        "value": "489454d7-9e67-460c-9ada-25e81edcb21e"
                    }
                ]
            }
        ],
        "http:\/\/projecten-3-groep-7-webshop-aoste.dd:8083\/rest\/relation\/node\/product\/uid": [
            {
                "_links": {
                    "self": {
                        "href": "http:\/\/projecten-3-groep-7-webshop-aoste.dd:8083\/en\/user\/1?_format=hal_json"
                    },
                    "type": {
                        "href": "http:\/\/projecten-3-groep-7-webshop-aoste.dd:8083\/rest\/type\/user\/user"
                    }
                },
                "uuid": [
                    {
                        "value": "489454d7-9e67-460c-9ada-25e81edcb21e"
                    }
                ],
                "lang": "nl"
            },
            {
                "_links": {
                    "self": {
                        "href": "http:\/\/projecten-3-groep-7-webshop-aoste.dd:8083\/en\/user\/1?_format=hal_json"
                    },
                    "type": {
                        "href": "http:\/\/projecten-3-groep-7-webshop-aoste.dd:8083\/rest\/type\/user\/user"
                    }
                },
                "uuid": [
                    {
                        "value": "489454d7-9e67-460c-9ada-25e81edcb21e"
                    }
                ],
                "lang": "fr"
            }
        ],
        "http:\/\/projecten-3-groep-7-webshop-aoste.dd:8083\/rest\/relation\/node\/product\/field_image": [
            {
                "_links": {
                    "self": {
                        "href": ""
                    },
                    "type": {
                        "href": "http:\/\/projecten-3-groep-7-webshop-aoste.dd:8083\/rest\/type\/file\/file"
                    }
                },
                "uuid": [
                    {
                        "value": "4fafffeb-3298-4bad-87c1-e7347fcfaed4"
                    }
                ],
                "alt": "Le V\u00e9g\u00e9tarien Tartinade de l\u00e9gumes Aubergine",
                "title": "",
                "width": "545",
                "height": "545"
            }
        ],
        "http:\/\/projecten-3-groep-7-webshop-aoste.dd:8083\/rest\/relation\/node\/product\/field_product_categorie": [
            {
                "_links": {
                    "self": {
                        "href": "http:\/\/projecten-3-groep-7-webshop-aoste.dd:8083\/nl\/broodbeleg?_format=hal_json"
                    },
                    "type": {
                        "href": "http:\/\/projecten-3-groep-7-webshop-aoste.dd:8083\/rest\/type\/taxonomy_term\/categorie"
                    }
                },
                "uuid": [
                    {
                        "value": "6e7c4f17-b99a-4f0b-99bf-b40adb2bc720"
                    }
                ]
            }
        ],
        "http:\/\/projecten-3-groep-7-webshop-aoste.dd:8083\/rest\/relation\/node\/product\/field_product_gebruikt_in": [
            {
                "_links": {
                    "self": {
                        "href": "http:\/\/projecten-3-groep-7-webshop-aoste.dd:8083\/nl\/recepten\/gevulde-aubergine-met-parelcouscous?_format=hal_json"
                    },
                    "type": {
                        "href": "http:\/\/projecten-3-groep-7-webshop-aoste.dd:8083\/rest\/type\/node\/recept"
                    }
                },
                "uuid": [
                    {
                        "value": "7201de0c-af50-4131-bace-255097e178ec"
                    }
                ]
            }
        ]
    },
    "status": [
        {
            "value": true,
            "lang": "nl"
        },
        {
            "value": true,
            "lang": "fr"
        }
    ],
    "title": [
        {
            "value": "Le V\u00e9g\u00e9tarien Groentespread Aubergine",
            "lang": "nl"
        },
        {
            "value": "Le V\u00e9g\u00e9tarien Tartinade de l\u00e9gumes Aubergine",
            "lang": "fr"
        }
    ],
    "created": [
        {
            "value": "2020-11-13T16:50:54+00:00",
            "lang": "nl",
            "format": "Y-m-d\\TH:i:sP"
        },
        {
            "value": "2020-11-13T16:55:09+00:00",
            "lang": "fr",
            "format": "Y-m-d\\TH:i:sP"
        }
    ],
    "changed": [
        {
            "value": "2020-12-12T15:56:28+00:00",
            "lang": "nl",
            "format": "Y-m-d\\TH:i:sP"
        },
        {
            "value": "2020-12-12T15:59:05+00:00",
            "lang": "fr",
            "format": "Y-m-d\\TH:i:sP"
        }
    ],
    "promote": [
        {
            "value": false,
            "lang": "nl"
        },
        {
            "value": false,
            "lang": "fr"
        }
    ],
    "sticky": [
        {
            "value": false,
            "lang": "nl"
        },
        {
            "value": false,
            "lang": "fr"
        }
    ],
    "default_langcode": [
        {
            "value": true,
            "lang": "nl"
        },
        {
            "value": false,
            "lang": "fr"
        }
    ],
    "revision_translation_affected": [
        {
            "value": true,
            "lang": "fr"
        }
    ],
    "path": [
        {
            "alias": "\/product\/le-vegetarien-groentespread-aubergine",
            "pid": 49,
            "langcode": "nl",
            "lang": "nl"
        },
        {
            "alias": "\/product\/le-vegetarien-tartinade-de-legumes-aubergine",
            "pid": 50,
            "langcode": "fr",
            "lang": "fr"
        }
    ],
    "content_translation_source": [
        {
            "value": "und",
            "lang": "nl"
        },
        {
            "value": "nl",
            "lang": "fr"
        }
    ],
    "content_translation_outdated": [
        {
            "value": false,
            "lang": "nl"
        },
        {
            "value": false,
            "lang": "fr"
        }
    ],
    "body": [
        {
            "value": "<p>Deze gepasteuriseerde vegan groentenspread is gemaakt met gegrilde aubergines. Hij bevat 60% groenten, is rijk aan vezels en vrij van allergenen. Je kan hem heerlijk smeren op je boterham of gewoon ook warm gebruiken in combinatie met parelcouscous.<\/p>\r\n",
            "format": "basic_html",
            "processed": "<p>Deze gepasteuriseerde vegan groentenspread is gemaakt met gegrilde aubergines. Hij bevat 60% groenten, is rijk aan vezels en vrij van allergenen. Je kan hem heerlijk smeren op je boterham of gewoon ook warm gebruiken in combinatie met parelcouscous.<\/p>",
            "summary": "",
            "lang": "nl"
        },
        {
            "value": "<p>Cette tartinade de l\u00e9gumes v\u00e9g\u00e9taliens pasteuris\u00e9s est faite avec des aubergines grill\u00e9es. Il contient 60% de l\u00e9gumes, est riche en fibres et sans allerg\u00e8nes. Vous pouvez l\u2019\u00e9tendre sur votre sandwich ou simplement l\u2019utiliser chaud avec un couscous de perles.<\/p>\r\n",
            "format": "basic_html",
            "processed": "<p>Cette tartinade de l\u00e9gumes v\u00e9g\u00e9taliens pasteuris\u00e9s est faite avec des aubergines grill\u00e9es. Il contient 60% de l\u00e9gumes, est riche en fibres et sans allerg\u00e8nes. Vous pouvez l\u2019\u00e9tendre sur votre sandwich ou simplement l\u2019utiliser chaud avec un couscous de perles.<\/p>",
            "summary": "",
            "lang": "fr"
        }
    ],
    "field_nutriscore": [
        {
            "value": "B"
        }
    ],
    "field_product_gewicht": [
        {
            "value": 200
        }
    ],
    "field_product_ingredienten": [
        {
            "value": "<p>Gegrilde aubergine (49%), zonnebloemolie (20%), water, ui, zonnebloempitten (gedeeltelijk ontolied), koolzaadolie, zout, geconcentreerd uiensap, specerijen, look, citroensappoeder, natuurlijke aroma's,<\/p>\r\n",
            "format": "basic_html",
            "processed": "<p>Gegrilde aubergine (49%), zonnebloemolie (20%), water, ui, zonnebloempitten (gedeeltelijk ontolied), koolzaadolie, zout, geconcentreerd uiensap, specerijen, look, citroensappoeder, natuurlijke aroma's,<\/p>",
            "lang": "nl"
        },
        {
            "value": "<p>Aubergines grill\u00e9es (49%), huile de tournesol (20%), eau, oignon, graines de tournesol (partiellement d\u00e9shuill\u00e9es), huile de colza, sel, jus d'oignon concentr\u00e9, \u00e9pices, ail, poudre de jus de citron, ar\u00f4mes naturels.<\/p>\r\n",
            "format": "basic_html",
            "processed": "<p>Aubergines grill\u00e9es (49%), huile de tournesol (20%), eau, oignon, graines de tournesol (partiellement d\u00e9shuill\u00e9es), huile de colza, sel, jus d'oignon concentr\u00e9, \u00e9pices, ail, poudre de jus de citron, ar\u00f4mes naturels.<\/p>",
            "lang": "fr"
        }
    ],
    "field_product_retailers": [
        {
            "uri": "https:\/\/www.delhaize.be\/nl-be\/shop\/Bewuste-voeding\/Vegan\/VEG-Spread-aubergine\/p\/F2018101100025550000",
            "title": "Delhaize",
            "options": [],
            "lang": "nl"
        },
        {
            "uri": "https:\/\/drive.carrefour.eu\/nl\/Vegetarisch-%26-vegan\/Andere-vegetarische-producten\/Aoste-Veggie-Spread-Gegrilde-Aubergine-200-g\/p\/01616808",
            "title": "Carrefour",
            "options": [],
            "lang": "nl"
        },
        {
            "uri": "https:\/\/www.delhaize.be\/fr-be\/shop\/Regime-specifique\/Vegan\/VEG-Tartinade-aubergine\/p\/F2018101100025550000",
            "title": "Delhaize",
            "options": [],
            "lang": "fr"
        },
        {
            "uri": "https:\/\/drive.carrefour.eu\/fr\/V%C3%A9g%C3%A9tarien-%26-vegan\/Autres-produits-v%C3%A9g%C3%A9tariens\/Aoste-Veggie-Spread-Aubergine-Grill%C3%A9e-200-g\/p\/01616808",
            "title": "Carrefour",
            "options": [],
            "lang": "fr"
        }
    ],
    "field_voeding_eiwitten": [
        {
            "value": "2.7"
        }
    ],
    "field_voeding_energie": [
        {
            "value": 872
        }
    ],
    "field_voeding_kilocalorieen": [
        {
            "value": 211
        }
    ],
    "field_voeding_koolhydraten": [
        {
            "value": "3.3"
        }
    ],
    "field_voeding_suikers": [
        {
            "value": "2.8"
        }
    ],
    "field_voeding_verzadigde_vetten": [
        {
            "value": "1.5"
        }
    ],
    "field_voeding_vetten": [
        {
            "value": "20.0"
        }
    ],
    "field_voeding_zout": [
        {
            "value": "0.9"
        }
    ]
}