{
    "_links": {
        "self": {
            "href": "http:\/\/projecten-3-groep-7-webshop-aoste.dd:8083\/nl\/recepten\/gevulde-aubergine-met-parelcouscous?_format=hal_json"
        },
        "type": {
            "href": "http:\/\/projecten-3-groep-7-webshop-aoste.dd:8083\/rest\/type\/node\/recept"
        },
        "http:\/\/projecten-3-groep-7-webshop-aoste.dd:8083\/rest\/relation\/node\/recept\/revision_uid": [
            {
                "href": "http:\/\/projecten-3-groep-7-webshop-aoste.dd:8083\/en\/user\/1?_format=hal_json"
            }
        ],
        "http:\/\/projecten-3-groep-7-webshop-aoste.dd:8083\/rest\/relation\/node\/recept\/uid": [
            {
                "href": "http:\/\/projecten-3-groep-7-webshop-aoste.dd:8083\/en\/user\/1?_format=hal_json",
                "lang": "nl"
            },
            {
                "href": "http:\/\/projecten-3-groep-7-webshop-aoste.dd:8083\/en\/user\/1?_format=hal_json",
                "lang": "fr"
            }
        ],
        "http:\/\/projecten-3-groep-7-webshop-aoste.dd:8083\/rest\/relation\/node\/recept\/field_recept_afbeelding": [
            {
                "href": "",
                "lang": "nl"
            },
            {
                "href": "",
                "lang": "fr"
            }
        ],
        "http:\/\/projecten-3-groep-7-webshop-aoste.dd:8083\/rest\/relation\/node\/recept\/field_recept_gebruikte_producten": [
            {
                "href": "http:\/\/projecten-3-groep-7-webshop-aoste.dd:8083\/nl\/product\/le-vegetarien-groentespread-aubergine?_format=hal_json",
                "lang": "nl"
            },
            {
                "href": "http:\/\/projecten-3-groep-7-webshop-aoste.dd:8083\/nl\/product\/le-vegetarien-groentespread-aubergine?_format=hal_json",
                "lang": "fr"
            }
        ]
    },
    "uuid": [
        {
            "value": "7201de0c-af50-4131-bace-255097e178ec"
        }
    ],
    "langcode": [
        {
            "value": "nl",
            "lang": "nl"
        },
        {
            "value": "fr",
            "lang": "fr"
        }
    ],
    "type": [
        {
            "target_id": "recept"
        }
    ],
    "revision_timestamp": [
        {
            "value": "2020-11-20T08:03:09+00:00",
            "format": "Y-m-d\\TH:i:sP"
        }
    ],
    "_embedded": {
        "http:\/\/projecten-3-groep-7-webshop-aoste.dd:8083\/rest\/relation\/node\/recept\/revision_uid": [
            {
                "_links": {
                    "self": {
                        "href": "http:\/\/projecten-3-groep-7-webshop-aoste.dd:8083\/en\/user\/1?_format=hal_json"
                    },
                    "type": {
                        "href": "http:\/\/projecten-3-groep-7-webshop-aoste.dd:8083\/rest\/type\/user\/user"
                    }
                },
                "uuid": [
                    {
                        "value": "489454d7-9e67-460c-9ada-25e81edcb21e"
                    }
                ]
            }
        ],
        "http:\/\/projecten-3-groep-7-webshop-aoste.dd:8083\/rest\/relation\/node\/recept\/uid": [
            {
                "_links": {
                    "self": {
                        "href": "http:\/\/projecten-3-groep-7-webshop-aoste.dd:8083\/en\/user\/1?_format=hal_json"
                    },
                    "type": {
                        "href": "http:\/\/projecten-3-groep-7-webshop-aoste.dd:8083\/rest\/type\/user\/user"
                    }
                },
                "uuid": [
                    {
                        "value": "489454d7-9e67-460c-9ada-25e81edcb21e"
                    }
                ],
                "lang": "nl"
            },
            {
                "_links": {
                    "self": {
                        "href": "http:\/\/projecten-3-groep-7-webshop-aoste.dd:8083\/en\/user\/1?_format=hal_json"
                    },
                    "type": {
                        "href": "http:\/\/projecten-3-groep-7-webshop-aoste.dd:8083\/rest\/type\/user\/user"
                    }
                },
                "uuid": [
                    {
                        "value": "489454d7-9e67-460c-9ada-25e81edcb21e"
                    }
                ],
                "lang": "fr"
            }
        ],
        "http:\/\/projecten-3-groep-7-webshop-aoste.dd:8083\/rest\/relation\/node\/recept\/field_recept_afbeelding": [
            {
                "_links": {
                    "self": {
                        "href": ""
                    },
                    "type": {
                        "href": "http:\/\/projecten-3-groep-7-webshop-aoste.dd:8083\/rest\/type\/file\/file"
                    }
                },
                "uuid": [
                    {
                        "value": "bdd307e3-63ff-4d36-8ad3-7f46a491863a"
                    }
                ],
                "lang": "nl",
                "alt": "Gevulde aubergine met parelcouscous",
                "title": "",
                "width": "6208",
                "height": "8280"
            },
            {
                "_links": {
                    "self": {
                        "href": ""
                    },
                    "type": {
                        "href": "http:\/\/projecten-3-groep-7-webshop-aoste.dd:8083\/rest\/type\/file\/file"
                    }
                },
                "uuid": [
                    {
                        "value": "bdd307e3-63ff-4d36-8ad3-7f46a491863a"
                    }
                ],
                "lang": "fr",
                "alt": "Aubergine farcies au couscous perl\u00e9",
                "title": "",
                "width": "6208",
                "height": "8280"
            }
        ],
        "http:\/\/projecten-3-groep-7-webshop-aoste.dd:8083\/rest\/relation\/node\/recept\/field_recept_gebruikte_producten": [
            {
                "_links": {
                    "self": {
                        "href": "http:\/\/projecten-3-groep-7-webshop-aoste.dd:8083\/nl\/product\/le-vegetarien-groentespread-aubergine?_format=hal_json"
                    },
                    "type": {
                        "href": "http:\/\/projecten-3-groep-7-webshop-aoste.dd:8083\/rest\/type\/node\/product"
                    }
                },
                "uuid": [
                    {
                        "value": "4b7a34ec-879e-4cd2-a30f-a35247b9070b"
                    }
                ],
                "lang": "nl"
            },
            {
                "_links": {
                    "self": {
                        "href": "http:\/\/projecten-3-groep-7-webshop-aoste.dd:8083\/nl\/product\/le-vegetarien-groentespread-aubergine?_format=hal_json"
                    },
                    "type": {
                        "href": "http:\/\/projecten-3-groep-7-webshop-aoste.dd:8083\/rest\/type\/node\/product"
                    }
                },
                "uuid": [
                    {
                        "value": "4b7a34ec-879e-4cd2-a30f-a35247b9070b"
                    }
                ],
                "lang": "fr"
            }
        ]
    },
    "status": [
        {
            "value": true,
            "lang": "nl"
        },
        {
            "value": true,
            "lang": "fr"
        }
    ],
    "title": [
        {
            "value": "Gevulde aubergine met parelcouscous",
            "lang": "nl"
        },
        {
            "value": "Aubergine farcies au couscous perl\u00e9",
            "lang": "fr"
        }
    ],
    "created": [
        {
            "value": "2020-11-13T16:58:06+00:00",
            "lang": "nl",
            "format": "Y-m-d\\TH:i:sP"
        },
        {
            "value": "2020-11-13T17:00:10+00:00",
            "lang": "fr",
            "format": "Y-m-d\\TH:i:sP"
        }
    ],
    "changed": [
        {
            "value": "2020-11-20T08:03:09+00:00",
            "lang": "nl",
            "format": "Y-m-d\\TH:i:sP"
        },
        {
            "value": "2020-11-16T14:02:25+00:00",
            "lang": "fr",
            "format": "Y-m-d\\TH:i:sP"
        }
    ],
    "promote": [
        {
            "value": true,
            "lang": "nl"
        },
        {
            "value": true,
            "lang": "fr"
        }
    ],
    "sticky": [
        {
            "value": false,
            "lang": "nl"
        },
        {
            "value": false,
            "lang": "fr"
        }
    ],
    "default_langcode": [
        {
            "value": true,
            "lang": "nl"
        },
        {
            "value": false,
            "lang": "fr"
        }
    ],
    "path": [
        {
            "alias": "\/recepten\/gevulde-aubergine-met-parelcouscous",
            "pid": 60,
            "langcode": "nl",
            "lang": "nl"
        },
        {
            "alias": "\/recepten\/aubergine-farcies-au-couscous-perle",
            "pid": 64,
            "langcode": "fr",
            "lang": "fr"
        }
    ],
    "content_translation_source": [
        {
            "value": "und",
            "lang": "nl"
        },
        {
            "value": "nl",
            "lang": "fr"
        }
    ],
    "content_translation_outdated": [
        {
            "value": false,
            "lang": "nl"
        },
        {
            "value": false,
            "lang": "fr"
        }
    ],
    "field_recept_bereidingstijd": [
        {
            "value": 25,
            "lang": "nl"
        },
        {
            "value": 25,
            "lang": "fr"
        }
    ],
    "field_recept_bereidingswijze": [
        {
            "value": "<ol>\r\n\t<li>Verwarm de oven voor op 200\u00b0C.<\/li>\r\n\t<li>Kook de parelcouscous zoals aangegeven op de verpakking.<\/li>\r\n\t<li>Giet de couscous af en meng ze met de Aoste Aubergine Groentespread.<\/li>\r\n\t<li>Snij de aubergines overlangs doormidden. Haal het vruchtvlees uit en smeer ze in met olijfolie. Kruid met peper en zout.<\/li>\r\n\t<li>Vul de aubergine met het couscousauberginemengsel.<\/li>\r\n\t<li>Zet de aubergines in de oven en dit gedurende 40min.<\/li>\r\n\t<li>Serveer met granaatappelpitjes, platte peterselie, plantaardige yoghurt en rode pepervlokken.<\/li>\r\n<\/ol>\r\n",
            "format": "basic_html",
            "processed": "<ol>\n\t<li>Verwarm de oven voor op 200\u00b0C.<\/li>\n\t<li>Kook de parelcouscous zoals aangegeven op de verpakking.<\/li>\n\t<li>Giet de couscous af en meng ze met de Aoste Aubergine Groentespread.<\/li>\n\t<li>Snij de aubergines overlangs doormidden. Haal het vruchtvlees uit en smeer ze in met olijfolie. Kruid met peper en zout.<\/li>\n\t<li>Vul de aubergine met het couscousauberginemengsel.<\/li>\n\t<li>Zet de aubergines in de oven en dit gedurende 40min.<\/li>\n\t<li>Serveer met granaatappelpitjes, platte peterselie, plantaardige yoghurt en rode pepervlokken.<\/li>\n<\/ol>",
            "lang": "nl"
        },
        {
            "value": "<ol>\r\n\t<li>Pr\u00e9chauffez le four \u00e0 200\u00b0C.<\/li>\r\n\t<li>Faites cuire le couscous perl\u00e9 comme indiqu\u00e9 sur l'emballage.<\/li>\r\n\t<li>\u00c9gouttez le couscous puis m\u00e9langez-le avec l'Aoste Tartinade de l\u00e9gumes Aubergine.<\/li>\r\n\t<li>Coupez les aubergines en deux dans le sens de la longeur. \u00d4tez la chair et enduisez l'int\u00e9rieur d'huile d'olive. Salez et poivrez.<\/li>\r\n\t<li>Remplissez les moiti\u00e9s d'aubergines avec le m\u00e9lange de couscous\/tartinade de l\u00e9gumes aubergine.<\/li>\r\n\t<li>Enfournez les aubergines pendant 40 minutes.<\/li>\r\n\t<li>D\u00e9corez pour terminer avec les graines de grenade, le persil plat, le yaourt v\u00e9g\u00e9tal et les flocons de poivron rouge, et servez.<\/li>\r\n<\/ol>\r\n",
            "format": "basic_html",
            "processed": "<ol>\n\t<li>Pr\u00e9chauffez le four \u00e0 200\u00b0C.<\/li>\n\t<li>Faites cuire le couscous perl\u00e9 comme indiqu\u00e9 sur l'emballage.<\/li>\n\t<li>\u00c9gouttez le couscous puis m\u00e9langez-le avec l'Aoste Tartinade de l\u00e9gumes Aubergine.<\/li>\n\t<li>Coupez les aubergines en deux dans le sens de la longeur. \u00d4tez la chair et enduisez l'int\u00e9rieur d'huile d'olive. Salez et poivrez.<\/li>\n\t<li>Remplissez les moiti\u00e9s d'aubergines avec le m\u00e9lange de couscous\/tartinade de l\u00e9gumes aubergine.<\/li>\n\t<li>Enfournez les aubergines pendant 40 minutes.<\/li>\n\t<li>D\u00e9corez pour terminer avec les graines de grenade, le persil plat, le yaourt v\u00e9g\u00e9tal et les flocons de poivron rouge, et servez.<\/li>\n<\/ol>",
            "lang": "fr"
        }
    ],
    "field_recept_ingredienten": [
        {
            "value": "<ul>\r\n\t<li>4&nbsp;Aubergines<\/li>\r\n\t<li>&nbsp;200&nbsp;g&nbsp;Aoste Le V\u00e9g\u00e9tarien Aubergine Groentespread<\/li>\r\n\t<li>&nbsp;100&nbsp;g&nbsp;Parelcouscous<\/li>\r\n\t<li>&nbsp;1&nbsp;tbsp&nbsp;Olijfolie<\/li>\r\n\t<li>&nbsp;1&nbsp;Granaatappel<\/li>\r\n\t<li>&nbsp;1&nbsp;tbsp&nbsp;Platte peterselie<\/li>\r\n\t<li>&nbsp;100&nbsp;ml&nbsp;Plantaardige yoghurt<\/li>\r\n\t<li>&nbsp;1&nbsp;tsp&nbsp;Rode pepervlokken<\/li>\r\n\t<li>&nbsp;Peper en zout<\/li>\r\n<\/ul>\r\n",
            "format": "basic_html",
            "processed": "<ul>\n\t<li>4\u00a0Aubergines<\/li>\n\t<li>\u00a0200\u00a0g\u00a0Aoste Le V\u00e9g\u00e9tarien Aubergine Groentespread<\/li>\n\t<li>\u00a0100\u00a0g\u00a0Parelcouscous<\/li>\n\t<li>\u00a01\u00a0tbsp\u00a0Olijfolie<\/li>\n\t<li>\u00a01\u00a0Granaatappel<\/li>\n\t<li>\u00a01\u00a0tbsp\u00a0Platte peterselie<\/li>\n\t<li>\u00a0100\u00a0ml\u00a0Plantaardige yoghurt<\/li>\n\t<li>\u00a01\u00a0tsp\u00a0Rode pepervlokken<\/li>\n\t<li>\u00a0Peper en zout<\/li>\n<\/ul>",
            "lang": "nl"
        },
        {
            "value": "<ul>\r\n\t<li>4&nbsp;Aubergines<\/li>\r\n\t<li>&nbsp;200&nbsp;g&nbsp;Aoste Le V\u00e9g\u00e9tarien Tartinade de l\u00e9gumes Aubergine<\/li>\r\n\t<li>&nbsp;100&nbsp;g&nbsp;Couscous perl\u00e9<\/li>\r\n\t<li>&nbsp;1&nbsp;tbsp&nbsp;Huile d'olive<\/li>\r\n\t<li>&nbsp;1&nbsp;Grenade (pour les graines)<\/li>\r\n\t<li>&nbsp;1&nbsp;tbsp&nbsp;Persil plat<\/li>\r\n\t<li>&nbsp;100&nbsp;ml&nbsp;Yaourt v\u00e9g\u00e9tal<\/li>\r\n\t<li>&nbsp;1&nbsp;tsp&nbsp;Flocons de poivron rouge<\/li>\r\n\t<li>&nbsp;Sel &amp; poivre<\/li>\r\n<\/ul>\r\n",
            "format": "basic_html",
            "processed": "<ul>\n\t<li>4\u00a0Aubergines<\/li>\n\t<li>\u00a0200\u00a0g\u00a0Aoste Le V\u00e9g\u00e9tarien Tartinade de l\u00e9gumes Aubergine<\/li>\n\t<li>\u00a0100\u00a0g\u00a0Couscous perl\u00e9<\/li>\n\t<li>\u00a01\u00a0tbsp\u00a0Huile d'olive<\/li>\n\t<li>\u00a01\u00a0Grenade (pour les graines)<\/li>\n\t<li>\u00a01\u00a0tbsp\u00a0Persil plat<\/li>\n\t<li>\u00a0100\u00a0ml\u00a0Yaourt v\u00e9g\u00e9tal<\/li>\n\t<li>\u00a01\u00a0tsp\u00a0Flocons de poivron rouge<\/li>\n\t<li>\u00a0Sel &amp; poivre<\/li>\n<\/ul>",
            "lang": "fr"
        }
    ],
    "field_recept_porties": [
        {
            "value": 4,
            "lang": "nl"
        },
        {
            "value": 4,
            "lang": "fr"
        }
    ]
}