{
    "_links": {
        "self": {
            "href": "http:\/\/projecten-3-groep-7-webshop-aoste.dd:8083\/nl\/product\/le-vegetarien-groenteballetjes-pompoen-wortel?_format=hal_json"
        },
        "type": {
            "href": "http:\/\/projecten-3-groep-7-webshop-aoste.dd:8083\/rest\/type\/node\/product"
        },
        "http:\/\/projecten-3-groep-7-webshop-aoste.dd:8083\/rest\/relation\/node\/product\/revision_uid": [
            {
                "href": "http:\/\/projecten-3-groep-7-webshop-aoste.dd:8083\/en\/user\/1?_format=hal_json"
            }
        ],
        "http:\/\/projecten-3-groep-7-webshop-aoste.dd:8083\/rest\/relation\/node\/product\/uid": [
            {
                "href": "http:\/\/projecten-3-groep-7-webshop-aoste.dd:8083\/en\/user\/1?_format=hal_json",
                "lang": "nl"
            },
            {
                "href": "http:\/\/projecten-3-groep-7-webshop-aoste.dd:8083\/en\/user\/1?_format=hal_json",
                "lang": "fr"
            }
        ],
        "http:\/\/projecten-3-groep-7-webshop-aoste.dd:8083\/rest\/relation\/node\/product\/field_image": [
            {
                "href": ""
            }
        ],
        "http:\/\/projecten-3-groep-7-webshop-aoste.dd:8083\/rest\/relation\/node\/product\/field_product_categorie": [
            {
                "href": "http:\/\/projecten-3-groep-7-webshop-aoste.dd:8083\/nl\/vegetarisch?_format=hal_json"
            },
            {
                "href": "http:\/\/projecten-3-groep-7-webshop-aoste.dd:8083\/nl\/taxonomy\/term\/24?_format=hal_json"
            }
        ],
        "http:\/\/projecten-3-groep-7-webshop-aoste.dd:8083\/rest\/relation\/node\/product\/field_product_gebruikt_in": [
            {
                "href": "http:\/\/projecten-3-groep-7-webshop-aoste.dd:8083\/nl\/recepten\/groenteballetjes-pompoen-wortel-met-rijstsalade?_format=hal_json"
            },
            {
                "href": "http:\/\/projecten-3-groep-7-webshop-aoste.dd:8083\/nl\/recepten\/groenteballetjes-pompoen-wortel-met-macaroni?_format=hal_json"
            },
            {
                "href": "http:\/\/projecten-3-groep-7-webshop-aoste.dd:8083\/nl\/recepten\/groenteballetjes-pompoen-wortel-met-een-groenten-curry?_format=hal_json"
            }
        ]
    },
    "uuid": [
        {
            "value": "9f409b8d-a26c-4d8b-9048-a8a1309fc978"
        }
    ],
    "langcode": [
        {
            "value": "nl",
            "lang": "nl"
        },
        {
            "value": "fr",
            "lang": "fr"
        }
    ],
    "type": [
        {
            "target_id": "product"
        }
    ],
    "revision_timestamp": [
        {
            "value": "2020-12-12T16:03:05+00:00",
            "format": "Y-m-d\\TH:i:sP"
        }
    ],
    "_embedded": {
        "http:\/\/projecten-3-groep-7-webshop-aoste.dd:8083\/rest\/relation\/node\/product\/revision_uid": [
            {
                "_links": {
                    "self": {
                        "href": "http:\/\/projecten-3-groep-7-webshop-aoste.dd:8083\/en\/user\/1?_format=hal_json"
                    },
                    "type": {
                        "href": "http:\/\/projecten-3-groep-7-webshop-aoste.dd:8083\/rest\/type\/user\/user"
                    }
                },
                "uuid": [
                    {
                        "value": "489454d7-9e67-460c-9ada-25e81edcb21e"
                    }
                ]
            }
        ],
        "http:\/\/projecten-3-groep-7-webshop-aoste.dd:8083\/rest\/relation\/node\/product\/uid": [
            {
                "_links": {
                    "self": {
                        "href": "http:\/\/projecten-3-groep-7-webshop-aoste.dd:8083\/en\/user\/1?_format=hal_json"
                    },
                    "type": {
                        "href": "http:\/\/projecten-3-groep-7-webshop-aoste.dd:8083\/rest\/type\/user\/user"
                    }
                },
                "uuid": [
                    {
                        "value": "489454d7-9e67-460c-9ada-25e81edcb21e"
                    }
                ],
                "lang": "nl"
            },
            {
                "_links": {
                    "self": {
                        "href": "http:\/\/projecten-3-groep-7-webshop-aoste.dd:8083\/en\/user\/1?_format=hal_json"
                    },
                    "type": {
                        "href": "http:\/\/projecten-3-groep-7-webshop-aoste.dd:8083\/rest\/type\/user\/user"
                    }
                },
                "uuid": [
                    {
                        "value": "489454d7-9e67-460c-9ada-25e81edcb21e"
                    }
                ],
                "lang": "fr"
            }
        ],
        "http:\/\/projecten-3-groep-7-webshop-aoste.dd:8083\/rest\/relation\/node\/product\/field_image": [
            {
                "_links": {
                    "self": {
                        "href": ""
                    },
                    "type": {
                        "href": "http:\/\/projecten-3-groep-7-webshop-aoste.dd:8083\/rest\/type\/file\/file"
                    }
                },
                "uuid": [
                    {
                        "value": "8dcc805b-1ad8-4aac-8271-afbf5cbd0320"
                    }
                ],
                "alt": " Le V\u00e9g\u00e9tarien Boulettes de l\u00e9gumes Citrouille-Carottes image",
                "title": "",
                "width": "600",
                "height": "600"
            }
        ],
        "http:\/\/projecten-3-groep-7-webshop-aoste.dd:8083\/rest\/relation\/node\/product\/field_product_categorie": [
            {
                "_links": {
                    "self": {
                        "href": "http:\/\/projecten-3-groep-7-webshop-aoste.dd:8083\/nl\/vegetarisch?_format=hal_json"
                    },
                    "type": {
                        "href": "http:\/\/projecten-3-groep-7-webshop-aoste.dd:8083\/rest\/type\/taxonomy_term\/categorie"
                    }
                },
                "uuid": [
                    {
                        "value": "8dc62a0e-9e35-497b-8a6c-6bf06162d8e2"
                    }
                ]
            },
            {
                "_links": {
                    "self": {
                        "href": "http:\/\/projecten-3-groep-7-webshop-aoste.dd:8083\/nl\/taxonomy\/term\/24?_format=hal_json"
                    },
                    "type": {
                        "href": "http:\/\/projecten-3-groep-7-webshop-aoste.dd:8083\/rest\/type\/taxonomy_term\/categorie"
                    }
                },
                "uuid": [
                    {
                        "value": "1a364e67-afbf-4b1c-a78a-0a011f4aa3aa"
                    }
                ]
            }
        ],
        "http:\/\/projecten-3-groep-7-webshop-aoste.dd:8083\/rest\/relation\/node\/product\/field_product_gebruikt_in": [
            {
                "_links": {
                    "self": {
                        "href": "http:\/\/projecten-3-groep-7-webshop-aoste.dd:8083\/nl\/recepten\/groenteballetjes-pompoen-wortel-met-rijstsalade?_format=hal_json"
                    },
                    "type": {
                        "href": "http:\/\/projecten-3-groep-7-webshop-aoste.dd:8083\/rest\/type\/node\/recept"
                    }
                },
                "uuid": [
                    {
                        "value": "470d1b62-bf6b-4fdd-b544-393c9bb4276d"
                    }
                ]
            },
            {
                "_links": {
                    "self": {
                        "href": "http:\/\/projecten-3-groep-7-webshop-aoste.dd:8083\/nl\/recepten\/groenteballetjes-pompoen-wortel-met-macaroni?_format=hal_json"
                    },
                    "type": {
                        "href": "http:\/\/projecten-3-groep-7-webshop-aoste.dd:8083\/rest\/type\/node\/recept"
                    }
                },
                "uuid": [
                    {
                        "value": "cfdecb1d-4a98-4fc3-b844-4740d0570f8c"
                    }
                ]
            },
            {
                "_links": {
                    "self": {
                        "href": "http:\/\/projecten-3-groep-7-webshop-aoste.dd:8083\/nl\/recepten\/groenteballetjes-pompoen-wortel-met-een-groenten-curry?_format=hal_json"
                    },
                    "type": {
                        "href": "http:\/\/projecten-3-groep-7-webshop-aoste.dd:8083\/rest\/type\/node\/recept"
                    }
                },
                "uuid": [
                    {
                        "value": "01ce330d-68e2-4faa-b17a-196955562742"
                    }
                ]
            }
        ]
    },
    "status": [
        {
            "value": true,
            "lang": "nl"
        },
        {
            "value": true,
            "lang": "fr"
        }
    ],
    "title": [
        {
            "value": "Le V\u00e9g\u00e9tarien Groenteballetjes Pompoen-Wortel",
            "lang": "nl"
        },
        {
            "value": " Le V\u00e9g\u00e9tarien Boulettes de l\u00e9gumes Citrouille-Carottes",
            "lang": "fr"
        }
    ],
    "created": [
        {
            "value": "2020-12-11T13:33:28+00:00",
            "lang": "nl",
            "format": "Y-m-d\\TH:i:sP"
        },
        {
            "value": "2020-12-12T10:04:35+00:00",
            "lang": "fr",
            "format": "Y-m-d\\TH:i:sP"
        }
    ],
    "changed": [
        {
            "value": "2020-12-12T16:03:05+00:00",
            "lang": "nl",
            "format": "Y-m-d\\TH:i:sP"
        },
        {
            "value": "2020-12-12T16:03:05+00:00",
            "lang": "fr",
            "format": "Y-m-d\\TH:i:sP"
        }
    ],
    "promote": [
        {
            "value": false,
            "lang": "nl"
        },
        {
            "value": false,
            "lang": "fr"
        }
    ],
    "sticky": [
        {
            "value": false,
            "lang": "nl"
        },
        {
            "value": false,
            "lang": "fr"
        }
    ],
    "default_langcode": [
        {
            "value": true,
            "lang": "nl"
        },
        {
            "value": false,
            "lang": "fr"
        }
    ],
    "revision_translation_affected": [
        {
            "value": true,
            "lang": "nl"
        },
        {
            "value": true,
            "lang": "fr"
        }
    ],
    "path": [
        {
            "alias": "\/product\/le-vegetarien-groenteballetjes-pompoen-wortel",
            "pid": 98,
            "langcode": "nl",
            "lang": "nl"
        },
        {
            "alias": "\/product\/le-vegetarien-boulettes-de-legumes-citrouille-carottes",
            "pid": 108,
            "langcode": "fr",
            "lang": "fr"
        }
    ],
    "content_translation_source": [
        {
            "value": "und",
            "lang": "nl"
        },
        {
            "value": "nl",
            "lang": "fr"
        }
    ],
    "content_translation_outdated": [
        {
            "value": false,
            "lang": "nl"
        },
        {
            "value": false,
            "lang": "fr"
        }
    ],
    "body": [
        {
            "value": "<p>De Aoste Groenteballetjes werden ontwikkeld om de dagdagelijkse inname van groenten te vergemakkelijken. Ze bevatten elk minstens 70% lekkere groenten &amp; peulvruchten, met een vertrouwde smaak. Kan ook als vleesalternatief dienen, ter opwaardering van een roerbakgerecht of in combinatie met een (couscous)salade.<br \/>\r\nZe zijn 100% plantaardig (vegan), bevatten 70% groenten, zijn rijk aan vezels en onverzadigde vetten en bevatten geen toegevoegde smaakversterkers, rijk aan onverzadigde vetten.<\/p>\r\n\r\n<p>Beschikbaar in 2 smaakvarianten: Pompoen-Wortel &amp; Spinazie-Broccoli<\/p>\r\n",
            "format": "basic_html",
            "processed": "<p>De Aoste Groenteballetjes werden ontwikkeld om de dagdagelijkse inname van groenten te vergemakkelijken. Ze bevatten elk minstens 70% lekkere groenten &amp; peulvruchten, met een vertrouwde smaak. Kan ook als vleesalternatief dienen, ter opwaardering van een roerbakgerecht of in combinatie met een (couscous)salade.<br \/>\nZe zijn 100% plantaardig (vegan), bevatten 70% groenten, zijn rijk aan vezels en onverzadigde vetten en bevatten geen toegevoegde smaakversterkers, rijk aan onverzadigde vetten.<\/p>\n\n<p>Beschikbaar in 2 smaakvarianten: Pompoen-Wortel &amp; Spinazie-Broccoli<\/p>",
            "summary": "",
            "lang": "nl"
        },
        {
            "value": "<p>Les boules de l\u00e9gumes Aoste ont \u00e9t\u00e9 d\u00e9velopp\u00e9es pour faciliter l\u2019apport quotidien de l\u00e9gumes. Ils contiennent chacun au moins 70% de l\u00e9gumes et l\u00e9gumineuses savoureux, avec un go\u00fbt familier. Peut \u00e9galement servir d\u2019alternative \u00e0 la viande, pour mettre \u00e0 niveau un plat saut\u00e9 ou en combinaison avec une salade (couscous). Ils sont 100% v\u00e9g\u00e9taux (v\u00e9g\u00e9taliens), contiennent 70% de l\u00e9gumes, sont riches en fibres et en graisses insatur\u00e9es et ne contiennent aucun exhausteur de go\u00fbt ajout\u00e9, riche en graisses insatur\u00e9es.<\/p>\r\n\r\n<p>Disponible en 2 saveurs: Citrouille-Carottes &amp; \u00c9pinard-Brocoli.<\/p>\r\n",
            "format": "basic_html",
            "processed": "<p>Les boules de l\u00e9gumes Aoste ont \u00e9t\u00e9 d\u00e9velopp\u00e9es pour faciliter l\u2019apport quotidien de l\u00e9gumes. Ils contiennent chacun au moins 70% de l\u00e9gumes et l\u00e9gumineuses savoureux, avec un go\u00fbt familier. Peut \u00e9galement servir d\u2019alternative \u00e0 la viande, pour mettre \u00e0 niveau un plat saut\u00e9 ou en combinaison avec une salade (couscous). Ils sont 100% v\u00e9g\u00e9taux (v\u00e9g\u00e9taliens), contiennent 70% de l\u00e9gumes, sont riches en fibres et en graisses insatur\u00e9es et ne contiennent aucun exhausteur de go\u00fbt ajout\u00e9, riche en graisses insatur\u00e9es.<\/p>\n\n<p>Disponible en 2 saveurs: Citrouille-Carottes &amp; \u00c9pinard-Brocoli.<\/p>",
            "summary": "",
            "lang": "fr"
        }
    ],
    "field_nutriscore": [
        {
            "value": "A"
        }
    ],
    "field_product_allergenen": [
        {
            "value": "<p>Gluten<\/p>\r\n",
            "format": "basic_html",
            "processed": "<p>Gluten<\/p>",
            "lang": "nl"
        },
        {
            "value": "<p>Gluten<\/p>\r\n",
            "format": "basic_html",
            "processed": "<p>Gluten<\/p>",
            "lang": "fr"
        }
    ],
    "field_product_gewicht": [
        {
            "value": 160
        }
    ],
    "field_product_ingredienten": [
        {
            "value": "<p>Kikkererwten (33%),pompoen (23%), wortel (14%), zonnebloemolie, water, zetmeel, natuurlijk aroma, plantaardige vezels (suikerriet, bamboe, erwt), verdikkingsmiddel: methylcellulose, citroensappoeder, gedroogde ui, zout, zonnebloempitten (gedeeltelijk ontolied), erwteneiwit, azijn, specerijextracten, dextrose, ananaspoeder.<\/p>\r\n",
            "format": "basic_html",
            "processed": "<p>Kikkererwten (33%),pompoen (23%), wortel (14%), zonnebloemolie, water, zetmeel, natuurlijk aroma, plantaardige vezels (suikerriet, bamboe, erwt), verdikkingsmiddel: methylcellulose, citroensappoeder, gedroogde ui, zout, zonnebloempitten (gedeeltelijk ontolied), erwteneiwit, azijn, specerijextracten, dextrose, ananaspoeder.<\/p>",
            "lang": "nl"
        },
        {
            "value": "<p>Pois chiches (33%), potiron (23%), carotte (14%), huile de tournesol, eau, amidon, ar\u00f4me naturel, fibres v\u00e9g\u00e9tales (canne \u00e0 sucre, bambou, pois), \u00e9paississant : m\u00e9thylcellulose, jus de citron en poudre, oignon s\u00e9ch\u00e9, sel, graines de tournesol (partiellement d\u00e9shuil\u00e9es), prot\u00e9ine de pois, vinaigre, extraits d'\u00e9pices, dextrose, ananas en poudre.<\/p>\r\n",
            "format": "basic_html",
            "processed": "<p>Pois chiches (33%), potiron (23%), carotte (14%), huile de tournesol, eau, amidon, ar\u00f4me naturel, fibres v\u00e9g\u00e9tales (canne \u00e0 sucre, bambou, pois), \u00e9paississant : m\u00e9thylcellulose, jus de citron en poudre, oignon s\u00e9ch\u00e9, sel, graines de tournesol (partiellement d\u00e9shuil\u00e9es), prot\u00e9ine de pois, vinaigre, extraits d'\u00e9pices, dextrose, ananas en poudre.<\/p>",
            "lang": "fr"
        }
    ],
    "field_product_retailers": [
        {
            "uri": "https:\/\/www.delhaize.be\/nl-be\/shop\/Vlees-vis-en-vegetarische-producten\/Vegetarisch\/Vegetarische-maaltijd-componenten-en-ingredienten\/Vegetarische-bouletten-en-nuggets\/Ao-Veg-Balls-Pompoen-wortel\/p\/F2020060900060180000",
            "title": "Delhaize",
            "options": [],
            "lang": "nl"
        },
        {
            "uri": "https:\/\/www.delhaize.be\/fr-be\/shop\/Viande-poisson-et-produits-vegetariens\/Vegetarien\/Composants-de-repas-et-ingredients-vegetariens\/Boulettes-et-nuggets-vegetariens\/Ao-Veg-Balls-Potiron-carotte\/p\/F2020060900060180000",
            "title": "Delhaize",
            "options": [],
            "lang": "fr"
        }
    ],
    "field_voeding_eiwitten": [
        {
            "value": "4.0"
        }
    ],
    "field_voeding_energie": [
        {
            "value": 782
        }
    ],
    "field_voeding_kilocalorieen": [
        {
            "value": 189
        }
    ],
    "field_voeding_koolhydraten": [
        {
            "value": "9.8"
        }
    ],
    "field_voeding_suikers": [
        {
            "value": "2.2"
        }
    ],
    "field_voeding_verzadigde_vetten": [
        {
            "value": "1.6"
        }
    ],
    "field_voeding_vetten": [
        {
            "value": "13.0"
        }
    ],
    "field_voeding_zout": [
        {
            "value": "0.9"
        }
    ]
}