{
    "_links": {
        "self": {
            "href": "http:\/\/projecten-3-groep-7-webshop-aoste.dd:8083\/nl\/recepten\/pizza-ratatouille?_format=hal_json"
        },
        "type": {
            "href": "http:\/\/projecten-3-groep-7-webshop-aoste.dd:8083\/rest\/type\/node\/recept"
        },
        "http:\/\/projecten-3-groep-7-webshop-aoste.dd:8083\/rest\/relation\/node\/recept\/revision_uid": [
            {
                "href": "http:\/\/projecten-3-groep-7-webshop-aoste.dd:8083\/en\/user\/1?_format=hal_json"
            }
        ],
        "http:\/\/projecten-3-groep-7-webshop-aoste.dd:8083\/rest\/relation\/node\/recept\/uid": [
            {
                "href": "http:\/\/projecten-3-groep-7-webshop-aoste.dd:8083\/en\/user\/1?_format=hal_json",
                "lang": "nl"
            },
            {
                "href": "http:\/\/projecten-3-groep-7-webshop-aoste.dd:8083\/en\/user\/1?_format=hal_json",
                "lang": "fr"
            }
        ],
        "http:\/\/projecten-3-groep-7-webshop-aoste.dd:8083\/rest\/relation\/node\/recept\/field_recept_afbeelding": [
            {
                "href": "",
                "lang": "nl"
            },
            {
                "href": "",
                "lang": "fr"
            }
        ]
    },
    "uuid": [
        {
            "value": "ac63db1a-1e2f-4c12-b0e4-dda18485def0"
        }
    ],
    "langcode": [
        {
            "value": "nl",
            "lang": "nl"
        },
        {
            "value": "fr",
            "lang": "fr"
        }
    ],
    "type": [
        {
            "target_id": "recept"
        }
    ],
    "revision_timestamp": [
        {
            "value": "2020-12-11T09:04:28+00:00",
            "format": "Y-m-d\\TH:i:sP"
        }
    ],
    "_embedded": {
        "http:\/\/projecten-3-groep-7-webshop-aoste.dd:8083\/rest\/relation\/node\/recept\/revision_uid": [
            {
                "_links": {
                    "self": {
                        "href": "http:\/\/projecten-3-groep-7-webshop-aoste.dd:8083\/en\/user\/1?_format=hal_json"
                    },
                    "type": {
                        "href": "http:\/\/projecten-3-groep-7-webshop-aoste.dd:8083\/rest\/type\/user\/user"
                    }
                },
                "uuid": [
                    {
                        "value": "489454d7-9e67-460c-9ada-25e81edcb21e"
                    }
                ]
            }
        ],
        "http:\/\/projecten-3-groep-7-webshop-aoste.dd:8083\/rest\/relation\/node\/recept\/uid": [
            {
                "_links": {
                    "self": {
                        "href": "http:\/\/projecten-3-groep-7-webshop-aoste.dd:8083\/en\/user\/1?_format=hal_json"
                    },
                    "type": {
                        "href": "http:\/\/projecten-3-groep-7-webshop-aoste.dd:8083\/rest\/type\/user\/user"
                    }
                },
                "uuid": [
                    {
                        "value": "489454d7-9e67-460c-9ada-25e81edcb21e"
                    }
                ],
                "lang": "nl"
            },
            {
                "_links": {
                    "self": {
                        "href": "http:\/\/projecten-3-groep-7-webshop-aoste.dd:8083\/en\/user\/1?_format=hal_json"
                    },
                    "type": {
                        "href": "http:\/\/projecten-3-groep-7-webshop-aoste.dd:8083\/rest\/type\/user\/user"
                    }
                },
                "uuid": [
                    {
                        "value": "489454d7-9e67-460c-9ada-25e81edcb21e"
                    }
                ],
                "lang": "fr"
            }
        ],
        "http:\/\/projecten-3-groep-7-webshop-aoste.dd:8083\/rest\/relation\/node\/recept\/field_recept_afbeelding": [
            {
                "_links": {
                    "self": {
                        "href": ""
                    },
                    "type": {
                        "href": "http:\/\/projecten-3-groep-7-webshop-aoste.dd:8083\/rest\/type\/file\/file"
                    }
                },
                "uuid": [
                    {
                        "value": "d3f1c1fb-dec5-45cb-8b5e-b095c22fdc0f"
                    }
                ],
                "lang": "nl",
                "alt": "Paprika Pizza",
                "title": "",
                "width": "1500",
                "height": "2000"
            },
            {
                "_links": {
                    "self": {
                        "href": ""
                    },
                    "type": {
                        "href": "http:\/\/projecten-3-groep-7-webshop-aoste.dd:8083\/rest\/type\/file\/file"
                    }
                },
                "uuid": [
                    {
                        "value": "d3f1c1fb-dec5-45cb-8b5e-b095c22fdc0f"
                    }
                ],
                "lang": "fr",
                "alt": "Paprika Pizza",
                "title": "",
                "width": "1500",
                "height": "2000"
            }
        ]
    },
    "status": [
        {
            "value": true,
            "lang": "nl"
        },
        {
            "value": true,
            "lang": "fr"
        }
    ],
    "title": [
        {
            "value": "Pizza Ratatouille",
            "lang": "nl"
        },
        {
            "value": "Pizza Ratatouille",
            "lang": "fr"
        }
    ],
    "created": [
        {
            "value": "2020-12-11T09:00:32+00:00",
            "lang": "nl",
            "format": "Y-m-d\\TH:i:sP"
        },
        {
            "value": "2020-12-11T09:04:28+00:00",
            "lang": "fr",
            "format": "Y-m-d\\TH:i:sP"
        }
    ],
    "changed": [
        {
            "value": "2020-12-11T15:23:09+00:00",
            "lang": "nl",
            "format": "Y-m-d\\TH:i:sP"
        },
        {
            "value": "2020-12-11T15:42:38+00:00",
            "lang": "fr",
            "format": "Y-m-d\\TH:i:sP"
        }
    ],
    "promote": [
        {
            "value": true,
            "lang": "nl"
        },
        {
            "value": true,
            "lang": "fr"
        }
    ],
    "sticky": [
        {
            "value": false,
            "lang": "nl"
        },
        {
            "value": false,
            "lang": "fr"
        }
    ],
    "default_langcode": [
        {
            "value": true,
            "lang": "nl"
        },
        {
            "value": false,
            "lang": "fr"
        }
    ],
    "revision_translation_affected": [
        {
            "value": true,
            "lang": "nl"
        },
        {
            "value": true,
            "lang": "fr"
        }
    ],
    "path": [
        {
            "alias": "\/recepten\/pizza-ratatouille",
            "pid": 72,
            "langcode": "nl",
            "lang": "nl"
        },
        {
            "alias": "\/recepten\/pizza-ratatouille",
            "pid": 73,
            "langcode": "fr",
            "lang": "fr"
        }
    ],
    "content_translation_source": [
        {
            "value": "und",
            "lang": "nl"
        },
        {
            "value": "nl",
            "lang": "fr"
        }
    ],
    "content_translation_outdated": [
        {
            "value": false,
            "lang": "nl"
        },
        {
            "value": false,
            "lang": "fr"
        }
    ],
    "field_recept_bereidingstijd": [
        {
            "value": 40,
            "lang": "nl"
        },
        {
            "value": 40,
            "lang": "fr"
        }
    ],
    "field_recept_bereidingswijze": [
        {
            "value": "<ol>\r\n\t<li><span><span><span>Verwarm de oven voor op 220\u00b0C.<\/span><\/span><\/span><\/li>\r\n\t<li><span><span><span>Leg het pizzadeeg klaar op een bakplaat.<\/span><\/span><\/span><\/li>\r\n\t<li><span><span><span>Besmeer de bodem met de Aoste Ratatouille Groentespread.<\/span><\/span><\/span><\/li>\r\n\t<li><span><span><span>Besprenkel de pizzabodem met de edelgistvlokken, gegrilde paprikareepjes, rode ui, basilicum, kerstomaatjes, rozemarijn en zwarte sesamzaadjes.<\/span><\/span><\/span><\/li>\r\n\t<li><span><span><span>Bak in de oven gedurende 30 minuten.<\/span><\/span><\/span><\/li>\r\n\t<li><span><span><span>Haal de pizza uit de oven en serveer met de verse rucola.<\/span><\/span><\/span><\/li>\r\n<\/ol>\r\n",
            "format": "basic_html",
            "processed": "<ol>\n\t<li><span><span><span>Verwarm de oven voor op 220\u00b0C.<\/span><\/span><\/span><\/li>\n\t<li><span><span><span>Leg het pizzadeeg klaar op een bakplaat.<\/span><\/span><\/span><\/li>\n\t<li><span><span><span>Besmeer de bodem met de Aoste Ratatouille Groentespread.<\/span><\/span><\/span><\/li>\n\t<li><span><span><span>Besprenkel de pizzabodem met de edelgistvlokken, gegrilde paprikareepjes, rode ui, basilicum, kerstomaatjes, rozemarijn en zwarte sesamzaadjes.<\/span><\/span><\/span><\/li>\n\t<li><span><span><span>Bak in de oven gedurende 30 minuten.<\/span><\/span><\/span><\/li>\n\t<li><span><span><span>Haal de pizza uit de oven en serveer met de verse rucola.<\/span><\/span><\/span><\/li>\n<\/ol>",
            "lang": "nl"
        },
        {
            "value": "<p>&nbsp;<\/p>\r\n\r\n<ol>\r\n\t<li><span><span><span>Pr\u00e9chauffez le four \u00e0 220\u00b0C.<\/span><\/span><\/span><\/li>\r\n\t<li><span><span><span>\u00c9talez la p\u00e2te \u00e0 pizza sur une plaque de cuisson.<\/span><\/span><\/span><\/li>\r\n\t<li><span><span><span>Couvrez le fond avec l'Aoste Tartinade de l\u00e9gumes Ratatouille.<\/span><\/span><\/span><\/li>\r\n\t<li><span><span><span>R\u00e9pandez sur la p\u00e2te \u00e0 pizza les flocons de levure noble, les lani\u00e8res de poivron grill\u00e9, l'oignon rouge, le basilic, les tomates cerises, le romarin et les graines de s\u00e9same noir.<\/span><\/span><\/span><\/li>\r\n\t<li><span><span><span>Enfournez pendant 30 minutes.<\/span><\/span><\/span><\/li>\r\n\t<li><span><span><span>Sortez la pizza du four et servez avec la roquette fra\u00eeche.<\/span><\/span><\/span><\/li>\r\n<\/ol>\r\n\r\n<p>&nbsp;<\/p>\r\n",
            "format": "basic_html",
            "processed": "<p>\u00a0<\/p>\n\n<ol>\n\t<li><span><span><span>Pr\u00e9chauffez le four \u00e0 220\u00b0C.<\/span><\/span><\/span><\/li>\n\t<li><span><span><span>\u00c9talez la p\u00e2te \u00e0 pizza sur une plaque de cuisson.<\/span><\/span><\/span><\/li>\n\t<li><span><span><span>Couvrez le fond avec l'Aoste Tartinade de l\u00e9gumes Ratatouille.<\/span><\/span><\/span><\/li>\n\t<li><span><span><span>R\u00e9pandez sur la p\u00e2te \u00e0 pizza les flocons de levure noble, les lani\u00e8res de poivron grill\u00e9, l'oignon rouge, le basilic, les tomates cerises, le romarin et les graines de s\u00e9same noir.<\/span><\/span><\/span><\/li>\n\t<li><span><span><span>Enfournez pendant 30 minutes.<\/span><\/span><\/span><\/li>\n\t<li><span><span><span>Sortez la pizza du four et servez avec la roquette fra\u00eeche.<\/span><\/span><\/span><\/li>\n<\/ol>\n\n<p>\u00a0<\/p>",
            "lang": "fr"
        }
    ],
    "field_recept_ingredienten": [
        {
            "value": "<ul>\r\n\t<li><span><span><span>1 Pizzadeeg<\/span><\/span><\/span><\/li>\r\n\t<li><span><span><span>200 g Aoste Le V\u00e9g\u00e9tarien Ratatouille Groentespread<\/span><\/span><\/span><\/li>\r\n\t<li><span><span><span>50 g Edelgistvlokken<\/span><\/span><\/span><\/li>\r\n\t<li><span><span><span>1 Gegrilde paprika in reepjes<\/span><\/span><\/span><\/li>\r\n\t<li><span><span><span>1 Rode ui<\/span><\/span><\/span><\/li>\r\n\t<li><span><span><span>1 tbsp Basilicum<\/span><\/span><\/span><\/li>\r\n\t<li><span><span><span>20 g Rucola<\/span><\/span><\/span><\/li>\r\n\t<li><span><span><span>12 Kerstomaatjes<\/span><\/span><\/span><\/li>\r\n\t<li><span><span><span>1 stick Rozemarijn<\/span><\/span><\/span><\/li>\r\n\t<li><span><span><span>1 tbsp Zwarte sesamzaadjes<\/span><\/span><\/span><\/li>\r\n<\/ul>\r\n",
            "format": "basic_html",
            "processed": "<ul>\n\t<li><span><span><span>1 Pizzadeeg<\/span><\/span><\/span><\/li>\n\t<li><span><span><span>200 g Aoste Le V\u00e9g\u00e9tarien Ratatouille Groentespread<\/span><\/span><\/span><\/li>\n\t<li><span><span><span>50 g Edelgistvlokken<\/span><\/span><\/span><\/li>\n\t<li><span><span><span>1 Gegrilde paprika in reepjes<\/span><\/span><\/span><\/li>\n\t<li><span><span><span>1 Rode ui<\/span><\/span><\/span><\/li>\n\t<li><span><span><span>1 tbsp Basilicum<\/span><\/span><\/span><\/li>\n\t<li><span><span><span>20 g Rucola<\/span><\/span><\/span><\/li>\n\t<li><span><span><span>12 Kerstomaatjes<\/span><\/span><\/span><\/li>\n\t<li><span><span><span>1 stick Rozemarijn<\/span><\/span><\/span><\/li>\n\t<li><span><span><span>1 tbsp Zwarte sesamzaadjes<\/span><\/span><\/span><\/li>\n<\/ul>",
            "lang": "nl"
        },
        {
            "value": "<p>&nbsp;<\/p>\r\n\r\n<ul>\r\n\t<li><span><span><span>1 P\u00e2te \u00e0 pizza<\/span><\/span><\/span><\/li>\r\n\t<li><span><span><span>200 g Aoste Le V\u00e9g\u00e9tarien Tartinade de l\u00e9gumes Ratatouille<\/span><\/span><\/span><\/li>\r\n\t<li><span><span><span>50 g Flocons de levure noble<\/span><\/span><\/span><\/li>\r\n\t<li><span><span><span>1 Poivron, grill\u00e9 et coup\u00e9 en lani\u00e8res<\/span><\/span><\/span><\/li>\r\n\t<li><span><span><span>1 Oignon rouge<\/span><\/span><\/span><\/li>\r\n\t<li><span><span><span>1 tbsp Basilic<\/span><\/span><\/span><\/li>\r\n\t<li><span><span><span>20 g Roquette<\/span><\/span><\/span><\/li>\r\n\t<li><span><span><span>12 Tomates cerices<\/span><\/span><\/span><\/li>\r\n\t<li><span><span><span>1 stick Romarin<\/span><\/span><\/span><\/li>\r\n\t<li><span><span><span>1 tbsp Graines de s\u00e9same noir<\/span><\/span><\/span><\/li>\r\n<\/ul>\r\n\r\n<p>&nbsp;<\/p>\r\n",
            "format": "basic_html",
            "processed": "<p>\u00a0<\/p>\n\n<ul>\n\t<li><span><span><span>1 P\u00e2te \u00e0 pizza<\/span><\/span><\/span><\/li>\n\t<li><span><span><span>200 g Aoste Le V\u00e9g\u00e9tarien Tartinade de l\u00e9gumes Ratatouille<\/span><\/span><\/span><\/li>\n\t<li><span><span><span>50 g Flocons de levure noble<\/span><\/span><\/span><\/li>\n\t<li><span><span><span>1 Poivron, grill\u00e9 et coup\u00e9 en lani\u00e8res<\/span><\/span><\/span><\/li>\n\t<li><span><span><span>1 Oignon rouge<\/span><\/span><\/span><\/li>\n\t<li><span><span><span>1 tbsp Basilic<\/span><\/span><\/span><\/li>\n\t<li><span><span><span>20 g Roquette<\/span><\/span><\/span><\/li>\n\t<li><span><span><span>12 Tomates cerices<\/span><\/span><\/span><\/li>\n\t<li><span><span><span>1 stick Romarin<\/span><\/span><\/span><\/li>\n\t<li><span><span><span>1 tbsp Graines de s\u00e9same noir<\/span><\/span><\/span><\/li>\n<\/ul>\n\n<p>\u00a0<\/p>",
            "lang": "fr"
        }
    ],
    "field_recept_porties": [
        {
            "value": 4,
            "lang": "nl"
        },
        {
            "value": 4,
            "lang": "fr"
        }
    ]
}