{
    "_links": {
        "self": {
            "href": "http:\/\/projecten-3-groep-7-webshop-aoste.dd:8083\/nl\/recepten\/hartige-torentjes-van-bistro-patron-en-kruidenkaas?_format=hal_json"
        },
        "type": {
            "href": "http:\/\/projecten-3-groep-7-webshop-aoste.dd:8083\/rest\/type\/node\/recept"
        },
        "http:\/\/projecten-3-groep-7-webshop-aoste.dd:8083\/rest\/relation\/node\/recept\/revision_uid": [
            {
                "href": "http:\/\/projecten-3-groep-7-webshop-aoste.dd:8083\/en\/user\/1?_format=hal_json"
            }
        ],
        "http:\/\/projecten-3-groep-7-webshop-aoste.dd:8083\/rest\/relation\/node\/recept\/uid": [
            {
                "href": "http:\/\/projecten-3-groep-7-webshop-aoste.dd:8083\/en\/user\/1?_format=hal_json",
                "lang": "nl"
            },
            {
                "href": "http:\/\/projecten-3-groep-7-webshop-aoste.dd:8083\/en\/user\/1?_format=hal_json",
                "lang": "fr"
            }
        ],
        "http:\/\/projecten-3-groep-7-webshop-aoste.dd:8083\/rest\/relation\/node\/recept\/field_recept_afbeelding": [
            {
                "href": "",
                "lang": "nl"
            },
            {
                "href": "",
                "lang": "fr"
            }
        ],
        "http:\/\/projecten-3-groep-7-webshop-aoste.dd:8083\/rest\/relation\/node\/recept\/field_recept_gebruikte_producten": [
            {
                "href": "http:\/\/projecten-3-groep-7-webshop-aoste.dd:8083\/nl\/product\/bistro-patron?_format=hal_json",
                "lang": "nl"
            },
            {
                "href": "http:\/\/projecten-3-groep-7-webshop-aoste.dd:8083\/nl\/product\/bistro-patron?_format=hal_json",
                "lang": "fr"
            }
        ]
    },
    "uuid": [
        {
            "value": "b8739034-476d-4506-bdf6-3bf16f2e5e6b"
        }
    ],
    "langcode": [
        {
            "value": "nl",
            "lang": "nl"
        },
        {
            "value": "fr",
            "lang": "fr"
        }
    ],
    "type": [
        {
            "target_id": "recept"
        }
    ],
    "revision_timestamp": [
        {
            "value": "2020-12-11T09:46:54+00:00",
            "format": "Y-m-d\\TH:i:sP"
        }
    ],
    "_embedded": {
        "http:\/\/projecten-3-groep-7-webshop-aoste.dd:8083\/rest\/relation\/node\/recept\/revision_uid": [
            {
                "_links": {
                    "self": {
                        "href": "http:\/\/projecten-3-groep-7-webshop-aoste.dd:8083\/en\/user\/1?_format=hal_json"
                    },
                    "type": {
                        "href": "http:\/\/projecten-3-groep-7-webshop-aoste.dd:8083\/rest\/type\/user\/user"
                    }
                },
                "uuid": [
                    {
                        "value": "489454d7-9e67-460c-9ada-25e81edcb21e"
                    }
                ]
            }
        ],
        "http:\/\/projecten-3-groep-7-webshop-aoste.dd:8083\/rest\/relation\/node\/recept\/uid": [
            {
                "_links": {
                    "self": {
                        "href": "http:\/\/projecten-3-groep-7-webshop-aoste.dd:8083\/en\/user\/1?_format=hal_json"
                    },
                    "type": {
                        "href": "http:\/\/projecten-3-groep-7-webshop-aoste.dd:8083\/rest\/type\/user\/user"
                    }
                },
                "uuid": [
                    {
                        "value": "489454d7-9e67-460c-9ada-25e81edcb21e"
                    }
                ],
                "lang": "nl"
            },
            {
                "_links": {
                    "self": {
                        "href": "http:\/\/projecten-3-groep-7-webshop-aoste.dd:8083\/en\/user\/1?_format=hal_json"
                    },
                    "type": {
                        "href": "http:\/\/projecten-3-groep-7-webshop-aoste.dd:8083\/rest\/type\/user\/user"
                    }
                },
                "uuid": [
                    {
                        "value": "489454d7-9e67-460c-9ada-25e81edcb21e"
                    }
                ],
                "lang": "fr"
            }
        ],
        "http:\/\/projecten-3-groep-7-webshop-aoste.dd:8083\/rest\/relation\/node\/recept\/field_recept_afbeelding": [
            {
                "_links": {
                    "self": {
                        "href": ""
                    },
                    "type": {
                        "href": "http:\/\/projecten-3-groep-7-webshop-aoste.dd:8083\/rest\/type\/file\/file"
                    }
                },
                "uuid": [
                    {
                        "value": "439adaa0-d2f9-4cc9-8c71-cffa65604617"
                    }
                ],
                "lang": "nl",
                "alt": "Hartige Torentjes",
                "title": "",
                "width": "1200",
                "height": "800"
            },
            {
                "_links": {
                    "self": {
                        "href": ""
                    },
                    "type": {
                        "href": "http:\/\/projecten-3-groep-7-webshop-aoste.dd:8083\/rest\/type\/file\/file"
                    }
                },
                "uuid": [
                    {
                        "value": "439adaa0-d2f9-4cc9-8c71-cffa65604617"
                    }
                ],
                "lang": "fr",
                "alt": "Tourelles de Bistro Patron",
                "title": "",
                "width": "1200",
                "height": "800"
            }
        ],
        "http:\/\/projecten-3-groep-7-webshop-aoste.dd:8083\/rest\/relation\/node\/recept\/field_recept_gebruikte_producten": [
            {
                "_links": {
                    "self": {
                        "href": "http:\/\/projecten-3-groep-7-webshop-aoste.dd:8083\/nl\/product\/bistro-patron?_format=hal_json"
                    },
                    "type": {
                        "href": "http:\/\/projecten-3-groep-7-webshop-aoste.dd:8083\/rest\/type\/node\/product"
                    }
                },
                "uuid": [
                    {
                        "value": "5da3029e-d75e-47a9-860f-08c7223b637d"
                    }
                ],
                "lang": "nl"
            },
            {
                "_links": {
                    "self": {
                        "href": "http:\/\/projecten-3-groep-7-webshop-aoste.dd:8083\/nl\/product\/bistro-patron?_format=hal_json"
                    },
                    "type": {
                        "href": "http:\/\/projecten-3-groep-7-webshop-aoste.dd:8083\/rest\/type\/node\/product"
                    }
                },
                "uuid": [
                    {
                        "value": "5da3029e-d75e-47a9-860f-08c7223b637d"
                    }
                ],
                "lang": "fr"
            }
        ]
    },
    "status": [
        {
            "value": true,
            "lang": "nl"
        },
        {
            "value": true,
            "lang": "fr"
        }
    ],
    "title": [
        {
            "value": "Hartige torentjes van Bistro Patron en kruidenkaas",
            "lang": "nl"
        },
        {
            "value": "Savoureuses tourelles de Bistro Patron et fromage aux herbes",
            "lang": "fr"
        }
    ],
    "created": [
        {
            "value": "2020-12-11T09:43:57+00:00",
            "lang": "nl",
            "format": "Y-m-d\\TH:i:sP"
        },
        {
            "value": "2020-12-11T09:46:54+00:00",
            "lang": "fr",
            "format": "Y-m-d\\TH:i:sP"
        }
    ],
    "changed": [
        {
            "value": "2020-12-11T09:45:17+00:00",
            "lang": "nl",
            "format": "Y-m-d\\TH:i:sP"
        },
        {
            "value": "2020-12-11T09:46:54+00:00",
            "lang": "fr",
            "format": "Y-m-d\\TH:i:sP"
        }
    ],
    "promote": [
        {
            "value": false,
            "lang": "nl"
        },
        {
            "value": false,
            "lang": "fr"
        }
    ],
    "sticky": [
        {
            "value": false,
            "lang": "nl"
        },
        {
            "value": false,
            "lang": "fr"
        }
    ],
    "default_langcode": [
        {
            "value": true,
            "lang": "nl"
        },
        {
            "value": false,
            "lang": "fr"
        }
    ],
    "revision_translation_affected": [
        {
            "value": true,
            "lang": "fr"
        }
    ],
    "path": [
        {
            "alias": "\/recepten\/hartige-torentjes-van-bistro-patron-en-kruidenkaas",
            "pid": 92,
            "langcode": "nl",
            "lang": "nl"
        },
        {
            "alias": "\/recepten\/savoureuses-tourelles-de-bistro-patron-et-fromage-aux-herbes",
            "pid": 93,
            "langcode": "fr",
            "lang": "fr"
        }
    ],
    "content_translation_source": [
        {
            "value": "und",
            "lang": "nl"
        },
        {
            "value": "nl",
            "lang": "fr"
        }
    ],
    "content_translation_outdated": [
        {
            "value": false,
            "lang": "nl"
        },
        {
            "value": false,
            "lang": "fr"
        }
    ],
    "field_recept_bereidingstijd": [
        {
            "value": 10,
            "lang": "nl"
        },
        {
            "value": 10,
            "lang": "fr"
        }
    ],
    "field_recept_bereidingswijze": [
        {
            "value": "<ol>\r\n\t<li><span><span><span>Leg een eerste paar schijfjes AOSTE Bistro Patron\u00ae op een bord of plank.<\/span><\/span><\/span><\/li>\r\n\t<li><span><span><span>Leg op alle schijfjes een toefje smeerkaas.<\/span><\/span><\/span><\/li>\r\n\t<li><span><span><span>Leg hierboven op een nieuw schijfje AOSTE Bistro Patron\u00ae.<\/span><\/span><\/span><\/li>\r\n\t<li><span><span><span>Druk licht aan zodat de smeerkaas zich verdeelt tot aan de rand.<\/span><\/span><\/span><\/li>\r\n\t<li><span><span><span>Breng opnieuw een beetje smeerkaas aan.<\/span><\/span><\/span><\/li>\r\n\t<li><span><span><span>Leg hierboven op een derde schijfje AOSTE Bistro Patron\u00ae.<\/span><\/span><\/span><\/li>\r\n\t<li><span><span><span>Werk af met ofwel een gedroogd tomaatje ofwel een blaadje basilicum<\/span><\/span><\/span><\/li>\r\n<\/ol>\r\n",
            "format": "basic_html",
            "processed": "<ol>\n\t<li><span><span><span>Leg een eerste paar schijfjes AOSTE Bistro Patron\u00ae op een bord of plank.<\/span><\/span><\/span><\/li>\n\t<li><span><span><span>Leg op alle schijfjes een toefje smeerkaas.<\/span><\/span><\/span><\/li>\n\t<li><span><span><span>Leg hierboven op een nieuw schijfje AOSTE Bistro Patron\u00ae.<\/span><\/span><\/span><\/li>\n\t<li><span><span><span>Druk licht aan zodat de smeerkaas zich verdeelt tot aan de rand.<\/span><\/span><\/span><\/li>\n\t<li><span><span><span>Breng opnieuw een beetje smeerkaas aan.<\/span><\/span><\/span><\/li>\n\t<li><span><span><span>Leg hierboven op een derde schijfje AOSTE Bistro Patron\u00ae.<\/span><\/span><\/span><\/li>\n\t<li><span><span><span>Werk af met ofwel een gedroogd tomaatje ofwel een blaadje basilicum<\/span><\/span><\/span><\/li>\n<\/ol>",
            "lang": "nl"
        },
        {
            "value": "<ol>\r\n\t<li><span><span><span>Pour commencer, d\u00e9posez quelques rondelles de AOSTE Bistro Patron\u00ae sur une assiette ou une planche.<\/span><\/span><\/span><\/li>\r\n\t<li><span><span><span>D\u00e9posez une rosette de fromage \u00e0 tartiner sur chaque rondelle.<\/span><\/span><\/span><\/li>\r\n\t<li><span><span><span>D\u00e9posez par-dessus une nouvelle rondelle de AOSTE Bistro<\/span><\/span><\/span>&nbsp;<span><span><span>Patron\u00ae.<\/span><\/span><\/span><\/li>\r\n\t<li><span><span><span>Appuyez l\u00e9g\u00e8rement de fa\u00e7on \u00e0 ce que le fromage \u00e0 tartiner s'\u00e9tale jusqu'au bord.<\/span><\/span><\/span><\/li>\r\n\t<li><span><span><span>D\u00e9posez une nouvelle rosette de fromage \u00e0 tartiner par-dessus.<\/span><\/span><\/span><\/li>\r\n\t<li><span><span><span>Ensuite une troisi\u00e8me rondelle de AOSTE Bistro&nbsp;<\/span><\/span><\/span><span><span><span>Patron\u00ae.<\/span><\/span><\/span><\/li>\r\n\t<li><span><span><span>Terminez avec soit une petite tomate s\u00e9ch\u00e9e au soleil soit une feuille de basilic.<\/span><\/span><\/span><\/li>\r\n<\/ol>\r\n",
            "format": "basic_html",
            "processed": "<ol>\n\t<li><span><span><span>Pour commencer, d\u00e9posez quelques rondelles de AOSTE Bistro Patron\u00ae sur une assiette ou une planche.<\/span><\/span><\/span><\/li>\n\t<li><span><span><span>D\u00e9posez une rosette de fromage \u00e0 tartiner sur chaque rondelle.<\/span><\/span><\/span><\/li>\n\t<li><span><span><span>D\u00e9posez par-dessus une nouvelle rondelle de AOSTE Bistro<\/span><\/span><\/span>\u00a0<span><span><span>Patron\u00ae.<\/span><\/span><\/span><\/li>\n\t<li><span><span><span>Appuyez l\u00e9g\u00e8rement de fa\u00e7on \u00e0 ce que le fromage \u00e0 tartiner s'\u00e9tale jusqu'au bord.<\/span><\/span><\/span><\/li>\n\t<li><span><span><span>D\u00e9posez une nouvelle rosette de fromage \u00e0 tartiner par-dessus.<\/span><\/span><\/span><\/li>\n\t<li><span><span><span>Ensuite une troisi\u00e8me rondelle de AOSTE Bistro\u00a0<\/span><\/span><\/span><span><span><span>Patron\u00ae.<\/span><\/span><\/span><\/li>\n\t<li><span><span><span>Terminez avec soit une petite tomate s\u00e9ch\u00e9e au soleil soit une feuille de basilic.<\/span><\/span><\/span><\/li>\n<\/ol>",
            "lang": "fr"
        }
    ],
    "field_recept_ingredienten": [
        {
            "value": "<ul>\r\n\t<li><span><span><span>1 Aoste Bistro Patron<\/span><\/span><\/span><\/li>\r\n\t<li><span><span><span>2 handjes zongedroogde tomaten<\/span><\/span><\/span><\/li>\r\n\t<li><span><span><span>1 handje rucola salade<\/span><\/span><\/span><\/li>\r\n\t<li><span><span><span>smeerkaas<\/span><\/span><\/span><\/li>\r\n\t<li><span><span><span>enkele blaadjes basilicum<\/span><\/span><\/span><\/li>\r\n\t<li><span><span><span>kruiden naar keuze<\/span><\/span><\/span><\/li>\r\n<\/ul>\r\n",
            "format": "basic_html",
            "processed": "<ul>\n\t<li><span><span><span>1 Aoste Bistro Patron<\/span><\/span><\/span><\/li>\n\t<li><span><span><span>2 handjes zongedroogde tomaten<\/span><\/span><\/span><\/li>\n\t<li><span><span><span>1 handje rucola salade<\/span><\/span><\/span><\/li>\n\t<li><span><span><span>smeerkaas<\/span><\/span><\/span><\/li>\n\t<li><span><span><span>enkele blaadjes basilicum<\/span><\/span><\/span><\/li>\n\t<li><span><span><span>kruiden naar keuze<\/span><\/span><\/span><\/li>\n<\/ul>",
            "lang": "nl"
        },
        {
            "value": "<ul>\r\n\t<li><span><span><span>1 Aoste Bistro Patron<\/span><\/span><\/span><\/li>\r\n\t<li><span><span><span>2 poign\u00e9es de tomates s\u00e9ch\u00e9es au soleil<\/span><\/span><\/span><\/li>\r\n\t<li><span><span><span>1 poign\u00e9e de roquette<\/span><\/span><\/span><\/li>\r\n\t<li><span><span><span>fromage \u00e0 tartiner<\/span><\/span><\/span><\/li>\r\n\t<li><span><span><span>quelques feuilles de basilic<\/span><\/span><\/span><\/li>\r\n\t<li><span><span><span>\u00e9pices au choix<\/span><\/span><\/span><\/li>\r\n<\/ul>\r\n",
            "format": "basic_html",
            "processed": "<ul>\n\t<li><span><span><span>1 Aoste Bistro Patron<\/span><\/span><\/span><\/li>\n\t<li><span><span><span>2 poign\u00e9es de tomates s\u00e9ch\u00e9es au soleil<\/span><\/span><\/span><\/li>\n\t<li><span><span><span>1 poign\u00e9e de roquette<\/span><\/span><\/span><\/li>\n\t<li><span><span><span>fromage \u00e0 tartiner<\/span><\/span><\/span><\/li>\n\t<li><span><span><span>quelques feuilles de basilic<\/span><\/span><\/span><\/li>\n\t<li><span><span><span>\u00e9pices au choix<\/span><\/span><\/span><\/li>\n<\/ul>",
            "lang": "fr"
        }
    ],
    "field_recept_porties": [
        {
            "value": 4,
            "lang": "nl"
        },
        {
            "value": 4,
            "lang": "fr"
        }
    ]
}