{
    "_links": {
        "self": {
            "href": "http:\/\/projecten-3-groep-7-webshop-aoste.dd:8083\/nl\/recepten\/groenteballetjes-pompoen-wortel-met-macaroni?_format=hal_json"
        },
        "type": {
            "href": "http:\/\/projecten-3-groep-7-webshop-aoste.dd:8083\/rest\/type\/node\/recept"
        },
        "http:\/\/projecten-3-groep-7-webshop-aoste.dd:8083\/rest\/relation\/node\/recept\/revision_uid": [
            {
                "href": "http:\/\/projecten-3-groep-7-webshop-aoste.dd:8083\/en\/user\/1?_format=hal_json"
            }
        ],
        "http:\/\/projecten-3-groep-7-webshop-aoste.dd:8083\/rest\/relation\/node\/recept\/uid": [
            {
                "href": "http:\/\/projecten-3-groep-7-webshop-aoste.dd:8083\/en\/user\/1?_format=hal_json",
                "lang": "nl"
            },
            {
                "href": "http:\/\/projecten-3-groep-7-webshop-aoste.dd:8083\/en\/user\/1?_format=hal_json",
                "lang": "fr"
            }
        ],
        "http:\/\/projecten-3-groep-7-webshop-aoste.dd:8083\/rest\/relation\/node\/recept\/field_recept_afbeelding": [
            {
                "href": "",
                "lang": "nl"
            },
            {
                "href": "",
                "lang": "fr"
            }
        ],
        "http:\/\/projecten-3-groep-7-webshop-aoste.dd:8083\/rest\/relation\/node\/recept\/field_recept_gebruikte_producten": [
            {
                "href": "http:\/\/projecten-3-groep-7-webshop-aoste.dd:8083\/nl\/product\/le-vegetarien-groenteballetjes-pompoen-wortel?_format=hal_json",
                "lang": "nl"
            }
        ]
    },
    "uuid": [
        {
            "value": "cfdecb1d-4a98-4fc3-b844-4740d0570f8c"
        }
    ],
    "langcode": [
        {
            "value": "nl",
            "lang": "nl"
        },
        {
            "value": "fr",
            "lang": "fr"
        }
    ],
    "type": [
        {
            "target_id": "recept"
        }
    ],
    "revision_timestamp": [
        {
            "value": "2020-12-11T09:19:26+00:00",
            "format": "Y-m-d\\TH:i:sP"
        }
    ],
    "_embedded": {
        "http:\/\/projecten-3-groep-7-webshop-aoste.dd:8083\/rest\/relation\/node\/recept\/revision_uid": [
            {
                "_links": {
                    "self": {
                        "href": "http:\/\/projecten-3-groep-7-webshop-aoste.dd:8083\/en\/user\/1?_format=hal_json"
                    },
                    "type": {
                        "href": "http:\/\/projecten-3-groep-7-webshop-aoste.dd:8083\/rest\/type\/user\/user"
                    }
                },
                "uuid": [
                    {
                        "value": "489454d7-9e67-460c-9ada-25e81edcb21e"
                    }
                ]
            }
        ],
        "http:\/\/projecten-3-groep-7-webshop-aoste.dd:8083\/rest\/relation\/node\/recept\/uid": [
            {
                "_links": {
                    "self": {
                        "href": "http:\/\/projecten-3-groep-7-webshop-aoste.dd:8083\/en\/user\/1?_format=hal_json"
                    },
                    "type": {
                        "href": "http:\/\/projecten-3-groep-7-webshop-aoste.dd:8083\/rest\/type\/user\/user"
                    }
                },
                "uuid": [
                    {
                        "value": "489454d7-9e67-460c-9ada-25e81edcb21e"
                    }
                ],
                "lang": "nl"
            },
            {
                "_links": {
                    "self": {
                        "href": "http:\/\/projecten-3-groep-7-webshop-aoste.dd:8083\/en\/user\/1?_format=hal_json"
                    },
                    "type": {
                        "href": "http:\/\/projecten-3-groep-7-webshop-aoste.dd:8083\/rest\/type\/user\/user"
                    }
                },
                "uuid": [
                    {
                        "value": "489454d7-9e67-460c-9ada-25e81edcb21e"
                    }
                ],
                "lang": "fr"
            }
        ],
        "http:\/\/projecten-3-groep-7-webshop-aoste.dd:8083\/rest\/relation\/node\/recept\/field_recept_afbeelding": [
            {
                "_links": {
                    "self": {
                        "href": ""
                    },
                    "type": {
                        "href": "http:\/\/projecten-3-groep-7-webshop-aoste.dd:8083\/rest\/type\/file\/file"
                    }
                },
                "uuid": [
                    {
                        "value": "35087ccb-cb6f-4a85-be7f-40f3523183f2"
                    }
                ],
                "lang": "nl",
                "alt": "Wortel Pompoen Macaroni",
                "title": "",
                "width": "2400",
                "height": "1799"
            },
            {
                "_links": {
                    "self": {
                        "href": ""
                    },
                    "type": {
                        "href": "http:\/\/projecten-3-groep-7-webshop-aoste.dd:8083\/rest\/type\/file\/file"
                    }
                },
                "uuid": [
                    {
                        "value": "35087ccb-cb6f-4a85-be7f-40f3523183f2"
                    }
                ],
                "lang": "fr",
                "alt": "Citrouille-Carottes aux macaronis",
                "title": "",
                "width": "2400",
                "height": "1799"
            }
        ],
        "http:\/\/projecten-3-groep-7-webshop-aoste.dd:8083\/rest\/relation\/node\/recept\/field_recept_gebruikte_producten": [
            {
                "_links": {
                    "self": {
                        "href": "http:\/\/projecten-3-groep-7-webshop-aoste.dd:8083\/nl\/product\/le-vegetarien-groenteballetjes-pompoen-wortel?_format=hal_json"
                    },
                    "type": {
                        "href": "http:\/\/projecten-3-groep-7-webshop-aoste.dd:8083\/rest\/type\/node\/product"
                    }
                },
                "uuid": [
                    {
                        "value": "9f409b8d-a26c-4d8b-9048-a8a1309fc978"
                    }
                ],
                "lang": "nl"
            }
        ]
    },
    "status": [
        {
            "value": true,
            "lang": "nl"
        },
        {
            "value": true,
            "lang": "fr"
        }
    ],
    "title": [
        {
            "value": "Groenteballetjes Pompoen-Wortel met macaroni",
            "lang": "nl"
        },
        {
            "value": "Boulettes de l\u00e9gumes Citrouille-Carottes aux macaronis",
            "lang": "fr"
        }
    ],
    "created": [
        {
            "value": "2020-12-11T09:16:39+00:00",
            "lang": "nl",
            "format": "Y-m-d\\TH:i:sP"
        },
        {
            "value": "2020-12-11T09:19:26+00:00",
            "lang": "fr",
            "format": "Y-m-d\\TH:i:sP"
        }
    ],
    "changed": [
        {
            "value": "2020-12-12T16:03:05+00:00",
            "lang": "nl",
            "format": "Y-m-d\\TH:i:sP"
        },
        {
            "value": "2020-12-11T09:19:26+00:00",
            "lang": "fr",
            "format": "Y-m-d\\TH:i:sP"
        }
    ],
    "promote": [
        {
            "value": false,
            "lang": "nl"
        },
        {
            "value": false,
            "lang": "fr"
        }
    ],
    "sticky": [
        {
            "value": false,
            "lang": "nl"
        },
        {
            "value": false,
            "lang": "fr"
        }
    ],
    "default_langcode": [
        {
            "value": true,
            "lang": "nl"
        },
        {
            "value": false,
            "lang": "fr"
        }
    ],
    "revision_translation_affected": [
        {
            "value": true,
            "lang": "nl"
        },
        {
            "value": true,
            "lang": "fr"
        }
    ],
    "path": [
        {
            "alias": "\/recepten\/groenteballetjes-pompoen-wortel-met-macaroni",
            "pid": 78,
            "langcode": "nl",
            "lang": "nl"
        },
        {
            "alias": "\/recepten\/boulettes-de-legumes-citrouille-carottes-aux-macaronis",
            "pid": 79,
            "langcode": "fr",
            "lang": "fr"
        }
    ],
    "content_translation_source": [
        {
            "value": "und",
            "lang": "nl"
        },
        {
            "value": "nl",
            "lang": "fr"
        }
    ],
    "content_translation_outdated": [
        {
            "value": false,
            "lang": "nl"
        },
        {
            "value": false,
            "lang": "fr"
        }
    ],
    "field_recept_bereidingstijd": [
        {
            "value": 25,
            "lang": "nl"
        },
        {
            "value": 25,
            "lang": "fr"
        }
    ],
    "field_recept_bereidingswijze": [
        {
            "value": "<ol>\r\n\t<li><span><span><span>Pel en snijd de sjalot fijn. Spoel de kerstomaatjes en halveer ze.<\/span><\/span><\/span><\/li>\r\n\t<li><span><span><span>Stoof de sjalot aan in de helft van de olijfolie en voeg er de tomaatjes, tijm, laurier, rozema-rijn en oregano aan toe. Laat alles op een zacht vuurtje stoven gedurende 15 minuten.<\/span><\/span><\/span><\/li>\r\n\t<li><span><span><span>Kook ondertussen de macaroni zoals vermeld op de verpakking.<\/span><\/span><\/span><\/li>\r\n\t<li><span><span><span>Bak de Aoste Groenteballetjes Pompoen-Wortel in een antikleefpan met de rest van de olijf-olie tot ze aan alle kanten mooi gekleurd zijn.<\/span><\/span><\/span><\/li>\r\n\t<li><span><span><span>Meng de mascarpone onder de tomatensaus en kruid indien nodig bij met peper en zout.<\/span><\/span><\/span><\/li>\r\n\t<li><span><span><span>Serveer de macaroni met de saus en de Aoste Groenteballetjes Pompoen-Wortel en werk af met de platte peterselie.<\/span><\/span><\/span><\/li>\r\n<\/ol>\r\n",
            "format": "basic_html",
            "processed": "<ol>\n\t<li><span><span><span>Pel en snijd de sjalot fijn. Spoel de kerstomaatjes en halveer ze.<\/span><\/span><\/span><\/li>\n\t<li><span><span><span>Stoof de sjalot aan in de helft van de olijfolie en voeg er de tomaatjes, tijm, laurier, rozema-rijn en oregano aan toe. Laat alles op een zacht vuurtje stoven gedurende 15 minuten.<\/span><\/span><\/span><\/li>\n\t<li><span><span><span>Kook ondertussen de macaroni zoals vermeld op de verpakking.<\/span><\/span><\/span><\/li>\n\t<li><span><span><span>Bak de Aoste Groenteballetjes Pompoen-Wortel in een antikleefpan met de rest van de olijf-olie tot ze aan alle kanten mooi gekleurd zijn.<\/span><\/span><\/span><\/li>\n\t<li><span><span><span>Meng de mascarpone onder de tomatensaus en kruid indien nodig bij met peper en zout.<\/span><\/span><\/span><\/li>\n\t<li><span><span><span>Serveer de macaroni met de saus en de Aoste Groenteballetjes Pompoen-Wortel en werk af met de platte peterselie.<\/span><\/span><\/span><\/li>\n<\/ol>",
            "lang": "nl"
        },
        {
            "value": "<ol>\r\n\t<li><span><span><span>Pelez et \u00e9mincez l'\u00e9chalote. Rincez les tomates cerises et coupez-les en deux.<\/span><\/span><\/span><\/li>\r\n\t<li><span><span><span>Faites \u00e9tuver l'\u00e9chalote dans la moiti\u00e9 de l'huile d'olive et ajoutez les tomates cerises, le thym, le laurier, le romarin et l'origan. Laisser tout \u00e9tuver \u00e0 feu doux pendant 15 minutes.<\/span><\/span><\/span><\/li>\r\n\t<li><span><span><span>Pendant ce temps, faites cuire les macaronis en suivant les instructions sur l'emballage.<\/span><\/span><\/span><\/li>\r\n\t<li><span><span><span>Faites cuire les Aoste Boulettes de l\u00e9gumes Citrouille-Carottes dans une po\u00eale antiadh\u00e9sive avec le reste de l'huile d'olive, jusqu'\u00e0 ce qu'elles soient uniform\u00e9ment color\u00e9es.<\/span><\/span><\/span><\/li>\r\n\t<li><span><span><span>M\u00e9langez le mascarpone avec la sauce tomates, et rectifiez l'assaisonnement si n\u00e9cessaire avec sel et poivre.<\/span><\/span><\/span><\/li>\r\n\t<li><span><span><span>Servez les macaronis avec la sauce et les Aoste Boulettes de l\u00e9gumes Citrouille-Carottes, et d\u00e9corez pour terminer avec le persil plat.<\/span><\/span><\/span><\/li>\r\n<\/ol>\r\n",
            "format": "basic_html",
            "processed": "<ol>\n\t<li><span><span><span>Pelez et \u00e9mincez l'\u00e9chalote. Rincez les tomates cerises et coupez-les en deux.<\/span><\/span><\/span><\/li>\n\t<li><span><span><span>Faites \u00e9tuver l'\u00e9chalote dans la moiti\u00e9 de l'huile d'olive et ajoutez les tomates cerises, le thym, le laurier, le romarin et l'origan. Laisser tout \u00e9tuver \u00e0 feu doux pendant 15 minutes.<\/span><\/span><\/span><\/li>\n\t<li><span><span><span>Pendant ce temps, faites cuire les macaronis en suivant les instructions sur l'emballage.<\/span><\/span><\/span><\/li>\n\t<li><span><span><span>Faites cuire les Aoste Boulettes de l\u00e9gumes Citrouille-Carottes dans une po\u00eale antiadh\u00e9sive avec le reste de l'huile d'olive, jusqu'\u00e0 ce qu'elles soient uniform\u00e9ment color\u00e9es.<\/span><\/span><\/span><\/li>\n\t<li><span><span><span>M\u00e9langez le mascarpone avec la sauce tomates, et rectifiez l'assaisonnement si n\u00e9cessaire avec sel et poivre.<\/span><\/span><\/span><\/li>\n\t<li><span><span><span>Servez les macaronis avec la sauce et les Aoste Boulettes de l\u00e9gumes Citrouille-Carottes, et d\u00e9corez pour terminer avec le persil plat.<\/span><\/span><\/span><\/li>\n<\/ol>",
            "lang": "fr"
        }
    ],
    "field_recept_ingredienten": [
        {
            "value": "<ul>\r\n\t<li><span><span><span>16 Aoste Groenteballetjes Pompoen-Wortel<\/span><\/span><\/span><\/li>\r\n\t<li><span><span><span>400 g macaroni<\/span><\/span><\/span><\/li>\r\n\t<li><span><span><span>1 sjalot<\/span><\/span><\/span><\/li>\r\n\t<li><span><span><span>300 g kerstomaatjes<\/span><\/span><\/span><\/li>\r\n\t<li><span><span><span>4 takjes tijm<\/span><\/span><\/span><\/li>\r\n\t<li><span><span><span>1 takje rozemarijn<\/span><\/span><\/span><\/li>\r\n\t<li><span><span><span>2 takjes oregano<\/span><\/span><\/span><\/li>\r\n\t<li><span><span><span>1 laurierblad<\/span><\/span><\/span><\/li>\r\n\t<li><span><span><span>3 el mascarpone<\/span><\/span><\/span><\/li>\r\n\t<li><span><span><span>2 takjes platte peterselie<\/span><\/span><\/span><\/li>\r\n\t<li><span><span><span>2 el olijfolie<\/span><\/span><\/span><\/li>\r\n\t<li><span><span><span>peper en zout<\/span><\/span><\/span><\/li>\r\n<\/ul>\r\n",
            "format": "basic_html",
            "processed": "<ul>\n\t<li><span><span><span>16 Aoste Groenteballetjes Pompoen-Wortel<\/span><\/span><\/span><\/li>\n\t<li><span><span><span>400 g macaroni<\/span><\/span><\/span><\/li>\n\t<li><span><span><span>1 sjalot<\/span><\/span><\/span><\/li>\n\t<li><span><span><span>300 g kerstomaatjes<\/span><\/span><\/span><\/li>\n\t<li><span><span><span>4 takjes tijm<\/span><\/span><\/span><\/li>\n\t<li><span><span><span>1 takje rozemarijn<\/span><\/span><\/span><\/li>\n\t<li><span><span><span>2 takjes oregano<\/span><\/span><\/span><\/li>\n\t<li><span><span><span>1 laurierblad<\/span><\/span><\/span><\/li>\n\t<li><span><span><span>3 el mascarpone<\/span><\/span><\/span><\/li>\n\t<li><span><span><span>2 takjes platte peterselie<\/span><\/span><\/span><\/li>\n\t<li><span><span><span>2 el olijfolie<\/span><\/span><\/span><\/li>\n\t<li><span><span><span>peper en zout<\/span><\/span><\/span><\/li>\n<\/ul>",
            "lang": "nl"
        },
        {
            "value": "<p>&nbsp;<\/p>\r\n\r\n<ul>\r\n\t<li><span><span><span>16 Aoste Boulettes de l\u00e9gumes Citrouille-Carottes<\/span><\/span><\/span><\/li>\r\n\t<li><span><span><span>400 g de macaronis<\/span><\/span><\/span><\/li>\r\n\t<li><span><span><span>1 \u00e9chalote<\/span><\/span><\/span><\/li>\r\n\t<li><span><span><span>300 g de tomates cerises<\/span><\/span><\/span><\/li>\r\n\t<li><span><span><span>4 branches de thym<\/span><\/span><\/span><\/li>\r\n\t<li><span><span><span>1 branche de romarin<\/span><\/span><\/span><\/li>\r\n\t<li><span><span><span>2 branches d'origan<\/span><\/span><\/span><\/li>\r\n\t<li><span><span><span>1 feuille de laurier<\/span><\/span><\/span><\/li>\r\n\t<li><span><span><span>3 c. \u00e0 soupe de mascarpone<\/span><\/span><\/span><\/li>\r\n\t<li><span><span><span>2 branches de persil plat<\/span><\/span><\/span><\/li>\r\n\t<li><span><span><span>2 c. \u00e0 soupe d'huile d'olive<\/span><\/span><\/span><\/li>\r\n\t<li><span><span><span>sel et poivre<\/span><\/span><\/span><\/li>\r\n<\/ul>\r\n\r\n<p>&nbsp;<\/p>\r\n",
            "format": "basic_html",
            "processed": "<p>\u00a0<\/p>\n\n<ul>\n\t<li><span><span><span>16 Aoste Boulettes de l\u00e9gumes Citrouille-Carottes<\/span><\/span><\/span><\/li>\n\t<li><span><span><span>400 g de macaronis<\/span><\/span><\/span><\/li>\n\t<li><span><span><span>1 \u00e9chalote<\/span><\/span><\/span><\/li>\n\t<li><span><span><span>300 g de tomates cerises<\/span><\/span><\/span><\/li>\n\t<li><span><span><span>4 branches de thym<\/span><\/span><\/span><\/li>\n\t<li><span><span><span>1 branche de romarin<\/span><\/span><\/span><\/li>\n\t<li><span><span><span>2 branches d'origan<\/span><\/span><\/span><\/li>\n\t<li><span><span><span>1 feuille de laurier<\/span><\/span><\/span><\/li>\n\t<li><span><span><span>3 c. \u00e0 soupe de mascarpone<\/span><\/span><\/span><\/li>\n\t<li><span><span><span>2 branches de persil plat<\/span><\/span><\/span><\/li>\n\t<li><span><span><span>2 c. \u00e0 soupe d'huile d'olive<\/span><\/span><\/span><\/li>\n\t<li><span><span><span>sel et poivre<\/span><\/span><\/span><\/li>\n<\/ul>\n\n<p>\u00a0<\/p>",
            "lang": "fr"
        }
    ],
    "field_recept_porties": [
        {
            "value": 4,
            "lang": "nl"
        },
        {
            "value": 4,
            "lang": "fr"
        }
    ]
}