{
    "_links": {
        "self": {
            "href": "http:\/\/projecten-3-groep-7-webshop-aoste.dd:8083\/nl\/Promo\/authentieke-aanbiedingen?_format=hal_json"
        },
        "type": {
            "href": "http:\/\/projecten-3-groep-7-webshop-aoste.dd:8083\/rest\/type\/node\/promo"
        },
        "http:\/\/projecten-3-groep-7-webshop-aoste.dd:8083\/rest\/relation\/node\/promo\/revision_uid": [
            {
                "href": "http:\/\/projecten-3-groep-7-webshop-aoste.dd:8083\/en\/user\/1?_format=hal_json"
            }
        ],
        "http:\/\/projecten-3-groep-7-webshop-aoste.dd:8083\/rest\/relation\/node\/promo\/uid": [
            {
                "href": "http:\/\/projecten-3-groep-7-webshop-aoste.dd:8083\/en\/user\/1?_format=hal_json",
                "lang": "nl"
            },
            {
                "href": "http:\/\/projecten-3-groep-7-webshop-aoste.dd:8083\/en\/user\/1?_format=hal_json",
                "lang": "fr"
            }
        ],
        "http:\/\/projecten-3-groep-7-webshop-aoste.dd:8083\/rest\/relation\/node\/promo\/field_coupon": [
            {
                "href": ""
            }
        ],
        "http:\/\/projecten-3-groep-7-webshop-aoste.dd:8083\/rest\/relation\/node\/promo\/field_image": [
            {
                "href": "",
                "lang": "nl"
            },
            {
                "href": "",
                "lang": "fr"
            }
        ],
        "http:\/\/projecten-3-groep-7-webshop-aoste.dd:8083\/rest\/relation\/node\/promo\/field_promo_producten": [
            {
                "href": "http:\/\/projecten-3-groep-7-webshop-aoste.dd:8083\/nl\/product\/authentique-kipfilet?_format=hal_json"
            },
            {
                "href": "http:\/\/projecten-3-groep-7-webshop-aoste.dd:8083\/nl\/product\/authentique-beenham?_format=hal_json"
            },
            {
                "href": "http:\/\/projecten-3-groep-7-webshop-aoste.dd:8083\/nl\/product\/authentique-kookham-ontvet?_format=hal_json"
            },
            {
                "href": "http:\/\/projecten-3-groep-7-webshop-aoste.dd:8083\/nl\/product\/authentique-cremepate?_format=hal_json"
            }
        ]
    },
    "uuid": [
        {
            "value": "0ad578fa-5512-4d83-a187-7814d4cb15ea"
        }
    ],
    "langcode": [
        {
            "value": "nl",
            "lang": "nl"
        },
        {
            "value": "fr",
            "lang": "fr"
        }
    ],
    "type": [
        {
            "target_id": "promo"
        }
    ],
    "revision_timestamp": [
        {
            "value": "2020-12-07T14:01:41+00:00",
            "format": "Y-m-d\\TH:i:sP"
        }
    ],
    "_embedded": {
        "http:\/\/projecten-3-groep-7-webshop-aoste.dd:8083\/rest\/relation\/node\/promo\/revision_uid": [
            {
                "_links": {
                    "self": {
                        "href": "http:\/\/projecten-3-groep-7-webshop-aoste.dd:8083\/en\/user\/1?_format=hal_json"
                    },
                    "type": {
                        "href": "http:\/\/projecten-3-groep-7-webshop-aoste.dd:8083\/rest\/type\/user\/user"
                    }
                },
                "uuid": [
                    {
                        "value": "489454d7-9e67-460c-9ada-25e81edcb21e"
                    }
                ]
            }
        ],
        "http:\/\/projecten-3-groep-7-webshop-aoste.dd:8083\/rest\/relation\/node\/promo\/uid": [
            {
                "_links": {
                    "self": {
                        "href": "http:\/\/projecten-3-groep-7-webshop-aoste.dd:8083\/en\/user\/1?_format=hal_json"
                    },
                    "type": {
                        "href": "http:\/\/projecten-3-groep-7-webshop-aoste.dd:8083\/rest\/type\/user\/user"
                    }
                },
                "uuid": [
                    {
                        "value": "489454d7-9e67-460c-9ada-25e81edcb21e"
                    }
                ],
                "lang": "nl"
            },
            {
                "_links": {
                    "self": {
                        "href": "http:\/\/projecten-3-groep-7-webshop-aoste.dd:8083\/en\/user\/1?_format=hal_json"
                    },
                    "type": {
                        "href": "http:\/\/projecten-3-groep-7-webshop-aoste.dd:8083\/rest\/type\/user\/user"
                    }
                },
                "uuid": [
                    {
                        "value": "489454d7-9e67-460c-9ada-25e81edcb21e"
                    }
                ],
                "lang": "fr"
            }
        ],
        "http:\/\/projecten-3-groep-7-webshop-aoste.dd:8083\/rest\/relation\/node\/promo\/field_coupon": [
            {
                "_links": {
                    "self": {
                        "href": ""
                    },
                    "type": {
                        "href": "http:\/\/projecten-3-groep-7-webshop-aoste.dd:8083\/rest\/type\/file\/file"
                    }
                },
                "uuid": [
                    {
                        "value": "6ff47f01-0a1b-4a0a-bad3-49bb719e0e62"
                    }
                ],
                "display": "1",
                "description": "Coupon"
            }
        ],
        "http:\/\/projecten-3-groep-7-webshop-aoste.dd:8083\/rest\/relation\/node\/promo\/field_image": [
            {
                "_links": {
                    "self": {
                        "href": ""
                    },
                    "type": {
                        "href": "http:\/\/projecten-3-groep-7-webshop-aoste.dd:8083\/rest\/type\/file\/file"
                    }
                },
                "uuid": [
                    {
                        "value": "bc4f320e-628e-469c-bdc9-0b84efcf612d"
                    }
                ],
                "lang": "nl",
                "alt": "Authentique Kipfilet",
                "title": "",
                "width": "13333",
                "height": "5000"
            },
            {
                "_links": {
                    "self": {
                        "href": ""
                    },
                    "type": {
                        "href": "http:\/\/projecten-3-groep-7-webshop-aoste.dd:8083\/rest\/type\/file\/file"
                    }
                },
                "uuid": [
                    {
                        "value": "05859f8d-97a6-4cbc-b7d6-b36ddf30bd5a"
                    }
                ],
                "lang": "fr",
                "alt": "Promotion",
                "title": "",
                "width": "13333",
                "height": "5000"
            }
        ],
        "http:\/\/projecten-3-groep-7-webshop-aoste.dd:8083\/rest\/relation\/node\/promo\/field_promo_producten": [
            {
                "_links": {
                    "self": {
                        "href": "http:\/\/projecten-3-groep-7-webshop-aoste.dd:8083\/nl\/product\/authentique-kipfilet?_format=hal_json"
                    },
                    "type": {
                        "href": "http:\/\/projecten-3-groep-7-webshop-aoste.dd:8083\/rest\/type\/node\/product"
                    }
                },
                "uuid": [
                    {
                        "value": "be8401ac-1190-450d-b757-7de989ac76e0"
                    }
                ]
            },
            {
                "_links": {
                    "self": {
                        "href": "http:\/\/projecten-3-groep-7-webshop-aoste.dd:8083\/nl\/product\/authentique-beenham?_format=hal_json"
                    },
                    "type": {
                        "href": "http:\/\/projecten-3-groep-7-webshop-aoste.dd:8083\/rest\/type\/node\/product"
                    }
                },
                "uuid": [
                    {
                        "value": "909a4e14-6d3c-4ad7-9598-8b5688827e0b"
                    }
                ]
            },
            {
                "_links": {
                    "self": {
                        "href": "http:\/\/projecten-3-groep-7-webshop-aoste.dd:8083\/nl\/product\/authentique-kookham-ontvet?_format=hal_json"
                    },
                    "type": {
                        "href": "http:\/\/projecten-3-groep-7-webshop-aoste.dd:8083\/rest\/type\/node\/product"
                    }
                },
                "uuid": [
                    {
                        "value": "32dac4e3-0442-492a-b4c4-aace71cf65ca"
                    }
                ]
            },
            {
                "_links": {
                    "self": {
                        "href": "http:\/\/projecten-3-groep-7-webshop-aoste.dd:8083\/nl\/product\/authentique-cremepate?_format=hal_json"
                    },
                    "type": {
                        "href": "http:\/\/projecten-3-groep-7-webshop-aoste.dd:8083\/rest\/type\/node\/product"
                    }
                },
                "uuid": [
                    {
                        "value": "0d15d31d-c830-4c23-a72b-59bcc530aa29"
                    }
                ]
            }
        ]
    },
    "status": [
        {
            "value": false,
            "lang": "nl"
        },
        {
            "value": true,
            "lang": "fr"
        }
    ],
    "title": [
        {
            "value": "Authentieke Aanbiedingen ",
            "lang": "nl"
        },
        {
            "value": "Offres authentiques",
            "lang": "fr"
        }
    ],
    "created": [
        {
            "value": "2020-11-10T12:09:58+00:00",
            "lang": "nl",
            "format": "Y-m-d\\TH:i:sP"
        },
        {
            "value": "2020-11-10T13:23:01+00:00",
            "lang": "fr",
            "format": "Y-m-d\\TH:i:sP"
        }
    ],
    "changed": [
        {
            "value": "2020-12-25T22:59:59+00:00",
            "lang": "nl",
            "format": "Y-m-d\\TH:i:sP"
        },
        {
            "value": "2020-12-11T15:37:44+00:00",
            "lang": "fr",
            "format": "Y-m-d\\TH:i:sP"
        }
    ],
    "promote": [
        {
            "value": false,
            "lang": "nl"
        },
        {
            "value": false,
            "lang": "fr"
        }
    ],
    "sticky": [
        {
            "value": false,
            "lang": "nl"
        },
        {
            "value": false,
            "lang": "fr"
        }
    ],
    "default_langcode": [
        {
            "value": true,
            "lang": "nl"
        },
        {
            "value": false,
            "lang": "fr"
        }
    ],
    "revision_translation_affected": [
        {
            "value": true,
            "lang": "nl"
        },
        {
            "value": true,
            "lang": "fr"
        }
    ],
    "path": [
        {
            "alias": "\/Promo\/authentieke-aanbiedingen",
            "pid": 58,
            "langcode": "nl",
            "lang": "nl"
        },
        {
            "alias": "\/Promo\/offres-authentiques",
            "pid": 57,
            "langcode": "fr",
            "lang": "fr"
        }
    ],
    "unpublish_on": [
        {
            "value": "2024-06-22T21:59:59+00:00",
            "lang": "fr",
            "format": "Y-m-d\\TH:i:sP"
        }
    ],
    "content_translation_source": [
        {
            "value": "und",
            "lang": "nl"
        },
        {
            "value": "nl",
            "lang": "fr"
        }
    ],
    "content_translation_outdated": [
        {
            "value": false,
            "lang": "nl"
        },
        {
            "value": false,
            "lang": "fr"
        }
    ],
    "body": [
        {
            "value": "<p>Aoste pakt uit mij een promo&nbsp;op al&nbsp;onze authentieke&nbsp;broodbeleggen.<\/p>\r\n",
            "format": "basic_html",
            "processed": "<p>Aoste pakt uit mij een promo\u00a0op al\u00a0onze authentieke\u00a0broodbeleggen.<\/p>",
            "summary": "",
            "lang": "nl"
        },
        {
            "value": "<p>Aoste me choisit une promo sur tous nos investissements en sandwichs authentiques.&nbsp;<\/p>\r\n\r\n<div id=\"gtx-trans\" style=\"position: absolute; left: -46px; top: -13px;\">\r\n<div class=\"gtx-trans-icon\">&nbsp;<\/div>\r\n<\/div>\r\n",
            "format": "basic_html",
            "processed": "<p>Aoste me choisit une promo sur tous nos investissements en sandwichs authentiques.\u00a0<\/p>\n\n\n\u00a0",
            "summary": "",
            "lang": "fr"
        }
    ],
    "field_end_date": [
        {
            "value": "2020-12-25"
        }
    ],
    "field_start_date": [
        {
            "value": "2020-11-01"
        }
    ]
}