{
    "_links": {
        "self": {
            "href": "http:\/\/projecten-3-groep-7-webshop-aoste.dd:8083\/nl\/product\/authentique-cremepate?_format=hal_json"
        },
        "type": {
            "href": "http:\/\/projecten-3-groep-7-webshop-aoste.dd:8083\/rest\/type\/node\/product"
        },
        "http:\/\/projecten-3-groep-7-webshop-aoste.dd:8083\/rest\/relation\/node\/product\/revision_uid": [
            {
                "href": "http:\/\/projecten-3-groep-7-webshop-aoste.dd:8083\/en\/user\/1?_format=hal_json"
            }
        ],
        "http:\/\/projecten-3-groep-7-webshop-aoste.dd:8083\/rest\/relation\/node\/product\/uid": [
            {
                "href": "http:\/\/projecten-3-groep-7-webshop-aoste.dd:8083\/en\/user\/1?_format=hal_json",
                "lang": "nl"
            },
            {
                "href": "http:\/\/projecten-3-groep-7-webshop-aoste.dd:8083\/en\/user\/1?_format=hal_json",
                "lang": "fr"
            }
        ],
        "http:\/\/projecten-3-groep-7-webshop-aoste.dd:8083\/rest\/relation\/node\/product\/field_image": [
            {
                "href": ""
            }
        ],
        "http:\/\/projecten-3-groep-7-webshop-aoste.dd:8083\/rest\/relation\/node\/product\/field_product_categorie": [
            {
                "href": "http:\/\/projecten-3-groep-7-webshop-aoste.dd:8083\/nl\/broodbeleg?_format=hal_json"
            },
            {
                "href": "http:\/\/projecten-3-groep-7-webshop-aoste.dd:8083\/nl\/broodbeleg\/pat%C3%A9?_format=hal_json"
            }
        ],
        "http:\/\/projecten-3-groep-7-webshop-aoste.dd:8083\/rest\/relation\/node\/product\/field_product_promo_door": [
            {
                "href": "http:\/\/projecten-3-groep-7-webshop-aoste.dd:8083\/nl\/Promo\/authentieke-aanbiedingen?_format=hal_json"
            }
        ]
    },
    "uuid": [
        {
            "value": "0d15d31d-c830-4c23-a72b-59bcc530aa29"
        }
    ],
    "langcode": [
        {
            "value": "nl",
            "lang": "nl"
        },
        {
            "value": "fr",
            "lang": "fr"
        }
    ],
    "type": [
        {
            "target_id": "product"
        }
    ],
    "revision_timestamp": [
        {
            "value": "2020-12-11T16:58:28+00:00",
            "format": "Y-m-d\\TH:i:sP"
        }
    ],
    "_embedded": {
        "http:\/\/projecten-3-groep-7-webshop-aoste.dd:8083\/rest\/relation\/node\/product\/revision_uid": [
            {
                "_links": {
                    "self": {
                        "href": "http:\/\/projecten-3-groep-7-webshop-aoste.dd:8083\/en\/user\/1?_format=hal_json"
                    },
                    "type": {
                        "href": "http:\/\/projecten-3-groep-7-webshop-aoste.dd:8083\/rest\/type\/user\/user"
                    }
                },
                "uuid": [
                    {
                        "value": "489454d7-9e67-460c-9ada-25e81edcb21e"
                    }
                ]
            }
        ],
        "http:\/\/projecten-3-groep-7-webshop-aoste.dd:8083\/rest\/relation\/node\/product\/uid": [
            {
                "_links": {
                    "self": {
                        "href": "http:\/\/projecten-3-groep-7-webshop-aoste.dd:8083\/en\/user\/1?_format=hal_json"
                    },
                    "type": {
                        "href": "http:\/\/projecten-3-groep-7-webshop-aoste.dd:8083\/rest\/type\/user\/user"
                    }
                },
                "uuid": [
                    {
                        "value": "489454d7-9e67-460c-9ada-25e81edcb21e"
                    }
                ],
                "lang": "nl"
            },
            {
                "_links": {
                    "self": {
                        "href": "http:\/\/projecten-3-groep-7-webshop-aoste.dd:8083\/en\/user\/1?_format=hal_json"
                    },
                    "type": {
                        "href": "http:\/\/projecten-3-groep-7-webshop-aoste.dd:8083\/rest\/type\/user\/user"
                    }
                },
                "uuid": [
                    {
                        "value": "489454d7-9e67-460c-9ada-25e81edcb21e"
                    }
                ],
                "lang": "fr"
            }
        ],
        "http:\/\/projecten-3-groep-7-webshop-aoste.dd:8083\/rest\/relation\/node\/product\/field_image": [
            {
                "_links": {
                    "self": {
                        "href": ""
                    },
                    "type": {
                        "href": "http:\/\/projecten-3-groep-7-webshop-aoste.dd:8083\/rest\/type\/file\/file"
                    }
                },
                "uuid": [
                    {
                        "value": "caeab152-befa-48c0-82f5-0ecc15319af4"
                    }
                ],
                "alt": " Authentique P\u00e2t\u00e9 Cr\u00e8me",
                "title": "",
                "width": "194",
                "height": "259"
            }
        ],
        "http:\/\/projecten-3-groep-7-webshop-aoste.dd:8083\/rest\/relation\/node\/product\/field_product_categorie": [
            {
                "_links": {
                    "self": {
                        "href": "http:\/\/projecten-3-groep-7-webshop-aoste.dd:8083\/nl\/broodbeleg?_format=hal_json"
                    },
                    "type": {
                        "href": "http:\/\/projecten-3-groep-7-webshop-aoste.dd:8083\/rest\/type\/taxonomy_term\/categorie"
                    }
                },
                "uuid": [
                    {
                        "value": "6e7c4f17-b99a-4f0b-99bf-b40adb2bc720"
                    }
                ]
            },
            {
                "_links": {
                    "self": {
                        "href": "http:\/\/projecten-3-groep-7-webshop-aoste.dd:8083\/nl\/broodbeleg\/pat%C3%A9?_format=hal_json"
                    },
                    "type": {
                        "href": "http:\/\/projecten-3-groep-7-webshop-aoste.dd:8083\/rest\/type\/taxonomy_term\/categorie"
                    }
                },
                "uuid": [
                    {
                        "value": "7a03a158-4e8c-44c7-a931-6e67a941e3b2"
                    }
                ]
            }
        ],
        "http:\/\/projecten-3-groep-7-webshop-aoste.dd:8083\/rest\/relation\/node\/product\/field_product_promo_door": [
            {
                "_links": {
                    "self": {
                        "href": "http:\/\/projecten-3-groep-7-webshop-aoste.dd:8083\/nl\/Promo\/authentieke-aanbiedingen?_format=hal_json"
                    },
                    "type": {
                        "href": "http:\/\/projecten-3-groep-7-webshop-aoste.dd:8083\/rest\/type\/node\/promo"
                    }
                },
                "uuid": [
                    {
                        "value": "0ad578fa-5512-4d83-a187-7814d4cb15ea"
                    }
                ]
            }
        ]
    },
    "status": [
        {
            "value": true,
            "lang": "nl"
        },
        {
            "value": true,
            "lang": "fr"
        }
    ],
    "title": [
        {
            "value": "Authentique Cr\u00e8mepat\u00e9",
            "lang": "nl"
        },
        {
            "value": " Authentique P\u00e2t\u00e9 Cr\u00e8me",
            "lang": "fr"
        }
    ],
    "created": [
        {
            "value": "2020-12-11T15:31:46+00:00",
            "lang": "nl",
            "format": "Y-m-d\\TH:i:sP"
        },
        {
            "value": "2020-12-11T16:02:51+00:00",
            "lang": "fr",
            "format": "Y-m-d\\TH:i:sP"
        }
    ],
    "changed": [
        {
            "value": "2020-12-11T16:02:51+00:00",
            "lang": "nl",
            "format": "Y-m-d\\TH:i:sP"
        },
        {
            "value": "2020-12-11T16:58:28+00:00",
            "lang": "fr",
            "format": "Y-m-d\\TH:i:sP"
        }
    ],
    "promote": [
        {
            "value": false,
            "lang": "nl"
        },
        {
            "value": false,
            "lang": "fr"
        }
    ],
    "sticky": [
        {
            "value": false,
            "lang": "nl"
        },
        {
            "value": false,
            "lang": "fr"
        }
    ],
    "default_langcode": [
        {
            "value": true,
            "lang": "nl"
        },
        {
            "value": false,
            "lang": "fr"
        }
    ],
    "revision_translation_affected": [
        {
            "value": true,
            "lang": "fr"
        }
    ],
    "path": [
        {
            "alias": "\/product\/authentique-cremepate",
            "pid": 103,
            "langcode": "nl",
            "lang": "nl"
        },
        {
            "alias": "\/product\/authentique-pate-creme",
            "pid": 105,
            "langcode": "fr",
            "lang": "fr"
        }
    ],
    "content_translation_source": [
        {
            "value": "und",
            "lang": "nl"
        },
        {
            "value": "nl",
            "lang": "fr"
        }
    ],
    "content_translation_outdated": [
        {
            "value": false,
            "lang": "nl"
        },
        {
            "value": false,
            "lang": "fr"
        }
    ],
    "body": [
        {
            "value": "<p>De romige en smeu\u00efge pat\u00e9 van Aoste met een natuurlijk spekrandje en overheerlijke verse ui geven hem zijn unieke en overheerlijke smaak. Ideaal voor wie graag smeert\u2026 \u00e9n geniet van pure traditie. Verpakt in hersluitbare verpakking zodat hij langer vers blijft.<\/p>\r\n",
            "format": "basic_html",
            "processed": "<p>De romige en smeu\u00efge pat\u00e9 van Aoste met een natuurlijk spekrandje en overheerlijke verse ui geven hem zijn unieke en overheerlijke smaak. Ideaal voor wie graag smeert\u2026 \u00e9n geniet van pure traditie. Verpakt in hersluitbare verpakking zodat hij langer vers blijft.<\/p>",
            "summary": "",
            "lang": "nl"
        },
        {
            "value": "<p>P\u00e2t\u00e9 cr\u00e9meux Aoste. \u00c9galement au lard naturel et \u00e0 l\u2019oignon frais. Id\u00e9al \u00e0 d\u00e9guster sur une tartine\u2026 tout en profitant d\u2019une tradition authentique ! Disponible dans un emballage pratique et refermable.<\/p>\r\n",
            "format": "basic_html",
            "processed": "<p>P\u00e2t\u00e9 cr\u00e9meux Aoste. \u00c9galement au lard naturel et \u00e0 l\u2019oignon frais. Id\u00e9al \u00e0 d\u00e9guster sur une tartine\u2026 tout en profitant d\u2019une tradition authentique ! Disponible dans un emballage pratique et refermable.<\/p>",
            "summary": "",
            "lang": "fr"
        }
    ],
    "field_nutriscore": [
        {
            "value": "E"
        }
    ],
    "field_product_allergenen": [
        {
            "value": "<p>Eieren, Melk<\/p>\r\n",
            "format": "basic_html",
            "processed": "<p>Eieren, Melk<\/p>",
            "lang": "nl"
        },
        {
            "value": "<p>Oeufs, Lait<\/p>\r\n",
            "format": "basic_html",
            "processed": "<p>Oeufs, Lait<\/p>",
            "lang": "fr"
        }
    ],
    "field_product_gewicht": [
        {
            "value": 150
        }
    ],
    "field_product_ingredienten": [
        {
            "value": "<p>Varkenslever (35%), varkensvet, varkensvlees (18%), water, rijstzetmeel, zout, specerijenextracten, ui, kippenei, melkpoeder, dextrose, antioxidant: E300, conserveermiddel:E250, decoratie: varkensspek, kleurstof: E160b<\/p>\r\n",
            "format": "basic_html",
            "processed": "<p>Varkenslever (35%), varkensvet, varkensvlees (18%), water, rijstzetmeel, zout, specerijenextracten, ui, kippenei, melkpoeder, dextrose, antioxidant: E300, conserveermiddel:E250, decoratie: varkensspek, kleurstof: E160b<\/p>",
            "lang": "nl"
        },
        {
            "value": "<p>Foie de porc (35%), graisse de porc, viande de porc (18%), eau, amidon de riz, sel, extraits d'\u00e9pices, oignon, \u0153uf de poule, lait en poudre, dextrose, antioxydant : E300, conservateur : E250, d\u00e9coration : lard de porc, colorant : E160b<\/p>\r\n",
            "format": "basic_html",
            "processed": "<p>Foie de porc (35%), graisse de porc, viande de porc (18%), eau, amidon de riz, sel, extraits d'\u00e9pices, oignon, \u0153uf de poule, lait en poudre, dextrose, antioxydant : E300, conservateur : E250, d\u00e9coration : lard de porc, colorant : E160b<\/p>",
            "lang": "fr"
        }
    ],
    "field_product_retailers": [
        {
            "uri": "https:\/\/drive.carrefour.eu\/nl\/Charcuterie\/Pat%C3%A9-%26-rilette\/Aoste-Cr%C3%A8mepat%C3%A9-150-g\/p\/04829057",
            "title": "Carrefour",
            "options": [],
            "lang": "nl"
        },
        {
            "uri": "https:\/\/colruyt.collectandgo.be\/cogo\/nl\/artikeldetail\/26238\/aoste-pate-creme-150g",
            "title": "Colruyt",
            "options": [],
            "lang": "nl"
        },
        {
            "uri": "https:\/\/drive.carrefour.eu\/fr\/Charcuterie\/P%C3%A2t%C3%A9s-%26-rillettes\/Aoste-P%C3%A2t%C3%A9-Cr%C3%A8me-150-g\/p\/04829057",
            "title": "Carrefour",
            "options": [],
            "lang": "fr"
        },
        {
            "uri": "https:\/\/colruyt.collectandgo.be\/cogo\/fr\/detail_article\/26238\/aoste-pate-creme-150g",
            "title": "Colruyt",
            "options": [],
            "lang": "fr"
        }
    ],
    "field_voeding_eiwitten": [
        {
            "value": "11.0"
        }
    ],
    "field_voeding_energie": [
        {
            "value": 1374
        }
    ],
    "field_voeding_kilocalorieen": [
        {
            "value": 332
        }
    ],
    "field_voeding_koolhydraten": [
        {
            "value": "4.5"
        }
    ],
    "field_voeding_suikers": [
        {
            "value": "3.1"
        }
    ],
    "field_voeding_verzadigde_vetten": [
        {
            "value": "11.0"
        }
    ],
    "field_voeding_vetten": [
        {
            "value": "30.0"
        }
    ],
    "field_voeding_zout": [
        {
            "value": "1.7"
        }
    ]
}