{
    "_links": {
        "self": {
            "href": "http:\/\/projecten-3-groep-7-webshop-aoste.dd:8083\/nl\/product\/disney-mini-kippenworstjes?_format=hal_json"
        },
        "type": {
            "href": "http:\/\/projecten-3-groep-7-webshop-aoste.dd:8083\/rest\/type\/node\/product"
        },
        "http:\/\/projecten-3-groep-7-webshop-aoste.dd:8083\/rest\/relation\/node\/product\/revision_uid": [
            {
                "href": "http:\/\/projecten-3-groep-7-webshop-aoste.dd:8083\/en\/user\/1?_format=hal_json"
            }
        ],
        "http:\/\/projecten-3-groep-7-webshop-aoste.dd:8083\/rest\/relation\/node\/product\/uid": [
            {
                "href": "http:\/\/projecten-3-groep-7-webshop-aoste.dd:8083\/en\/user\/1?_format=hal_json",
                "lang": "nl"
            },
            {
                "href": "http:\/\/projecten-3-groep-7-webshop-aoste.dd:8083\/en\/user\/1?_format=hal_json",
                "lang": "fr"
            }
        ],
        "http:\/\/projecten-3-groep-7-webshop-aoste.dd:8083\/rest\/relation\/node\/product\/field_image": [
            {
                "href": ""
            }
        ],
        "http:\/\/projecten-3-groep-7-webshop-aoste.dd:8083\/rest\/relation\/node\/product\/field_product_categorie": [
            {
                "href": "http:\/\/projecten-3-groep-7-webshop-aoste.dd:8083\/nl\/kinderen?_format=hal_json"
            },
            {
                "href": "http:\/\/projecten-3-groep-7-webshop-aoste.dd:8083\/nl\/kinderen\/snacks?_format=hal_json"
            }
        ]
    },
    "uuid": [
        {
            "value": "1464d641-8d1b-4159-8e37-880e285d6a75"
        }
    ],
    "langcode": [
        {
            "value": "nl",
            "lang": "nl"
        },
        {
            "value": "fr",
            "lang": "fr"
        }
    ],
    "type": [
        {
            "target_id": "product"
        }
    ],
    "revision_timestamp": [
        {
            "value": "2020-12-11T11:23:44+00:00",
            "format": "Y-m-d\\TH:i:sP"
        }
    ],
    "_embedded": {
        "http:\/\/projecten-3-groep-7-webshop-aoste.dd:8083\/rest\/relation\/node\/product\/revision_uid": [
            {
                "_links": {
                    "self": {
                        "href": "http:\/\/projecten-3-groep-7-webshop-aoste.dd:8083\/en\/user\/1?_format=hal_json"
                    },
                    "type": {
                        "href": "http:\/\/projecten-3-groep-7-webshop-aoste.dd:8083\/rest\/type\/user\/user"
                    }
                },
                "uuid": [
                    {
                        "value": "489454d7-9e67-460c-9ada-25e81edcb21e"
                    }
                ]
            }
        ],
        "http:\/\/projecten-3-groep-7-webshop-aoste.dd:8083\/rest\/relation\/node\/product\/uid": [
            {
                "_links": {
                    "self": {
                        "href": "http:\/\/projecten-3-groep-7-webshop-aoste.dd:8083\/en\/user\/1?_format=hal_json"
                    },
                    "type": {
                        "href": "http:\/\/projecten-3-groep-7-webshop-aoste.dd:8083\/rest\/type\/user\/user"
                    }
                },
                "uuid": [
                    {
                        "value": "489454d7-9e67-460c-9ada-25e81edcb21e"
                    }
                ],
                "lang": "nl"
            },
            {
                "_links": {
                    "self": {
                        "href": "http:\/\/projecten-3-groep-7-webshop-aoste.dd:8083\/en\/user\/1?_format=hal_json"
                    },
                    "type": {
                        "href": "http:\/\/projecten-3-groep-7-webshop-aoste.dd:8083\/rest\/type\/user\/user"
                    }
                },
                "uuid": [
                    {
                        "value": "489454d7-9e67-460c-9ada-25e81edcb21e"
                    }
                ],
                "lang": "fr"
            }
        ],
        "http:\/\/projecten-3-groep-7-webshop-aoste.dd:8083\/rest\/relation\/node\/product\/field_image": [
            {
                "_links": {
                    "self": {
                        "href": ""
                    },
                    "type": {
                        "href": "http:\/\/projecten-3-groep-7-webshop-aoste.dd:8083\/rest\/type\/file\/file"
                    }
                },
                "uuid": [
                    {
                        "value": "e3e70d03-506b-415d-aa91-f735b07cbf1d"
                    }
                ],
                "alt": "Disney Mickey Saucissons de poulet",
                "title": "",
                "width": "1600",
                "height": "1600"
            }
        ],
        "http:\/\/projecten-3-groep-7-webshop-aoste.dd:8083\/rest\/relation\/node\/product\/field_product_categorie": [
            {
                "_links": {
                    "self": {
                        "href": "http:\/\/projecten-3-groep-7-webshop-aoste.dd:8083\/nl\/kinderen?_format=hal_json"
                    },
                    "type": {
                        "href": "http:\/\/projecten-3-groep-7-webshop-aoste.dd:8083\/rest\/type\/taxonomy_term\/categorie"
                    }
                },
                "uuid": [
                    {
                        "value": "1268d9ea-9154-4c74-9f64-d706ed6713ce"
                    }
                ]
            },
            {
                "_links": {
                    "self": {
                        "href": "http:\/\/projecten-3-groep-7-webshop-aoste.dd:8083\/nl\/kinderen\/snacks?_format=hal_json"
                    },
                    "type": {
                        "href": "http:\/\/projecten-3-groep-7-webshop-aoste.dd:8083\/rest\/type\/taxonomy_term\/categorie"
                    }
                },
                "uuid": [
                    {
                        "value": "b5c331ac-8eb4-467f-a2d0-8cb5ee0fae42"
                    }
                ]
            }
        ]
    },
    "status": [
        {
            "value": true,
            "lang": "nl"
        },
        {
            "value": true,
            "lang": "fr"
        }
    ],
    "title": [
        {
            "value": "Disney Mini kippenworstjes",
            "lang": "nl"
        },
        {
            "value": "Disney Mickey Saucissons de poulet",
            "lang": "fr"
        }
    ],
    "created": [
        {
            "value": "2020-11-15T15:16:05+00:00",
            "lang": "nl",
            "format": "Y-m-d\\TH:i:sP"
        },
        {
            "value": "2020-11-15T15:26:19+00:00",
            "lang": "fr",
            "format": "Y-m-d\\TH:i:sP"
        }
    ],
    "changed": [
        {
            "value": "2020-12-11T11:23:44+00:00",
            "lang": "nl",
            "format": "Y-m-d\\TH:i:sP"
        },
        {
            "value": "2020-12-11T11:23:44+00:00",
            "lang": "fr",
            "format": "Y-m-d\\TH:i:sP"
        }
    ],
    "promote": [
        {
            "value": false,
            "lang": "nl"
        },
        {
            "value": false,
            "lang": "fr"
        }
    ],
    "sticky": [
        {
            "value": false,
            "lang": "nl"
        },
        {
            "value": false,
            "lang": "fr"
        }
    ],
    "default_langcode": [
        {
            "value": true,
            "lang": "nl"
        },
        {
            "value": false,
            "lang": "fr"
        }
    ],
    "revision_translation_affected": [
        {
            "value": true,
            "lang": "nl"
        },
        {
            "value": true,
            "lang": "fr"
        }
    ],
    "path": [
        {
            "alias": "\/product\/disney-mini-kippenworstjes",
            "pid": 33,
            "langcode": "nl",
            "lang": "nl"
        },
        {
            "alias": "\/product\/disney-mickey-saucissons-de-poulet",
            "pid": 34,
            "langcode": "fr",
            "lang": "fr"
        }
    ],
    "content_translation_source": [
        {
            "value": "und",
            "lang": "nl"
        },
        {
            "value": "nl",
            "lang": "fr"
        }
    ],
    "content_translation_outdated": [
        {
            "value": false,
            "lang": "nl"
        },
        {
            "value": false,
            "lang": "fr"
        }
    ],
    "body": [
        {
            "value": "<p>&nbsp;<\/p>\r\n\r\n<p>Ouders willen het beste voor hun kinderen, ook bij Aoste gaan we niet voor minder. Want een lekkere snack kan ook gezond zijn! Het Aoste Mickey kippenworstje bevat geen kleurstoffen en is rijk aan prote\u00efnen. Een klein en fijn formaat dat perfect in de brooddoos past. Makkelijk te openen, ook voor de kleine handjes! Dit worstje bewaart tot 12 uur buiten de koeling!<\/p>\r\n",
            "format": "basic_html",
            "processed": "<p>\u00a0<\/p>\n\n<p>Ouders willen het beste voor hun kinderen, ook bij Aoste gaan we niet voor minder. Want een lekkere snack kan ook gezond zijn! Het Aoste Mickey kippenworstje bevat geen kleurstoffen en is rijk aan prote\u00efnen. Een klein en fijn formaat dat perfect in de brooddoos past. Makkelijk te openen, ook voor de kleine handjes! Dit worstje bewaart tot 12 uur buiten de koeling!<\/p>",
            "summary": "",
            "lang": "nl"
        },
        {
            "value": "<p>Les parents veulent le meilleur pour leurs enfants, et Aoste ne peut \u00e9videmment pas faire moins. Parce qu\u2019un snack savoureux peut aussi \u00eatre bon pour la sant\u00e9! Le saucisson de poulet Mickey n\u2019a pas de colorants et est riche en prot\u00e9ins. Facile \u00e0 ouvrir, m\u00eame avec des petits mains!&nbsp;Se conserve jusqu\u2019\u00e0&nbsp;12 h en dehors du frigo!Dans un filet pratique de 5 mini-saucissons.<\/p>\r\n",
            "format": "basic_html",
            "processed": "<p>Les parents veulent le meilleur pour leurs enfants, et Aoste ne peut \u00e9videmment pas faire moins. Parce qu\u2019un snack savoureux peut aussi \u00eatre bon pour la sant\u00e9! Le saucisson de poulet Mickey n\u2019a pas de colorants et est riche en prot\u00e9ins. Facile \u00e0 ouvrir, m\u00eame avec des petits mains!\u00a0Se conserve jusqu\u2019\u00e0\u00a012 h en dehors du frigo!Dans un filet pratique de 5 mini-saucissons.<\/p>",
            "summary": "",
            "lang": "fr"
        }
    ],
    "field_nutriscore": [
        {
            "value": "C"
        }
    ],
    "field_product_allergenen": [
        {
            "value": "<p>Melk, Eieren<\/p>\r\n\r\n<div id=\"gtx-trans\" style=\"position: absolute; left: 72px; top: -13px;\">\r\n<div class=\"gtx-trans-icon\">&nbsp;<\/div>\r\n<\/div>\r\n",
            "format": "basic_html",
            "processed": "<p>Melk, Eieren<\/p>\n\n\n\u00a0",
            "lang": "nl"
        },
        {
            "value": "<p>Ce produit peut contenir des traces de: Lait,Oeufs<\/p>\r\n\r\n<div id=\"gtx-trans\" style=\"position: absolute; left: -46px; top: 27px;\">\r\n<div class=\"gtx-trans-icon\">&nbsp;<\/div>\r\n<\/div>\r\n",
            "format": "basic_html",
            "processed": "<p>Ce produit peut contenir des traces de: Lait,Oeufs<\/p>\n\n\n\u00a0",
            "lang": "fr"
        }
    ],
    "field_product_gewicht": [
        {
            "value": 150
        }
    ],
    "field_product_ingredienten": [
        {
            "value": "<p>Kippenvlees (78 %), water, zetmeel, zout, melkeiwit, voedingsvezel, specerijen, aromas, dextrose, suiker, lactose (melk), stabilisator: E331, antioxidant: E301, conserveermiddel: E250<\/p>\r\n",
            "format": "basic_html",
            "processed": "<p>Kippenvlees (78 %), water, zetmeel, zout, melkeiwit, voedingsvezel, specerijen, aromas, dextrose, suiker, lactose (melk), stabilisator: E331, antioxidant: E301, conserveermiddel: E250<\/p>",
            "lang": "nl"
        },
        {
            "value": "<p>Ingr\u00e9dients : Viande de poulet (74%), eau, fibres v\u00e9g\u00e9tales (graines de lin, chicor\u00e9e), amidon, sel, protein\u00e9s de LAIT, dextrose, ar\u00f4mes, antioxydant: E301; correcteur d'acidit\u00e9: E331; Conservateur: E250. Peut contenir des traces de : oeuf<\/p>\r\n",
            "format": "basic_html",
            "processed": "<p>Ingr\u00e9dients : Viande de poulet (74%), eau, fibres v\u00e9g\u00e9tales (graines de lin, chicor\u00e9e), amidon, sel, protein\u00e9s de LAIT, dextrose, ar\u00f4mes, antioxydant: E301; correcteur d'acidit\u00e9: E331; Conservateur: E250. Peut contenir des traces de : oeuf<\/p>",
            "lang": "fr"
        }
    ],
    "field_product_retailers": [
        {
            "uri": "https:\/\/www.delhaize.be\/nl-be\/shop\/Vlees-vis-en-vegetarische-producten\/Charcuterie\/Gekookte-vleesproducten\/Gekookt-kippenvlees\/Disney-Mini-kippenworstjes\/p\/F2018030700013770000",
            "title": "Delhaize",
            "options": [],
            "lang": "nl"
        },
        {
            "uri": "https:\/\/colruyt.collectandgo.be\/cogo\/nl\/artikeldetail\/27454\/Aoste-Mickey-Mouse-Kippenworst-Mini-150g",
            "title": "Colruyt",
            "options": [],
            "lang": "nl"
        },
        {
            "uri": "https:\/\/drive.carrefour.eu\/nl\/Charcuterie\/Charcuterie-in-sneden\/Andere-gekookte-charcuterie\/Aoste-Mickey-Mouse-%26-Friends-Kippenworstjes-5-x-30-g\/p\/05875132",
            "title": "Carrefour",
            "options": [],
            "lang": "nl"
        },
        {
            "uri": "https:\/\/www.delhaize.be\/nl-be\/shop\/Vlees-vis-en-vegetarische-producten\/Charcuterie\/Gekookte-vleesproducten\/Gekookt-kippenvlees\/Disney-Mini-kippenworstjes\/p\/F2018030700013770000",
            "title": "Delhaize",
            "options": [],
            "lang": "fr"
        },
        {
            "uri": "https:\/\/colruyt.collectandgo.be\/cogo\/nl\/artikeldetail\/27454\/Aoste-Mickey-Mouse-Kippenworst-Mini-150g",
            "title": "Colruyt",
            "options": [],
            "lang": "fr"
        }
    ],
    "field_voeding_eiwitten": [
        {
            "value": "15.0"
        }
    ],
    "field_voeding_energie": [
        {
            "value": 541
        }
    ],
    "field_voeding_kilocalorieen": [
        {
            "value": 129
        }
    ],
    "field_voeding_koolhydraten": [
        {
            "value": "2.6"
        }
    ],
    "field_voeding_suikers": [
        {
            "value": "1.0"
        }
    ],
    "field_voeding_verzadigde_vetten": [
        {
            "value": "2.0"
        }
    ],
    "field_voeding_vetten": [
        {
            "value": "6.5"
        }
    ],
    "field_voeding_zout": [
        {
            "value": "1.8"
        }
    ]
}