{
    "_links": {
        "self": {
            "href": "http:\/\/projecten-3-groep-7-webshop-aoste.dd:8083\/nl\/product\/snack-pur-porc?_format=hal_json"
        },
        "type": {
            "href": "http:\/\/projecten-3-groep-7-webshop-aoste.dd:8083\/rest\/type\/node\/product"
        },
        "http:\/\/projecten-3-groep-7-webshop-aoste.dd:8083\/rest\/relation\/node\/product\/revision_uid": [
            {
                "href": "http:\/\/projecten-3-groep-7-webshop-aoste.dd:8083\/en\/user\/1?_format=hal_json"
            }
        ],
        "http:\/\/projecten-3-groep-7-webshop-aoste.dd:8083\/rest\/relation\/node\/product\/uid": [
            {
                "href": "http:\/\/projecten-3-groep-7-webshop-aoste.dd:8083\/en\/user\/1?_format=hal_json",
                "lang": "nl"
            },
            {
                "href": "http:\/\/projecten-3-groep-7-webshop-aoste.dd:8083\/en\/user\/1?_format=hal_json",
                "lang": "fr"
            }
        ],
        "http:\/\/projecten-3-groep-7-webshop-aoste.dd:8083\/rest\/relation\/node\/product\/field_image": [
            {
                "href": ""
            }
        ],
        "http:\/\/projecten-3-groep-7-webshop-aoste.dd:8083\/rest\/relation\/node\/product\/field_product_categorie": [
            {
                "href": "http:\/\/projecten-3-groep-7-webshop-aoste.dd:8083\/nl\/snacks?_format=hal_json"
            },
            {
                "href": "http:\/\/projecten-3-groep-7-webshop-aoste.dd:8083\/nl\/taxonomy\/term\/20?_format=hal_json"
            }
        ]
    },
    "uuid": [
        {
            "value": "34537cb3-b721-4c89-9d2b-08777220d16d"
        }
    ],
    "langcode": [
        {
            "value": "nl",
            "lang": "nl"
        },
        {
            "value": "fr",
            "lang": "fr"
        }
    ],
    "type": [
        {
            "target_id": "product"
        }
    ],
    "revision_timestamp": [
        {
            "value": "2020-12-12T10:18:54+00:00",
            "format": "Y-m-d\\TH:i:sP"
        }
    ],
    "_embedded": {
        "http:\/\/projecten-3-groep-7-webshop-aoste.dd:8083\/rest\/relation\/node\/product\/revision_uid": [
            {
                "_links": {
                    "self": {
                        "href": "http:\/\/projecten-3-groep-7-webshop-aoste.dd:8083\/en\/user\/1?_format=hal_json"
                    },
                    "type": {
                        "href": "http:\/\/projecten-3-groep-7-webshop-aoste.dd:8083\/rest\/type\/user\/user"
                    }
                },
                "uuid": [
                    {
                        "value": "489454d7-9e67-460c-9ada-25e81edcb21e"
                    }
                ]
            }
        ],
        "http:\/\/projecten-3-groep-7-webshop-aoste.dd:8083\/rest\/relation\/node\/product\/uid": [
            {
                "_links": {
                    "self": {
                        "href": "http:\/\/projecten-3-groep-7-webshop-aoste.dd:8083\/en\/user\/1?_format=hal_json"
                    },
                    "type": {
                        "href": "http:\/\/projecten-3-groep-7-webshop-aoste.dd:8083\/rest\/type\/user\/user"
                    }
                },
                "uuid": [
                    {
                        "value": "489454d7-9e67-460c-9ada-25e81edcb21e"
                    }
                ],
                "lang": "nl"
            },
            {
                "_links": {
                    "self": {
                        "href": "http:\/\/projecten-3-groep-7-webshop-aoste.dd:8083\/en\/user\/1?_format=hal_json"
                    },
                    "type": {
                        "href": "http:\/\/projecten-3-groep-7-webshop-aoste.dd:8083\/rest\/type\/user\/user"
                    }
                },
                "uuid": [
                    {
                        "value": "489454d7-9e67-460c-9ada-25e81edcb21e"
                    }
                ],
                "lang": "fr"
            }
        ],
        "http:\/\/projecten-3-groep-7-webshop-aoste.dd:8083\/rest\/relation\/node\/product\/field_image": [
            {
                "_links": {
                    "self": {
                        "href": ""
                    },
                    "type": {
                        "href": "http:\/\/projecten-3-groep-7-webshop-aoste.dd:8083\/rest\/type\/file\/file"
                    }
                },
                "uuid": [
                    {
                        "value": "c54ac48c-edba-4c46-a35b-1256fc30d4b1"
                    }
                ],
                "alt": "Snack Pur Porc image",
                "title": "",
                "width": "600",
                "height": "600"
            }
        ],
        "http:\/\/projecten-3-groep-7-webshop-aoste.dd:8083\/rest\/relation\/node\/product\/field_product_categorie": [
            {
                "_links": {
                    "self": {
                        "href": "http:\/\/projecten-3-groep-7-webshop-aoste.dd:8083\/nl\/snacks?_format=hal_json"
                    },
                    "type": {
                        "href": "http:\/\/projecten-3-groep-7-webshop-aoste.dd:8083\/rest\/type\/taxonomy_term\/categorie"
                    }
                },
                "uuid": [
                    {
                        "value": "857d2e45-2b47-4ebf-b168-f1da703a6333"
                    }
                ]
            },
            {
                "_links": {
                    "self": {
                        "href": "http:\/\/projecten-3-groep-7-webshop-aoste.dd:8083\/nl\/taxonomy\/term\/20?_format=hal_json"
                    },
                    "type": {
                        "href": "http:\/\/projecten-3-groep-7-webshop-aoste.dd:8083\/rest\/type\/taxonomy_term\/categorie"
                    }
                },
                "uuid": [
                    {
                        "value": "670f40de-30b5-4d25-b53c-b3b24fe41d18"
                    }
                ]
            }
        ]
    },
    "status": [
        {
            "value": true,
            "lang": "nl"
        },
        {
            "value": true,
            "lang": "fr"
        }
    ],
    "title": [
        {
            "value": "Snack Pur Porc",
            "lang": "nl"
        },
        {
            "value": "Snack Pur Porc",
            "lang": "fr"
        }
    ],
    "created": [
        {
            "value": "2020-12-11T12:56:19+00:00",
            "lang": "nl",
            "format": "Y-m-d\\TH:i:sP"
        },
        {
            "value": "2020-12-12T10:14:09+00:00",
            "lang": "fr",
            "format": "Y-m-d\\TH:i:sP"
        }
    ],
    "changed": [
        {
            "value": "2020-12-12T10:15:24+00:00",
            "lang": "nl",
            "format": "Y-m-d\\TH:i:sP"
        },
        {
            "value": "2020-12-12T10:18:54+00:00",
            "lang": "fr",
            "format": "Y-m-d\\TH:i:sP"
        }
    ],
    "promote": [
        {
            "value": false,
            "lang": "nl"
        },
        {
            "value": false,
            "lang": "fr"
        }
    ],
    "sticky": [
        {
            "value": false,
            "lang": "nl"
        },
        {
            "value": false,
            "lang": "fr"
        }
    ],
    "default_langcode": [
        {
            "value": true,
            "lang": "nl"
        },
        {
            "value": false,
            "lang": "fr"
        }
    ],
    "revision_translation_affected": [
        {
            "value": true,
            "lang": "fr"
        }
    ],
    "path": [
        {
            "alias": "\/product\/snack-pur-porc",
            "pid": 97,
            "langcode": "nl",
            "lang": "nl"
        },
        {
            "alias": "\/product\/snack-pur-porc",
            "pid": 110,
            "langcode": "fr",
            "lang": "fr"
        }
    ],
    "content_translation_source": [
        {
            "value": "und",
            "lang": "nl"
        },
        {
            "value": "nl",
            "lang": "fr"
        }
    ],
    "content_translation_outdated": [
        {
            "value": false,
            "lang": "nl"
        },
        {
            "value": false,
            "lang": "fr"
        }
    ],
    "body": [
        {
            "value": "<p>Onverwacht vrienden op bezoek? De kinderen smeken om een heerlijke snack? Een hartig tussendoortje voor jezelf? De onweerstaanbare Aoste Snack Pur Porc salamiballetjes combineren 100% varkensvlees met pure fun! Netjes verpakt in een handig hersluitbaar zakje.<\/p>\r\n\r\n<p>Ook verkrijgbaar in een grote verpakking voor extra plezier!<\/p>\r\n",
            "format": "basic_html",
            "processed": "<p>Onverwacht vrienden op bezoek? De kinderen smeken om een heerlijke snack? Een hartig tussendoortje voor jezelf? De onweerstaanbare Aoste Snack Pur Porc salamiballetjes combineren 100% varkensvlees met pure fun! Netjes verpakt in een handig hersluitbaar zakje.<\/p>\n\n<p>Ook verkrijgbaar in een grote verpakking voor extra plezier!<\/p>",
            "summary": "",
            "lang": "nl"
        },
        {
            "value": "<p>Des amis d\u00e9barquent \u00e0 l\u2019improviste ? Les enfants demandent une d\u00e9licieuse collation ? Envie d\u2019un agr\u00e9able en-cas pour vous-m\u00eame ? Les irr\u00e9sistibles mini saucissons Snack Pur Porc Aoste associent viande de porc 100 % et pur plaisir ! Joliment emball\u00e9es dans un sachet refermable pratique. Disponible en formats 80g et 200g XL<\/p>\r\n",
            "format": "basic_html",
            "processed": "<p>Des amis d\u00e9barquent \u00e0 l\u2019improviste ? Les enfants demandent une d\u00e9licieuse collation ? Envie d\u2019un agr\u00e9able en-cas pour vous-m\u00eame ? Les irr\u00e9sistibles mini saucissons Snack Pur Porc Aoste associent viande de porc 100 % et pur plaisir ! Joliment emball\u00e9es dans un sachet refermable pratique. Disponible en formats 80g et 200g XL<\/p>",
            "summary": "",
            "lang": "fr"
        }
    ],
    "field_nutriscore": [
        {
            "value": "E"
        }
    ],
    "field_product_allergenen": [
        {
            "value": "<p>Melk<\/p>\r\n",
            "format": "basic_html",
            "processed": "<p>Melk<\/p>",
            "lang": "nl"
        },
        {
            "value": "<p>Lait<\/p>\r\n\r\n<p>&nbsp;<\/p>\r\n",
            "format": "basic_html",
            "processed": "<p>Lait<\/p>\n\n<p>\u00a0<\/p>",
            "lang": "fr"
        }
    ],
    "field_product_gewicht": [
        {
            "value": 200
        }
    ],
    "field_product_ingredienten": [
        {
            "value": "<p>Varkensvlees, zout, dextrose, maltodextrine, specerijen, specerijextracten, kruiden, antioxidant: natriumascorbaat, conserveermiddel: natriumnitriet, kaliumnitraat, fermenten, 100g product bereid uit 185g vlees.<\/p>\r\n",
            "format": "basic_html",
            "processed": "<p>Varkensvlees, zout, dextrose, maltodextrine, specerijen, specerijextracten, kruiden, antioxidant: natriumascorbaat, conserveermiddel: natriumnitriet, kaliumnitraat, fermenten, 100g product bereid uit 185g vlees.<\/p>",
            "lang": "nl"
        },
        {
            "value": "<p>Porc, sel, dextrose, maltodextrine, \u00e9pices, extraits d'\u00e9pices, herbes, antioxydant : ascorbate de sodium, conservateur : nitrite de sodium, nitrate de potassium, levures, 100g de produit pr\u00e9par\u00e9 \u00e0 partir de 185g de viande.<\/p>\r\n",
            "format": "basic_html",
            "processed": "<p>Porc, sel, dextrose, maltodextrine, \u00e9pices, extraits d'\u00e9pices, herbes, antioxydant : ascorbate de sodium, conservateur : nitrite de sodium, nitrate de potassium, levures, 100g de produit pr\u00e9par\u00e9 \u00e0 partir de 185g de viande.<\/p>",
            "lang": "fr"
        }
    ],
    "field_product_retailers": [
        {
            "uri": "https:\/\/drive.carrefour.eu\/nl\/Charcuterie\/Worstjes-%26-apero\/Mini-worstjes-%26-sticks\/Aoste-XLarge-Snacks-Puur-Varken-200-g\/p\/04611558",
            "title": "Carrefour",
            "options": [],
            "lang": "nl"
        },
        {
            "uri": "https:\/\/www.delhaize.be\/nl-be\/shop\/Vlees-vis-en-vegetarische-producten\/Charcuterie\/Gedroogde-worsten\/Belgische-worsten\/Mini-salamis-XL-Puur-varkenvlees\/p\/F2011072500565000000",
            "title": "Delhaize",
            "options": [],
            "lang": "nl"
        },
        {
            "uri": "https:\/\/drive.carrefour.eu\/fr\/Charcuterie\/Saucissons-%26-ap%C3%A9ro\/Sticks-%26-minis\/Aoste-XLarge-Snacks-Pur-Porc-200-g\/p\/04611558",
            "title": "Carrefour",
            "options": [],
            "lang": "fr"
        },
        {
            "uri": "https:\/\/www.delhaize.be\/fr-be\/shop\/Viande-poisson-et-produits-vegetariens\/Charcuterie\/Saucissons-secs\/Saucissons-belges\/Mini-salamis-XL-Pur-porc\/p\/F2011072500565000000",
            "title": "Delhaize",
            "options": [],
            "lang": "fr"
        }
    ],
    "field_voeding_eiwitten": [
        {
            "value": "33.0"
        }
    ],
    "field_voeding_energie": [
        {
            "value": 2058
        }
    ],
    "field_voeding_kilocalorieen": [
        {
            "value": 496
        }
    ],
    "field_voeding_koolhydraten": [
        {
            "value": "1.0"
        }
    ],
    "field_voeding_suikers": [
        {
            "value": "1.0"
        }
    ],
    "field_voeding_verzadigde_vetten": [
        {
            "value": "14.0"
        }
    ],
    "field_voeding_vetten": [
        {
            "value": "40.0"
        }
    ],
    "field_voeding_zout": [
        {
            "value": "4.6"
        }
    ]
}