{
    "_links": {
        "self": {
            "href": "http:\/\/projecten-3-groep-7-webshop-aoste.dd:8083\/nl\/product\/authentique-kalkoengebraad?_format=hal_json"
        },
        "type": {
            "href": "http:\/\/projecten-3-groep-7-webshop-aoste.dd:8083\/rest\/type\/node\/product"
        },
        "http:\/\/projecten-3-groep-7-webshop-aoste.dd:8083\/rest\/relation\/node\/product\/revision_uid": [
            {
                "href": "http:\/\/projecten-3-groep-7-webshop-aoste.dd:8083\/en\/user\/1?_format=hal_json"
            }
        ],
        "http:\/\/projecten-3-groep-7-webshop-aoste.dd:8083\/rest\/relation\/node\/product\/uid": [
            {
                "href": "http:\/\/projecten-3-groep-7-webshop-aoste.dd:8083\/en\/user\/1?_format=hal_json",
                "lang": "nl"
            },
            {
                "href": "http:\/\/projecten-3-groep-7-webshop-aoste.dd:8083\/en\/user\/1?_format=hal_json",
                "lang": "fr"
            }
        ],
        "http:\/\/projecten-3-groep-7-webshop-aoste.dd:8083\/rest\/relation\/node\/product\/field_image": [
            {
                "href": ""
            }
        ],
        "http:\/\/projecten-3-groep-7-webshop-aoste.dd:8083\/rest\/relation\/node\/product\/field_product_categorie": [
            {
                "href": "http:\/\/projecten-3-groep-7-webshop-aoste.dd:8083\/nl\/broodbeleg?_format=hal_json"
            },
            {
                "href": "http:\/\/projecten-3-groep-7-webshop-aoste.dd:8083\/nl\/broodbeleg\/gevogelte?_format=hal_json"
            }
        ]
    },
    "uuid": [
        {
            "value": "4e419155-fc00-400e-a1db-34125768e79e"
        }
    ],
    "langcode": [
        {
            "value": "nl",
            "lang": "nl"
        },
        {
            "value": "fr",
            "lang": "fr"
        }
    ],
    "type": [
        {
            "target_id": "product"
        }
    ],
    "revision_timestamp": [
        {
            "value": "2020-12-11T17:18:39+00:00",
            "format": "Y-m-d\\TH:i:sP"
        }
    ],
    "_embedded": {
        "http:\/\/projecten-3-groep-7-webshop-aoste.dd:8083\/rest\/relation\/node\/product\/revision_uid": [
            {
                "_links": {
                    "self": {
                        "href": "http:\/\/projecten-3-groep-7-webshop-aoste.dd:8083\/en\/user\/1?_format=hal_json"
                    },
                    "type": {
                        "href": "http:\/\/projecten-3-groep-7-webshop-aoste.dd:8083\/rest\/type\/user\/user"
                    }
                },
                "uuid": [
                    {
                        "value": "489454d7-9e67-460c-9ada-25e81edcb21e"
                    }
                ]
            }
        ],
        "http:\/\/projecten-3-groep-7-webshop-aoste.dd:8083\/rest\/relation\/node\/product\/uid": [
            {
                "_links": {
                    "self": {
                        "href": "http:\/\/projecten-3-groep-7-webshop-aoste.dd:8083\/en\/user\/1?_format=hal_json"
                    },
                    "type": {
                        "href": "http:\/\/projecten-3-groep-7-webshop-aoste.dd:8083\/rest\/type\/user\/user"
                    }
                },
                "uuid": [
                    {
                        "value": "489454d7-9e67-460c-9ada-25e81edcb21e"
                    }
                ],
                "lang": "nl"
            },
            {
                "_links": {
                    "self": {
                        "href": "http:\/\/projecten-3-groep-7-webshop-aoste.dd:8083\/en\/user\/1?_format=hal_json"
                    },
                    "type": {
                        "href": "http:\/\/projecten-3-groep-7-webshop-aoste.dd:8083\/rest\/type\/user\/user"
                    }
                },
                "uuid": [
                    {
                        "value": "489454d7-9e67-460c-9ada-25e81edcb21e"
                    }
                ],
                "lang": "fr"
            }
        ],
        "http:\/\/projecten-3-groep-7-webshop-aoste.dd:8083\/rest\/relation\/node\/product\/field_image": [
            {
                "_links": {
                    "self": {
                        "href": ""
                    },
                    "type": {
                        "href": "http:\/\/projecten-3-groep-7-webshop-aoste.dd:8083\/rest\/type\/file\/file"
                    }
                },
                "uuid": [
                    {
                        "value": "030fe5e1-4d14-42dd-8f39-cfc48ec08141"
                    }
                ],
                "alt": " Authentique R\u00f4ti de dinde",
                "title": "",
                "width": "600",
                "height": "600"
            }
        ],
        "http:\/\/projecten-3-groep-7-webshop-aoste.dd:8083\/rest\/relation\/node\/product\/field_product_categorie": [
            {
                "_links": {
                    "self": {
                        "href": "http:\/\/projecten-3-groep-7-webshop-aoste.dd:8083\/nl\/broodbeleg?_format=hal_json"
                    },
                    "type": {
                        "href": "http:\/\/projecten-3-groep-7-webshop-aoste.dd:8083\/rest\/type\/taxonomy_term\/categorie"
                    }
                },
                "uuid": [
                    {
                        "value": "6e7c4f17-b99a-4f0b-99bf-b40adb2bc720"
                    }
                ]
            },
            {
                "_links": {
                    "self": {
                        "href": "http:\/\/projecten-3-groep-7-webshop-aoste.dd:8083\/nl\/broodbeleg\/gevogelte?_format=hal_json"
                    },
                    "type": {
                        "href": "http:\/\/projecten-3-groep-7-webshop-aoste.dd:8083\/rest\/type\/taxonomy_term\/categorie"
                    }
                },
                "uuid": [
                    {
                        "value": "e2fb92e3-71ae-4fd5-8756-eb8458285e93"
                    }
                ]
            }
        ]
    },
    "status": [
        {
            "value": true,
            "lang": "nl"
        },
        {
            "value": true,
            "lang": "fr"
        }
    ],
    "title": [
        {
            "value": "Authentique Kalkoengebraad",
            "lang": "nl"
        },
        {
            "value": " Authentique R\u00f4ti de dinde",
            "lang": "fr"
        }
    ],
    "created": [
        {
            "value": "2020-12-11T14:59:31+00:00",
            "lang": "nl",
            "format": "Y-m-d\\TH:i:sP"
        },
        {
            "value": "2020-12-11T17:18:39+00:00",
            "lang": "fr",
            "format": "Y-m-d\\TH:i:sP"
        }
    ],
    "changed": [
        {
            "value": "2020-12-11T17:18:39+00:00",
            "lang": "nl",
            "format": "Y-m-d\\TH:i:sP"
        },
        {
            "value": "2020-12-11T17:18:39+00:00",
            "lang": "fr",
            "format": "Y-m-d\\TH:i:sP"
        }
    ],
    "promote": [
        {
            "value": false,
            "lang": "nl"
        },
        {
            "value": false,
            "lang": "fr"
        }
    ],
    "sticky": [
        {
            "value": false,
            "lang": "nl"
        },
        {
            "value": false,
            "lang": "fr"
        }
    ],
    "default_langcode": [
        {
            "value": true,
            "lang": "nl"
        },
        {
            "value": false,
            "lang": "fr"
        }
    ],
    "revision_translation_affected": [
        {
            "value": true,
            "lang": "nl"
        },
        {
            "value": true,
            "lang": "fr"
        }
    ],
    "path": [
        {
            "alias": "\/product\/authentique-kalkoengebraad",
            "pid": 102,
            "langcode": "nl",
            "lang": "nl"
        },
        {
            "alias": "\/product\/authentique-roti-de-dinde",
            "pid": 106,
            "langcode": "fr",
            "lang": "fr"
        }
    ],
    "content_translation_source": [
        {
            "value": "und",
            "lang": "nl"
        },
        {
            "value": "nl",
            "lang": "fr"
        }
    ],
    "content_translation_outdated": [
        {
            "value": false,
            "lang": "nl"
        },
        {
            "value": false,
            "lang": "fr"
        }
    ],
    "body": [
        {
            "value": "<p>Aoste Kalkoengebraad wordt gemaakt uit 100% verse kalkoenfilet, het beste stuk. Een langzaam kookproces garandeert een zachte, volle smaak. Nadien roosteren we de kalkoenfilet in een braadoven, net zoals kip aan het spit. Dit geeft een \u00e9cht bakrandje, zonder gebruik van smaakstoffen. Onweerstaanbaar lekker!<\/p>\r\n",
            "format": "basic_html",
            "processed": "<p>Aoste Kalkoengebraad wordt gemaakt uit 100% verse kalkoenfilet, het beste stuk. Een langzaam kookproces garandeert een zachte, volle smaak. Nadien roosteren we de kalkoenfilet in een braadoven, net zoals kip aan het spit. Dit geeft een \u00e9cht bakrandje, zonder gebruik van smaakstoffen. Onweerstaanbaar lekker!<\/p>",
            "summary": "",
            "lang": "nl"
        },
        {
            "value": "<p>Le r\u00f4ti de dinde Aoste se compose exclusivement de filet de dinde frais, le meilleur morceau. Une cuisson longue garantit des saveurs douces et pleines. Le filet de dinde est ensuite r\u00f4ti, tout comme le poulet \u00e0 la broche. Pour un filet parfaitement r\u00f4ti, sans aromatisants. Irr\u00e9sistiblement d\u00e9licieux ! Disponible dans un emballage pratique et refermable de 6 tranches.<\/p>\r\n",
            "format": "basic_html",
            "processed": "<p>Le r\u00f4ti de dinde Aoste se compose exclusivement de filet de dinde frais, le meilleur morceau. Une cuisson longue garantit des saveurs douces et pleines. Le filet de dinde est ensuite r\u00f4ti, tout comme le poulet \u00e0 la broche. Pour un filet parfaitement r\u00f4ti, sans aromatisants. Irr\u00e9sistiblement d\u00e9licieux ! Disponible dans un emballage pratique et refermable de 6 tranches.<\/p>",
            "summary": "",
            "lang": "fr"
        }
    ],
    "field_nutriscore": [
        {
            "value": "C"
        }
    ],
    "field_product_allergenen": [
        {
            "value": "<p>Eieren, Gluten, Melk, Mosterd<\/p>\r\n",
            "format": "basic_html",
            "processed": "<p>Eieren, Gluten, Melk, Mosterd<\/p>",
            "lang": "nl"
        },
        {
            "value": "<p>Oeufs, gluten, lait, moutarde<\/p>\r\n",
            "format": "basic_html",
            "processed": "<p>Oeufs, gluten, lait, moutarde<\/p>",
            "lang": "fr"
        }
    ],
    "field_product_gewicht": [
        {
            "value": 120
        }
    ],
    "field_product_ingredienten": [
        {
            "value": "<p>Kalkoenvlees (92%, waarvan 100 % filet), zout, dextrose, suiker, specerijen, aroma, stabilisator: carrageen, trinatriumcitraat, antioxydant: natriumascorbaat, conserveermiddel: natriumnitriet<\/p>\r\n",
            "format": "basic_html",
            "processed": "<p>Kalkoenvlees (92%, waarvan 100 % filet), zout, dextrose, suiker, specerijen, aroma, stabilisator: carrageen, trinatriumcitraat, antioxydant: natriumascorbaat, conserveermiddel: natriumnitriet<\/p>",
            "lang": "nl"
        },
        {
            "value": "<p>Viande de dinde (92 %, dont 100 % de filet), sel, dextrose, sucre, \u00e9pices, ar\u00f4me, stabilisant : carragh\u00e9nane, citrate trisodique, antioxydant : ascorbate de sodium, conservateur : nitrite de sodium<\/p>\r\n",
            "format": "basic_html",
            "processed": "<p>Viande de dinde (92 %, dont 100 % de filet), sel, dextrose, sucre, \u00e9pices, ar\u00f4me, stabilisant : carragh\u00e9nane, citrate trisodique, antioxydant : ascorbate de sodium, conservateur : nitrite de sodium<\/p>",
            "lang": "fr"
        }
    ],
    "field_product_retailers": [
        {
            "uri": "https:\/\/www.delhaize.be\/nl-be\/shop\/Vlees-vis-en-vegetarische-producten\/Charcuterie\/Gekookte-vleesproducten\/Gekookt-kalkoensvlees\/AUTHENTIQUE-KALKoeNGEBRAAD\/p\/F2019030800032970000",
            "title": "Delhaize",
            "options": [],
            "lang": "nl"
        },
        {
            "uri": "https:\/\/colruyt.collectandgo.be\/cogo\/nl\/artikeldetail\/27578\/aoste",
            "title": "Colruyt",
            "options": [],
            "lang": "nl"
        },
        {
            "uri": "https:\/\/drive.carrefour.eu\/nl\/Charcuterie\/Charcuterie-in-sneden\/Gevogelte\/Aoste-Kalkoengebraad-8-Sneden-120-g\/p\/04489087",
            "title": "Carrefour",
            "options": [],
            "lang": "nl"
        },
        {
            "uri": "https:\/\/www.delhaize.be\/fr-be\/shop\/Viande-poisson-et-produits-vegetariens\/Charcuterie\/Viandes-cuites\/Dinde-cuite\/AUTHENTIQUE-ROTI-DE-DIND\/p\/F2019030800032970000",
            "title": "Delhaize",
            "options": [],
            "lang": "fr"
        },
        {
            "uri": "https:\/\/colruyt.collectandgo.be\/cogo\/fr\/detail_article\/27578\/aoste",
            "title": "Colruyt",
            "options": [],
            "lang": "fr"
        },
        {
            "uri": "https:\/\/drive.carrefour.eu\/fr\/Charcuterie\/Charcuterie-en-tranches\/Volaille\/Aoste-R%C3%B4ti-de-Dinde-8-Tranches-120-g\/p\/04489087",
            "title": "Carrefour",
            "options": [],
            "lang": "fr"
        }
    ],
    "field_voeding_eiwitten": [
        {
            "value": "22.0"
        }
    ],
    "field_voeding_energie": [
        {
            "value": 462
        }
    ],
    "field_voeding_kilocalorieen": [
        {
            "value": 109
        }
    ],
    "field_voeding_koolhydraten": [
        {
            "value": "0.8"
        }
    ],
    "field_voeding_suikers": [
        {
            "value": "0.7"
        }
    ],
    "field_voeding_verzadigde_vetten": [
        {
            "value": "0.6"
        }
    ],
    "field_voeding_vetten": [
        {
            "value": "2.0"
        }
    ],
    "field_voeding_zout": [
        {
            "value": "22.0"
        }
    ]
}