{
    "_links": {
        "self": {
            "href": "http:\/\/projecten-3-groep-7-webshop-aoste.dd:8083\/nl\/product\/authentique-beenham?_format=hal_json"
        },
        "type": {
            "href": "http:\/\/projecten-3-groep-7-webshop-aoste.dd:8083\/rest\/type\/node\/product"
        },
        "http:\/\/projecten-3-groep-7-webshop-aoste.dd:8083\/rest\/relation\/node\/product\/revision_uid": [
            {
                "href": "http:\/\/projecten-3-groep-7-webshop-aoste.dd:8083\/en\/user\/1?_format=hal_json"
            }
        ],
        "http:\/\/projecten-3-groep-7-webshop-aoste.dd:8083\/rest\/relation\/node\/product\/uid": [
            {
                "href": "http:\/\/projecten-3-groep-7-webshop-aoste.dd:8083\/en\/user\/1?_format=hal_json",
                "lang": "nl"
            },
            {
                "href": "http:\/\/projecten-3-groep-7-webshop-aoste.dd:8083\/en\/user\/1?_format=hal_json",
                "lang": "fr"
            }
        ],
        "http:\/\/projecten-3-groep-7-webshop-aoste.dd:8083\/rest\/relation\/node\/product\/field_image": [
            {
                "href": ""
            }
        ],
        "http:\/\/projecten-3-groep-7-webshop-aoste.dd:8083\/rest\/relation\/node\/product\/field_product_categorie": [
            {
                "href": "http:\/\/projecten-3-groep-7-webshop-aoste.dd:8083\/nl\/broodbeleg?_format=hal_json"
            },
            {
                "href": "http:\/\/projecten-3-groep-7-webshop-aoste.dd:8083\/nl\/taxonomy\/term\/16?_format=hal_json"
            }
        ],
        "http:\/\/projecten-3-groep-7-webshop-aoste.dd:8083\/rest\/relation\/node\/product\/field_product_gebruikt_in": [
            {
                "href": "http:\/\/projecten-3-groep-7-webshop-aoste.dd:8083\/nl\/recepten\/warme-tortilla-met-authentique-beenham?_format=hal_json"
            }
        ],
        "http:\/\/projecten-3-groep-7-webshop-aoste.dd:8083\/rest\/relation\/node\/product\/field_product_promo_door": [
            {
                "href": "http:\/\/projecten-3-groep-7-webshop-aoste.dd:8083\/nl\/Promo\/authentieke-aanbiedingen?_format=hal_json"
            }
        ]
    },
    "uuid": [
        {
            "value": "909a4e14-6d3c-4ad7-9598-8b5688827e0b"
        }
    ],
    "langcode": [
        {
            "value": "nl",
            "lang": "nl"
        },
        {
            "value": "fr",
            "lang": "fr"
        }
    ],
    "type": [
        {
            "target_id": "product"
        }
    ],
    "revision_timestamp": [
        {
            "value": "2020-12-14T08:58:49+00:00",
            "format": "Y-m-d\\TH:i:sP"
        }
    ],
    "_embedded": {
        "http:\/\/projecten-3-groep-7-webshop-aoste.dd:8083\/rest\/relation\/node\/product\/revision_uid": [
            {
                "_links": {
                    "self": {
                        "href": "http:\/\/projecten-3-groep-7-webshop-aoste.dd:8083\/en\/user\/1?_format=hal_json"
                    },
                    "type": {
                        "href": "http:\/\/projecten-3-groep-7-webshop-aoste.dd:8083\/rest\/type\/user\/user"
                    }
                },
                "uuid": [
                    {
                        "value": "489454d7-9e67-460c-9ada-25e81edcb21e"
                    }
                ]
            }
        ],
        "http:\/\/projecten-3-groep-7-webshop-aoste.dd:8083\/rest\/relation\/node\/product\/uid": [
            {
                "_links": {
                    "self": {
                        "href": "http:\/\/projecten-3-groep-7-webshop-aoste.dd:8083\/en\/user\/1?_format=hal_json"
                    },
                    "type": {
                        "href": "http:\/\/projecten-3-groep-7-webshop-aoste.dd:8083\/rest\/type\/user\/user"
                    }
                },
                "uuid": [
                    {
                        "value": "489454d7-9e67-460c-9ada-25e81edcb21e"
                    }
                ],
                "lang": "nl"
            },
            {
                "_links": {
                    "self": {
                        "href": "http:\/\/projecten-3-groep-7-webshop-aoste.dd:8083\/en\/user\/1?_format=hal_json"
                    },
                    "type": {
                        "href": "http:\/\/projecten-3-groep-7-webshop-aoste.dd:8083\/rest\/type\/user\/user"
                    }
                },
                "uuid": [
                    {
                        "value": "489454d7-9e67-460c-9ada-25e81edcb21e"
                    }
                ],
                "lang": "fr"
            }
        ],
        "http:\/\/projecten-3-groep-7-webshop-aoste.dd:8083\/rest\/relation\/node\/product\/field_image": [
            {
                "_links": {
                    "self": {
                        "href": ""
                    },
                    "type": {
                        "href": "http:\/\/projecten-3-groep-7-webshop-aoste.dd:8083\/rest\/type\/file\/file"
                    }
                },
                "uuid": [
                    {
                        "value": "692c800d-059a-4d9e-82ca-c458eb214745"
                    }
                ],
                "alt": "Authentique Jambon \u00e0 l\u2019os",
                "title": "",
                "width": "545",
                "height": "545"
            }
        ],
        "http:\/\/projecten-3-groep-7-webshop-aoste.dd:8083\/rest\/relation\/node\/product\/field_product_categorie": [
            {
                "_links": {
                    "self": {
                        "href": "http:\/\/projecten-3-groep-7-webshop-aoste.dd:8083\/nl\/broodbeleg?_format=hal_json"
                    },
                    "type": {
                        "href": "http:\/\/projecten-3-groep-7-webshop-aoste.dd:8083\/rest\/type\/taxonomy_term\/categorie"
                    }
                },
                "uuid": [
                    {
                        "value": "6e7c4f17-b99a-4f0b-99bf-b40adb2bc720"
                    }
                ]
            },
            {
                "_links": {
                    "self": {
                        "href": "http:\/\/projecten-3-groep-7-webshop-aoste.dd:8083\/nl\/taxonomy\/term\/16?_format=hal_json"
                    },
                    "type": {
                        "href": "http:\/\/projecten-3-groep-7-webshop-aoste.dd:8083\/rest\/type\/taxonomy_term\/categorie"
                    }
                },
                "uuid": [
                    {
                        "value": "d752d8b7-f1b5-473e-a94a-e4a29060f5c1"
                    }
                ]
            }
        ],
        "http:\/\/projecten-3-groep-7-webshop-aoste.dd:8083\/rest\/relation\/node\/product\/field_product_gebruikt_in": [
            {
                "_links": {
                    "self": {
                        "href": "http:\/\/projecten-3-groep-7-webshop-aoste.dd:8083\/nl\/recepten\/warme-tortilla-met-authentique-beenham?_format=hal_json"
                    },
                    "type": {
                        "href": "http:\/\/projecten-3-groep-7-webshop-aoste.dd:8083\/rest\/type\/node\/recept"
                    }
                },
                "uuid": [
                    {
                        "value": "544679bf-5024-4bca-b490-2474e8b3ec19"
                    }
                ]
            }
        ],
        "http:\/\/projecten-3-groep-7-webshop-aoste.dd:8083\/rest\/relation\/node\/product\/field_product_promo_door": [
            {
                "_links": {
                    "self": {
                        "href": "http:\/\/projecten-3-groep-7-webshop-aoste.dd:8083\/nl\/Promo\/authentieke-aanbiedingen?_format=hal_json"
                    },
                    "type": {
                        "href": "http:\/\/projecten-3-groep-7-webshop-aoste.dd:8083\/rest\/type\/node\/promo"
                    }
                },
                "uuid": [
                    {
                        "value": "0ad578fa-5512-4d83-a187-7814d4cb15ea"
                    }
                ]
            }
        ]
    },
    "status": [
        {
            "value": true,
            "lang": "nl"
        },
        {
            "value": true,
            "lang": "fr"
        }
    ],
    "title": [
        {
            "value": "Authentique Beenham",
            "lang": "nl"
        },
        {
            "value": " Authentique Jambon \u00e0 l\u2019os",
            "lang": "fr"
        }
    ],
    "created": [
        {
            "value": "2020-11-15T15:44:17+00:00",
            "lang": "nl",
            "format": "Y-m-d\\TH:i:sP"
        },
        {
            "value": "2020-11-15T15:48:41+00:00",
            "lang": "fr",
            "format": "Y-m-d\\TH:i:sP"
        }
    ],
    "changed": [
        {
            "value": "2020-12-14T08:58:21+00:00",
            "lang": "nl",
            "format": "Y-m-d\\TH:i:sP"
        },
        {
            "value": "2020-12-14T08:58:49+00:00",
            "lang": "fr",
            "format": "Y-m-d\\TH:i:sP"
        }
    ],
    "promote": [
        {
            "value": false,
            "lang": "nl"
        },
        {
            "value": false,
            "lang": "fr"
        }
    ],
    "sticky": [
        {
            "value": false,
            "lang": "nl"
        },
        {
            "value": false,
            "lang": "fr"
        }
    ],
    "default_langcode": [
        {
            "value": true,
            "lang": "nl"
        },
        {
            "value": false,
            "lang": "fr"
        }
    ],
    "path": [
        {
            "alias": "\/product\/authentique-beenham",
            "pid": 40,
            "langcode": "nl",
            "lang": "nl"
        },
        {
            "alias": "\/product\/authentique-jambon-los",
            "pid": 39,
            "langcode": "fr",
            "lang": "fr"
        }
    ],
    "content_translation_source": [
        {
            "value": "und",
            "lang": "nl"
        },
        {
            "value": "nl",
            "lang": "fr"
        }
    ],
    "content_translation_outdated": [
        {
            "value": false,
            "lang": "nl"
        },
        {
            "value": false,
            "lang": "fr"
        }
    ],
    "body": [
        {
            "value": "<p>Alle Aoste Kookhammen zijn van 100% Belgische origine. Dat betekent dat het vlees uitsluitend van Belgische dieren komt \u00e9n in Belgi\u00eb geproduceerd wordt. We maken de Aoste Beenham van de beste delen van het varken en volgens dezelfde authentieke kookwijze. En dat maakt onze Aoste Kookham juist zo sappig en vers: je verlangt meteen naar een tweede sneetje!<\/p>\r\n",
            "format": "basic_html",
            "processed": "<p>Alle Aoste Kookhammen zijn van 100% Belgische origine. Dat betekent dat het vlees uitsluitend van Belgische dieren komt \u00e9n in Belgi\u00eb geproduceerd wordt. We maken de Aoste Beenham van de beste delen van het varken en volgens dezelfde authentieke kookwijze. En dat maakt onze Aoste Kookham juist zo sappig en vers: je verlangt meteen naar een tweede sneetje!<\/p>",
            "summary": "",
            "lang": "nl"
        },
        {
            "value": "<p>Tous nos jambons cuits Aoste sont d\u2019origine 100 % belge. Cela signifie que la viande provient exclusivement d\u2019animaux belges et est produite en Belgique. Nos jambons sont fabriqu\u00e9s \u00e0 partir des meilleures parties du porc selon la m\u00eame m\u00e9thode de cuisson traditionnelle et authentique, comme chez le boucher du coin. Et c\u2019est ce qui le rend si juteux et frais, \u00e0 tel point que vous en voulez directement une seconde tranche. Disponible dans un emballage pratique et refermable de 4 tranches.<\/p>\r\n",
            "format": "basic_html",
            "processed": "<p>Tous nos jambons cuits Aoste sont d\u2019origine 100 % belge. Cela signifie que la viande provient exclusivement d\u2019animaux belges et est produite en Belgique. Nos jambons sont fabriqu\u00e9s \u00e0 partir des meilleures parties du porc selon la m\u00eame m\u00e9thode de cuisson traditionnelle et authentique, comme chez le boucher du coin. Et c\u2019est ce qui le rend si juteux et frais, \u00e0 tel point que vous en voulez directement une seconde tranche. Disponible dans un emballage pratique et refermable de 4 tranches.<\/p>",
            "summary": "",
            "lang": "fr"
        }
    ],
    "field_nutriscore": [
        {
            "value": "D"
        }
    ],
    "field_product_allergenen": [
        {
            "value": "<p>Melk<\/p>\r\n",
            "format": "basic_html",
            "processed": "<p>Melk<\/p>",
            "lang": "nl"
        },
        {
            "value": "<p>Lait<\/p>\r\n",
            "format": "basic_html",
            "processed": "<p>Lait<\/p>",
            "lang": "fr"
        }
    ],
    "field_product_gewicht": [
        {
            "value": 150
        }
    ],
    "field_product_ingredienten": [
        {
            "value": "<p>Varkensvlees (96%), Zout, Dextrose, Glucosestroop, Specerijen, Specerijextracten,&nbsp;aroma, antioxidant: ascorbinezuur, Rook.<\/p>\r\n",
            "format": "basic_html",
            "processed": "<p>Varkensvlees (96%), Zout, Dextrose, Glucosestroop, Specerijen, Specerijextracten,\u00a0aroma, antioxidant: ascorbinezuur, Rook.<\/p>",
            "lang": "nl"
        },
        {
            "value": "<p>Viance de porc (96%), Sel, Dextrose, Sirop de glucose, Epices, Extraits d'\u00e9pices, Ar\u00f4me, Fum\u00e9e.<\/p>\r\n",
            "format": "basic_html",
            "processed": "<p>Viance de porc (96%), Sel, Dextrose, Sirop de glucose, Epices, Extraits d'\u00e9pices, Ar\u00f4me, Fum\u00e9e.<\/p>",
            "lang": "fr"
        }
    ],
    "field_product_retailers": [
        {
            "uri": "https:\/\/drive.carrefour.eu\/nl\/Charcuterie\/Charcuterie-in-sneden\/Gekookte-ham\/Aoste-l%27Authentique-Beenham-4-Sneden-150-g\/p\/05724139",
            "title": "Carrefour",
            "options": [],
            "lang": "nl"
        },
        {
            "uri": "https:\/\/drive.carrefour.eu\/fr\/Charcuterie\/Charcuterie-en-tranches\/Jambon-cuit\/Aoste-l%27Authentique-Jambon-%C3%A0-l%27Os-4-Tranches-150-g\/p\/05724139",
            "title": "Carrefour",
            "options": [],
            "lang": "fr"
        }
    ],
    "field_voeding_eiwitten": [
        {
            "value": "20.0"
        }
    ],
    "field_voeding_energie": [
        {
            "value": 576
        }
    ],
    "field_voeding_kilocalorieen": [
        {
            "value": 137
        }
    ],
    "field_voeding_koolhydraten": [
        {
            "value": "0.6"
        }
    ],
    "field_voeding_suikers": [
        {
            "value": "0.5"
        }
    ],
    "field_voeding_verzadigde_vetten": [
        {
            "value": "2.2"
        }
    ],
    "field_voeding_vetten": [
        {
            "value": "5.9"
        }
    ],
    "field_voeding_zout": [
        {
            "value": "1.9"
        }
    ]
}