{
    "_links": {
        "self": {
            "href": "http:\/\/projecten-3-groep-7-webshop-aoste.dd:8083\/nl\/Promo\/vegetarische-veelvraat?_format=hal_json"
        },
        "type": {
            "href": "http:\/\/projecten-3-groep-7-webshop-aoste.dd:8083\/rest\/type\/node\/promo"
        },
        "http:\/\/projecten-3-groep-7-webshop-aoste.dd:8083\/rest\/relation\/node\/promo\/revision_uid": [
            {
                "href": "http:\/\/projecten-3-groep-7-webshop-aoste.dd:8083\/en\/user\/1?_format=hal_json"
            }
        ],
        "http:\/\/projecten-3-groep-7-webshop-aoste.dd:8083\/rest\/relation\/node\/promo\/uid": [
            {
                "href": "http:\/\/projecten-3-groep-7-webshop-aoste.dd:8083\/en\/user\/1?_format=hal_json",
                "lang": "nl"
            },
            {
                "href": "http:\/\/projecten-3-groep-7-webshop-aoste.dd:8083\/en\/user\/1?_format=hal_json",
                "lang": "fr"
            }
        ],
        "http:\/\/projecten-3-groep-7-webshop-aoste.dd:8083\/rest\/relation\/node\/promo\/field_coupon": [
            {
                "href": ""
            }
        ],
        "http:\/\/projecten-3-groep-7-webshop-aoste.dd:8083\/rest\/relation\/node\/promo\/field_image": [
            {
                "href": "",
                "lang": "nl"
            },
            {
                "href": "",
                "lang": "fr"
            }
        ],
        "http:\/\/projecten-3-groep-7-webshop-aoste.dd:8083\/rest\/relation\/node\/promo\/field_promo_producten": [
            {
                "href": "http:\/\/projecten-3-groep-7-webshop-aoste.dd:8083\/nl\/product\/le-vegetarien-groenteballetjes-spinazie-boerenkool-broccoli?_format=hal_json"
            },
            {
                "href": "http:\/\/projecten-3-groep-7-webshop-aoste.dd:8083\/nl\/product\/le-vegetarien-tuinkruiden?_format=hal_json"
            }
        ]
    },
    "uuid": [
        {
            "value": "939f253d-1435-44ac-a7b8-db53c0ec6810"
        }
    ],
    "langcode": [
        {
            "value": "nl",
            "lang": "nl"
        },
        {
            "value": "fr",
            "lang": "fr"
        }
    ],
    "type": [
        {
            "target_id": "promo"
        }
    ],
    "revision_timestamp": [
        {
            "value": "2020-12-13T10:20:36+00:00",
            "format": "Y-m-d\\TH:i:sP"
        }
    ],
    "_embedded": {
        "http:\/\/projecten-3-groep-7-webshop-aoste.dd:8083\/rest\/relation\/node\/promo\/revision_uid": [
            {
                "_links": {
                    "self": {
                        "href": "http:\/\/projecten-3-groep-7-webshop-aoste.dd:8083\/en\/user\/1?_format=hal_json"
                    },
                    "type": {
                        "href": "http:\/\/projecten-3-groep-7-webshop-aoste.dd:8083\/rest\/type\/user\/user"
                    }
                },
                "uuid": [
                    {
                        "value": "489454d7-9e67-460c-9ada-25e81edcb21e"
                    }
                ]
            }
        ],
        "http:\/\/projecten-3-groep-7-webshop-aoste.dd:8083\/rest\/relation\/node\/promo\/uid": [
            {
                "_links": {
                    "self": {
                        "href": "http:\/\/projecten-3-groep-7-webshop-aoste.dd:8083\/en\/user\/1?_format=hal_json"
                    },
                    "type": {
                        "href": "http:\/\/projecten-3-groep-7-webshop-aoste.dd:8083\/rest\/type\/user\/user"
                    }
                },
                "uuid": [
                    {
                        "value": "489454d7-9e67-460c-9ada-25e81edcb21e"
                    }
                ],
                "lang": "nl"
            },
            {
                "_links": {
                    "self": {
                        "href": "http:\/\/projecten-3-groep-7-webshop-aoste.dd:8083\/en\/user\/1?_format=hal_json"
                    },
                    "type": {
                        "href": "http:\/\/projecten-3-groep-7-webshop-aoste.dd:8083\/rest\/type\/user\/user"
                    }
                },
                "uuid": [
                    {
                        "value": "489454d7-9e67-460c-9ada-25e81edcb21e"
                    }
                ],
                "lang": "fr"
            }
        ],
        "http:\/\/projecten-3-groep-7-webshop-aoste.dd:8083\/rest\/relation\/node\/promo\/field_coupon": [
            {
                "_links": {
                    "self": {
                        "href": ""
                    },
                    "type": {
                        "href": "http:\/\/projecten-3-groep-7-webshop-aoste.dd:8083\/rest\/type\/file\/file"
                    }
                },
                "uuid": [
                    {
                        "value": "7ff2ee0d-1c17-4e22-a495-6a8468b85827"
                    }
                ],
                "display": "1",
                "description": "Coupon"
            }
        ],
        "http:\/\/projecten-3-groep-7-webshop-aoste.dd:8083\/rest\/relation\/node\/promo\/field_image": [
            {
                "_links": {
                    "self": {
                        "href": ""
                    },
                    "type": {
                        "href": "http:\/\/projecten-3-groep-7-webshop-aoste.dd:8083\/rest\/type\/file\/file"
                    }
                },
                "uuid": [
                    {
                        "value": "bc5f131e-0e05-408e-ba42-f50a7cf83f88"
                    }
                ],
                "lang": "nl",
                "alt": "Promo Groenteballetje",
                "title": "",
                "width": "13333",
                "height": "5000"
            },
            {
                "_links": {
                    "self": {
                        "href": ""
                    },
                    "type": {
                        "href": "http:\/\/projecten-3-groep-7-webshop-aoste.dd:8083\/rest\/type\/file\/file"
                    }
                },
                "uuid": [
                    {
                        "value": "e93590d8-7769-4b63-8207-4c892407472b"
                    }
                ],
                "lang": "fr",
                "alt": "promotion",
                "title": "",
                "width": "13333",
                "height": "5000"
            }
        ],
        "http:\/\/projecten-3-groep-7-webshop-aoste.dd:8083\/rest\/relation\/node\/promo\/field_promo_producten": [
            {
                "_links": {
                    "self": {
                        "href": "http:\/\/projecten-3-groep-7-webshop-aoste.dd:8083\/nl\/product\/le-vegetarien-groenteballetjes-spinazie-boerenkool-broccoli?_format=hal_json"
                    },
                    "type": {
                        "href": "http:\/\/projecten-3-groep-7-webshop-aoste.dd:8083\/rest\/type\/node\/product"
                    }
                },
                "uuid": [
                    {
                        "value": "4e4e0598-f399-4d90-98cf-ae9314f93278"
                    }
                ]
            },
            {
                "_links": {
                    "self": {
                        "href": "http:\/\/projecten-3-groep-7-webshop-aoste.dd:8083\/nl\/product\/le-vegetarien-tuinkruiden?_format=hal_json"
                    },
                    "type": {
                        "href": "http:\/\/projecten-3-groep-7-webshop-aoste.dd:8083\/rest\/type\/node\/product"
                    }
                },
                "uuid": [
                    {
                        "value": "eb3aa03a-66ca-495f-bb46-b5d3747b5b0e"
                    }
                ]
            }
        ]
    },
    "status": [
        {
            "value": false,
            "lang": "nl"
        },
        {
            "value": true,
            "lang": "fr"
        }
    ],
    "title": [
        {
            "value": "Vegetarische veelvraat  ",
            "lang": "nl"
        },
        {
            "value": "Glouton v\u00e9g\u00e9tarien",
            "lang": "fr"
        }
    ],
    "created": [
        {
            "value": "2020-11-10T12:47:35+00:00",
            "lang": "nl",
            "format": "Y-m-d\\TH:i:sP"
        },
        {
            "value": "2020-11-10T13:34:21+00:00",
            "lang": "fr",
            "format": "Y-m-d\\TH:i:sP"
        }
    ],
    "changed": [
        {
            "value": "2020-12-21T22:59:59+00:00",
            "lang": "nl",
            "format": "Y-m-d\\TH:i:sP"
        },
        {
            "value": "2020-12-13T10:20:36+00:00",
            "lang": "fr",
            "format": "Y-m-d\\TH:i:sP"
        }
    ],
    "promote": [
        {
            "value": false,
            "lang": "nl"
        },
        {
            "value": false,
            "lang": "fr"
        }
    ],
    "sticky": [
        {
            "value": false,
            "lang": "nl"
        },
        {
            "value": false,
            "lang": "fr"
        }
    ],
    "default_langcode": [
        {
            "value": true,
            "lang": "nl"
        },
        {
            "value": false,
            "lang": "fr"
        }
    ],
    "revision_translation_affected": [
        {
            "value": true,
            "lang": "nl"
        },
        {
            "value": true,
            "lang": "fr"
        }
    ],
    "path": [
        {
            "alias": "\/Promo\/vegetarische-veelvraat",
            "pid": 56,
            "langcode": "nl",
            "lang": "nl"
        },
        {
            "alias": "\/Promo\/glouton-vegetarien",
            "pid": 55,
            "langcode": "fr",
            "lang": "fr"
        }
    ],
    "unpublish_on": [
        {
            "value": "2025-07-27T21:59:59+00:00",
            "lang": "fr",
            "format": "Y-m-d\\TH:i:sP"
        }
    ],
    "content_translation_source": [
        {
            "value": "und",
            "lang": "nl"
        },
        {
            "value": "nl",
            "lang": "fr"
        }
    ],
    "content_translation_outdated": [
        {
            "value": false,
            "lang": "nl"
        },
        {
            "value": false,
            "lang": "fr"
        }
    ],
    "body": [
        {
            "value": "<p>Laat je vangen aan \u00e9\u00e9n van de zeven hoofdzonden en eet je buikje vol met onze vegetarische producten.<\/p>\r\n",
            "format": "basic_html",
            "processed": "<p>Laat je vangen aan \u00e9\u00e9n van de zeven hoofdzonden en eet je buikje vol met onze vegetarische producten.<\/p>",
            "summary": "",
            "lang": "nl"
        },
        {
            "value": "<p>eet extra veel Vegetarisch&nbsp; met onze aanbeiding op Vegetarisch maaltijd componenten in het frans<\/p>\r\n",
            "format": "basic_html",
            "processed": "<p>eet extra veel Vegetarisch\u00a0 met onze aanbeiding op Vegetarisch maaltijd componenten in het frans<\/p>",
            "summary": "",
            "lang": "fr"
        }
    ],
    "field_end_date": [
        {
            "value": "2020-12-21"
        }
    ],
    "field_start_date": [
        {
            "value": "2020-11-13"
        }
    ]
}