{
    "_links": {
        "self": {
            "href": "http:\/\/projecten-3-groep-7-webshop-aoste.dd:8083\/nl\/recepten\/boterham-met-kipfilet-aan-t-spit-en-gegrilde-courgette-0?_format=hal_json"
        },
        "type": {
            "href": "http:\/\/projecten-3-groep-7-webshop-aoste.dd:8083\/rest\/type\/node\/recept"
        },
        "http:\/\/projecten-3-groep-7-webshop-aoste.dd:8083\/rest\/relation\/node\/recept\/revision_uid": [
            {
                "href": "http:\/\/projecten-3-groep-7-webshop-aoste.dd:8083\/en\/user\/1?_format=hal_json"
            }
        ],
        "http:\/\/projecten-3-groep-7-webshop-aoste.dd:8083\/rest\/relation\/node\/recept\/uid": [
            {
                "href": "http:\/\/projecten-3-groep-7-webshop-aoste.dd:8083\/en\/user\/1?_format=hal_json",
                "lang": "nl"
            },
            {
                "href": "http:\/\/projecten-3-groep-7-webshop-aoste.dd:8083\/en\/user\/1?_format=hal_json",
                "lang": "fr"
            }
        ],
        "http:\/\/projecten-3-groep-7-webshop-aoste.dd:8083\/rest\/relation\/node\/recept\/field_recept_afbeelding": [
            {
                "href": "",
                "lang": "nl"
            },
            {
                "href": "",
                "lang": "fr"
            }
        ],
        "http:\/\/projecten-3-groep-7-webshop-aoste.dd:8083\/rest\/relation\/node\/recept\/field_recept_gebruikte_producten": [
            {
                "href": "http:\/\/projecten-3-groep-7-webshop-aoste.dd:8083\/nl\/product\/authentique-kipfilet?_format=hal_json",
                "lang": "nl"
            },
            {
                "href": "http:\/\/projecten-3-groep-7-webshop-aoste.dd:8083\/nl\/product\/authentique-kipfilet?_format=hal_json",
                "lang": "fr"
            }
        ]
    },
    "uuid": [
        {
            "value": "71d49c43-4ec7-44c3-8e8a-c425fe31a81e"
        }
    ],
    "langcode": [
        {
            "value": "nl",
            "lang": "nl"
        },
        {
            "value": "fr",
            "lang": "fr"
        }
    ],
    "type": [
        {
            "target_id": "recept"
        }
    ],
    "revision_timestamp": [
        {
            "value": "2020-12-11T09:28:38+00:00",
            "format": "Y-m-d\\TH:i:sP"
        }
    ],
    "_embedded": {
        "http:\/\/projecten-3-groep-7-webshop-aoste.dd:8083\/rest\/relation\/node\/recept\/revision_uid": [
            {
                "_links": {
                    "self": {
                        "href": "http:\/\/projecten-3-groep-7-webshop-aoste.dd:8083\/en\/user\/1?_format=hal_json"
                    },
                    "type": {
                        "href": "http:\/\/projecten-3-groep-7-webshop-aoste.dd:8083\/rest\/type\/user\/user"
                    }
                },
                "uuid": [
                    {
                        "value": "489454d7-9e67-460c-9ada-25e81edcb21e"
                    }
                ]
            }
        ],
        "http:\/\/projecten-3-groep-7-webshop-aoste.dd:8083\/rest\/relation\/node\/recept\/uid": [
            {
                "_links": {
                    "self": {
                        "href": "http:\/\/projecten-3-groep-7-webshop-aoste.dd:8083\/en\/user\/1?_format=hal_json"
                    },
                    "type": {
                        "href": "http:\/\/projecten-3-groep-7-webshop-aoste.dd:8083\/rest\/type\/user\/user"
                    }
                },
                "uuid": [
                    {
                        "value": "489454d7-9e67-460c-9ada-25e81edcb21e"
                    }
                ],
                "lang": "nl"
            },
            {
                "_links": {
                    "self": {
                        "href": "http:\/\/projecten-3-groep-7-webshop-aoste.dd:8083\/en\/user\/1?_format=hal_json"
                    },
                    "type": {
                        "href": "http:\/\/projecten-3-groep-7-webshop-aoste.dd:8083\/rest\/type\/user\/user"
                    }
                },
                "uuid": [
                    {
                        "value": "489454d7-9e67-460c-9ada-25e81edcb21e"
                    }
                ],
                "lang": "fr"
            }
        ],
        "http:\/\/projecten-3-groep-7-webshop-aoste.dd:8083\/rest\/relation\/node\/recept\/field_recept_afbeelding": [
            {
                "_links": {
                    "self": {
                        "href": ""
                    },
                    "type": {
                        "href": "http:\/\/projecten-3-groep-7-webshop-aoste.dd:8083\/rest\/type\/file\/file"
                    }
                },
                "uuid": [
                    {
                        "value": "05bdb084-7075-4e8e-8c5a-16a4b3cf43b6"
                    }
                ],
                "lang": "nl",
                "alt": "Kipfilet Toast",
                "title": "",
                "width": "1200",
                "height": "800"
            },
            {
                "_links": {
                    "self": {
                        "href": ""
                    },
                    "type": {
                        "href": "http:\/\/projecten-3-groep-7-webshop-aoste.dd:8083\/rest\/type\/file\/file"
                    }
                },
                "uuid": [
                    {
                        "value": "05bdb084-7075-4e8e-8c5a-16a4b3cf43b6"
                    }
                ],
                "lang": "fr",
                "alt": "Tartine au Filet de Poulet",
                "title": "",
                "width": "1200",
                "height": "800"
            }
        ],
        "http:\/\/projecten-3-groep-7-webshop-aoste.dd:8083\/rest\/relation\/node\/recept\/field_recept_gebruikte_producten": [
            {
                "_links": {
                    "self": {
                        "href": "http:\/\/projecten-3-groep-7-webshop-aoste.dd:8083\/nl\/product\/authentique-kipfilet?_format=hal_json"
                    },
                    "type": {
                        "href": "http:\/\/projecten-3-groep-7-webshop-aoste.dd:8083\/rest\/type\/node\/product"
                    }
                },
                "uuid": [
                    {
                        "value": "be8401ac-1190-450d-b757-7de989ac76e0"
                    }
                ],
                "lang": "nl"
            },
            {
                "_links": {
                    "self": {
                        "href": "http:\/\/projecten-3-groep-7-webshop-aoste.dd:8083\/nl\/product\/authentique-kipfilet?_format=hal_json"
                    },
                    "type": {
                        "href": "http:\/\/projecten-3-groep-7-webshop-aoste.dd:8083\/rest\/type\/node\/product"
                    }
                },
                "uuid": [
                    {
                        "value": "be8401ac-1190-450d-b757-7de989ac76e0"
                    }
                ],
                "lang": "fr"
            }
        ]
    },
    "status": [
        {
            "value": true,
            "lang": "nl"
        },
        {
            "value": true,
            "lang": "fr"
        }
    ],
    "title": [
        {
            "value": "Boterham met Kipfilet aan \u2018t spit en gegrilde courgette",
            "lang": "nl"
        },
        {
            "value": "Tartine au Filet de Poulet \u00e0 la Broche et courgette grill\u00e9e",
            "lang": "fr"
        }
    ],
    "created": [
        {
            "value": "2020-12-11T09:24:50+00:00",
            "lang": "nl",
            "format": "Y-m-d\\TH:i:sP"
        },
        {
            "value": "2020-12-11T09:28:38+00:00",
            "lang": "fr",
            "format": "Y-m-d\\TH:i:sP"
        }
    ],
    "changed": [
        {
            "value": "2020-12-11T09:26:32+00:00",
            "lang": "nl",
            "format": "Y-m-d\\TH:i:sP"
        },
        {
            "value": "2020-12-11T09:28:38+00:00",
            "lang": "fr",
            "format": "Y-m-d\\TH:i:sP"
        }
    ],
    "promote": [
        {
            "value": false,
            "lang": "nl"
        },
        {
            "value": false,
            "lang": "fr"
        }
    ],
    "sticky": [
        {
            "value": false,
            "lang": "nl"
        },
        {
            "value": false,
            "lang": "fr"
        }
    ],
    "default_langcode": [
        {
            "value": true,
            "lang": "nl"
        },
        {
            "value": false,
            "lang": "fr"
        }
    ],
    "revision_translation_affected": [
        {
            "value": true,
            "lang": "fr"
        }
    ],
    "path": [
        {
            "alias": "\/recepten\/boterham-met-kipfilet-aan-t-spit-en-gegrilde-courgette-0",
            "pid": 82,
            "langcode": "nl",
            "lang": "nl"
        },
        {
            "alias": "\/recepten\/tartine-au-filet-de-poulet-la-broche-et-courgette-grillee-0",
            "pid": 83,
            "langcode": "fr",
            "lang": "fr"
        }
    ],
    "content_translation_source": [
        {
            "value": "und",
            "lang": "nl"
        },
        {
            "value": "nl",
            "lang": "fr"
        }
    ],
    "content_translation_outdated": [
        {
            "value": false,
            "lang": "nl"
        },
        {
            "value": false,
            "lang": "fr"
        }
    ],
    "field_recept_bereidingstijd": [
        {
            "value": 40,
            "lang": "nl"
        },
        {
            "value": 40,
            "lang": "fr"
        }
    ],
    "field_recept_bereidingswijze": [
        {
            "value": "<ol>\r\n\t<li><span><span><span>Was de courgette en snijd deze met een dunschiller in lange brede slierten.<\/span><\/span><\/span><\/li>\r\n\t<li><span><span><span>Bak deze in een beetje olijfolie in een platte schaal in de oven gedurende 30 minuten op 180\u00b0.<\/span><\/span><\/span><\/li>\r\n\t<li><span><span><span>Dep de groenten af met wat keukenpapier.<\/span><\/span><\/span><\/li>\r\n\t<li><span><span><span>Beleg de boterham met wat mascarpone.<\/span><\/span><\/span><\/li>\r\n\t<li><span><span><span>Leg daarboven op slierten gegrilde courgette.<\/span><\/span><\/span><\/li>\r\n\t<li><span><span><span>Drapeer de plakjes AOSTE Kipfilet aan \u2019t Spit\u00ae op de<\/span><\/span><\/span>&nbsp;<span><span><span>boterham.<\/span><\/span><\/span><\/li>\r\n\t<li><span><span><span>Accentueer met de frisse tuinkruiden.<\/span><\/span><\/span><\/li>\r\n<\/ol>\r\n",
            "format": "basic_html",
            "processed": "<ol>\n\t<li><span><span><span>Was de courgette en snijd deze met een dunschiller in lange brede slierten.<\/span><\/span><\/span><\/li>\n\t<li><span><span><span>Bak deze in een beetje olijfolie in een platte schaal in de oven gedurende 30 minuten op 180\u00b0.<\/span><\/span><\/span><\/li>\n\t<li><span><span><span>Dep de groenten af met wat keukenpapier.<\/span><\/span><\/span><\/li>\n\t<li><span><span><span>Beleg de boterham met wat mascarpone.<\/span><\/span><\/span><\/li>\n\t<li><span><span><span>Leg daarboven op slierten gegrilde courgette.<\/span><\/span><\/span><\/li>\n\t<li><span><span><span>Drapeer de plakjes AOSTE Kipfilet aan \u2019t Spit\u00ae op de<\/span><\/span><\/span>\u00a0<span><span><span>boterham.<\/span><\/span><\/span><\/li>\n\t<li><span><span><span>Accentueer met de frisse tuinkruiden.<\/span><\/span><\/span><\/li>\n<\/ol>",
            "lang": "nl"
        },
        {
            "value": "<ol>\r\n\t<li><span><span><span>Lavez la courgette et d\u00e9bitez-la dans la longueur en larges lamelles \u00e0 l'aide d'un couteau-\u00e9plucheur.<\/span><\/span><\/span><\/li>\r\n\t<li><span><span><span>D\u00e9posez les lamelles dans un plat allant au four et faites cuire dans un peu d'huile d'olive pendant 30 minutes \u00e0 180\u00b0C.<\/span><\/span><\/span><\/li>\r\n\t<li><span><span><span>Tamponnez avec un essuie-tout pour enlever l'exc\u00e9dent de graisse.<\/span><\/span><\/span><\/li>\r\n\t<li><span><span><span>Tartinez une tranche de pain avec un peu de mascarpone.<\/span><\/span><\/span><\/li>\r\n\t<li><span><span><span>D\u00e9posez par-dessus les lamelles de courgette grill\u00e9es.<\/span><\/span><\/span><\/li>\r\n\t<li><span><span><span>Disposez les tranches de AOSTE Filet de Poulet \u00e0 la Broche\u00ae sur la tartine.<\/span><\/span><\/span><\/li>\r\n\t<li><span><span><span>Assaisonnez avec les fines herbes fra\u00eeches.<\/span><\/span><\/span><\/li>\r\n\t<li style=\"display: block; width: 0px; height: 0px; padding: 0px; border: 0px; margin: 0px; position: absolute; top: 0px; left: -9999px; opacity: 0; overflow: hidden;\">&nbsp;<\/li>\r\n<\/ol>\r\n",
            "format": "basic_html",
            "processed": "<ol>\n\t<li><span><span><span>Lavez la courgette et d\u00e9bitez-la dans la longueur en larges lamelles \u00e0 l'aide d'un couteau-\u00e9plucheur.<\/span><\/span><\/span><\/li>\n\t<li><span><span><span>D\u00e9posez les lamelles dans un plat allant au four et faites cuire dans un peu d'huile d'olive pendant 30 minutes \u00e0 180\u00b0C.<\/span><\/span><\/span><\/li>\n\t<li><span><span><span>Tamponnez avec un essuie-tout pour enlever l'exc\u00e9dent de graisse.<\/span><\/span><\/span><\/li>\n\t<li><span><span><span>Tartinez une tranche de pain avec un peu de mascarpone.<\/span><\/span><\/span><\/li>\n\t<li><span><span><span>D\u00e9posez par-dessus les lamelles de courgette grill\u00e9es.<\/span><\/span><\/span><\/li>\n\t<li><span><span><span>Disposez les tranches de AOSTE Filet de Poulet \u00e0 la Broche\u00ae sur la tartine.<\/span><\/span><\/span><\/li>\n\t<li><span><span><span>Assaisonnez avec les fines herbes fra\u00eeches.<\/span><\/span><\/span><\/li>\n\t<li>\u00a0<\/li>\n<\/ol>",
            "lang": "fr"
        }
    ],
    "field_recept_ingredienten": [
        {
            "value": "<ul>\r\n\t<li><span><span><span>6 sneden Authentique Kipfilet aan 't Spit<\/span><\/span><\/span><\/li>\r\n\t<li><span><span><span>250 g mascarpone<\/span><\/span><\/span><\/li>\r\n\t<li><span><span><span>1 sesambrood<\/span><\/span><\/span><\/li>\r\n\t<li><span><span><span>1 courgette<\/span><\/span><\/span><\/li>\r\n\t<li><span><span><span>olijfolie<\/span><\/span><\/span><\/li>\r\n\t<li><span><span><span>tuinkruiden naar keuze<\/span><\/span><\/span><\/li>\r\n<\/ul>\r\n",
            "format": "basic_html",
            "processed": "<ul>\n\t<li><span><span><span>6 sneden Authentique Kipfilet aan 't Spit<\/span><\/span><\/span><\/li>\n\t<li><span><span><span>250 g mascarpone<\/span><\/span><\/span><\/li>\n\t<li><span><span><span>1 sesambrood<\/span><\/span><\/span><\/li>\n\t<li><span><span><span>1 courgette<\/span><\/span><\/span><\/li>\n\t<li><span><span><span>olijfolie<\/span><\/span><\/span><\/li>\n\t<li><span><span><span>tuinkruiden naar keuze<\/span><\/span><\/span><\/li>\n<\/ul>",
            "lang": "nl"
        },
        {
            "value": "<ul>\r\n\t<li><span><span><span>6 tranches de Authentique Filet de Poulet \u00e0 la Broche<\/span><\/span><\/span><\/li>\r\n\t<li><span><span><span>250 g de mascarpone<\/span><\/span><\/span><\/li>\r\n\t<li><span><span><span>1 pain au s\u00e9same<\/span><\/span><\/span><\/li>\r\n\t<li><span><span><span>1 courgette<\/span><\/span><\/span><\/li>\r\n\t<li><span><span><span>huile d'olives<\/span><\/span><\/span><\/li>\r\n\t<li><span><span><span>fines herbes au choix<\/span><\/span><\/span><\/li>\r\n<\/ul>\r\n",
            "format": "basic_html",
            "processed": "<ul>\n\t<li><span><span><span>6 tranches de Authentique Filet de Poulet \u00e0 la Broche<\/span><\/span><\/span><\/li>\n\t<li><span><span><span>250 g de mascarpone<\/span><\/span><\/span><\/li>\n\t<li><span><span><span>1 pain au s\u00e9same<\/span><\/span><\/span><\/li>\n\t<li><span><span><span>1 courgette<\/span><\/span><\/span><\/li>\n\t<li><span><span><span>huile d'olives<\/span><\/span><\/span><\/li>\n\t<li><span><span><span>fines herbes au choix<\/span><\/span><\/span><\/li>\n<\/ul>",
            "lang": "fr"
        }
    ],
    "field_recept_porties": [
        {
            "value": 2,
            "lang": "nl"
        },
        {
            "value": 2,
            "lang": "fr"
        }
    ]
}