{
    "_links": {
        "self": {
            "href": "http:\/\/projecten-3-groep-7-webshop-aoste.dd:8083\/nl\/product\/le-vegetarien-tuinkruiden?_format=hal_json"
        },
        "type": {
            "href": "http:\/\/projecten-3-groep-7-webshop-aoste.dd:8083\/rest\/type\/node\/product"
        },
        "http:\/\/projecten-3-groep-7-webshop-aoste.dd:8083\/rest\/relation\/node\/product\/revision_uid": [
            {
                "href": "http:\/\/projecten-3-groep-7-webshop-aoste.dd:8083\/en\/user\/1?_format=hal_json"
            }
        ],
        "http:\/\/projecten-3-groep-7-webshop-aoste.dd:8083\/rest\/relation\/node\/product\/uid": [
            {
                "href": "http:\/\/projecten-3-groep-7-webshop-aoste.dd:8083\/en\/user\/1?_format=hal_json",
                "lang": "nl"
            },
            {
                "href": "http:\/\/projecten-3-groep-7-webshop-aoste.dd:8083\/en\/user\/1?_format=hal_json",
                "lang": "fr"
            }
        ],
        "http:\/\/projecten-3-groep-7-webshop-aoste.dd:8083\/rest\/relation\/node\/product\/field_image": [
            {
                "href": ""
            }
        ],
        "http:\/\/projecten-3-groep-7-webshop-aoste.dd:8083\/rest\/relation\/node\/product\/field_product_categorie": [
            {
                "href": "http:\/\/projecten-3-groep-7-webshop-aoste.dd:8083\/nl\/broodbeleg?_format=hal_json"
            },
            null
        ],
        "http:\/\/projecten-3-groep-7-webshop-aoste.dd:8083\/rest\/relation\/node\/product\/field_product_promo_door": [
            {
                "href": "http:\/\/projecten-3-groep-7-webshop-aoste.dd:8083\/nl\/Promo\/vegetarische-veelvraat?_format=hal_json"
            }
        ]
    },
    "uuid": [
        {
            "value": "eb3aa03a-66ca-495f-bb46-b5d3747b5b0e"
        }
    ],
    "langcode": [
        {
            "value": "nl",
            "lang": "nl"
        },
        {
            "value": "fr",
            "lang": "fr"
        }
    ],
    "type": [
        {
            "target_id": "product"
        }
    ],
    "revision_timestamp": [
        {
            "value": "2020-11-20T08:05:21+00:00",
            "format": "Y-m-d\\TH:i:sP"
        }
    ],
    "_embedded": {
        "http:\/\/projecten-3-groep-7-webshop-aoste.dd:8083\/rest\/relation\/node\/product\/revision_uid": [
            {
                "_links": {
                    "self": {
                        "href": "http:\/\/projecten-3-groep-7-webshop-aoste.dd:8083\/en\/user\/1?_format=hal_json"
                    },
                    "type": {
                        "href": "http:\/\/projecten-3-groep-7-webshop-aoste.dd:8083\/rest\/type\/user\/user"
                    }
                },
                "uuid": [
                    {
                        "value": "489454d7-9e67-460c-9ada-25e81edcb21e"
                    }
                ]
            }
        ],
        "http:\/\/projecten-3-groep-7-webshop-aoste.dd:8083\/rest\/relation\/node\/product\/uid": [
            {
                "_links": {
                    "self": {
                        "href": "http:\/\/projecten-3-groep-7-webshop-aoste.dd:8083\/en\/user\/1?_format=hal_json"
                    },
                    "type": {
                        "href": "http:\/\/projecten-3-groep-7-webshop-aoste.dd:8083\/rest\/type\/user\/user"
                    }
                },
                "uuid": [
                    {
                        "value": "489454d7-9e67-460c-9ada-25e81edcb21e"
                    }
                ],
                "lang": "nl"
            },
            {
                "_links": {
                    "self": {
                        "href": "http:\/\/projecten-3-groep-7-webshop-aoste.dd:8083\/en\/user\/1?_format=hal_json"
                    },
                    "type": {
                        "href": "http:\/\/projecten-3-groep-7-webshop-aoste.dd:8083\/rest\/type\/user\/user"
                    }
                },
                "uuid": [
                    {
                        "value": "489454d7-9e67-460c-9ada-25e81edcb21e"
                    }
                ],
                "lang": "fr"
            }
        ],
        "http:\/\/projecten-3-groep-7-webshop-aoste.dd:8083\/rest\/relation\/node\/product\/field_image": [
            {
                "_links": {
                    "self": {
                        "href": ""
                    },
                    "type": {
                        "href": "http:\/\/projecten-3-groep-7-webshop-aoste.dd:8083\/rest\/type\/file\/file"
                    }
                },
                "uuid": [
                    {
                        "value": "1bc9c1ec-53f1-4b6e-9e6b-30235d5b5ed5"
                    }
                ],
                "alt": "Le V\u00e9g\u00e9tarien Fines Herbes",
                "title": "",
                "width": "545",
                "height": "545"
            }
        ],
        "http:\/\/projecten-3-groep-7-webshop-aoste.dd:8083\/rest\/relation\/node\/product\/field_product_categorie": [
            {
                "_links": {
                    "self": {
                        "href": "http:\/\/projecten-3-groep-7-webshop-aoste.dd:8083\/nl\/broodbeleg?_format=hal_json"
                    },
                    "type": {
                        "href": "http:\/\/projecten-3-groep-7-webshop-aoste.dd:8083\/rest\/type\/taxonomy_term\/categorie"
                    }
                },
                "uuid": [
                    {
                        "value": "6e7c4f17-b99a-4f0b-99bf-b40adb2bc720"
                    }
                ]
            },
            null
        ],
        "http:\/\/projecten-3-groep-7-webshop-aoste.dd:8083\/rest\/relation\/node\/product\/field_product_promo_door": [
            {
                "_links": {
                    "self": {
                        "href": "http:\/\/projecten-3-groep-7-webshop-aoste.dd:8083\/nl\/Promo\/vegetarische-veelvraat?_format=hal_json"
                    },
                    "type": {
                        "href": "http:\/\/projecten-3-groep-7-webshop-aoste.dd:8083\/rest\/type\/node\/promo"
                    }
                },
                "uuid": [
                    {
                        "value": "939f253d-1435-44ac-a7b8-db53c0ec6810"
                    }
                ]
            }
        ]
    },
    "status": [
        {
            "value": true,
            "lang": "nl"
        },
        {
            "value": true,
            "lang": "fr"
        }
    ],
    "title": [
        {
            "value": "Le V\u00e9g\u00e9tarien Tuinkruiden",
            "lang": "nl"
        },
        {
            "value": " Le V\u00e9g\u00e9tarien Fines Herbes",
            "lang": "fr"
        }
    ],
    "created": [
        {
            "value": "2020-11-15T16:01:05+00:00",
            "lang": "nl",
            "format": "Y-m-d\\TH:i:sP"
        },
        {
            "value": "2020-11-15T16:05:59+00:00",
            "lang": "fr",
            "format": "Y-m-d\\TH:i:sP"
        }
    ],
    "changed": [
        {
            "value": "2020-11-20T08:05:21+00:00",
            "lang": "nl",
            "format": "Y-m-d\\TH:i:sP"
        },
        {
            "value": "2020-11-20T08:05:21+00:00",
            "lang": "fr",
            "format": "Y-m-d\\TH:i:sP"
        }
    ],
    "promote": [
        {
            "value": false,
            "lang": "nl"
        },
        {
            "value": false,
            "lang": "fr"
        }
    ],
    "sticky": [
        {
            "value": false,
            "lang": "nl"
        },
        {
            "value": false,
            "lang": "fr"
        }
    ],
    "default_langcode": [
        {
            "value": true,
            "lang": "nl"
        },
        {
            "value": false,
            "lang": "fr"
        }
    ],
    "revision_translation_affected": [
        {
            "value": true,
            "lang": "nl"
        },
        {
            "value": true,
            "lang": "fr"
        }
    ],
    "path": [
        {
            "alias": "\/product\/le-vegetarien-tuinkruiden",
            "pid": 54,
            "langcode": "nl",
            "lang": "nl"
        },
        {
            "alias": "\/product\/le-vegetarien-fines-herbes",
            "pid": 53,
            "langcode": "fr",
            "lang": "fr"
        }
    ],
    "content_translation_source": [
        {
            "value": "und",
            "lang": "nl"
        },
        {
            "value": "nl",
            "lang": "fr"
        }
    ],
    "content_translation_outdated": [
        {
            "value": false,
            "lang": "nl"
        },
        {
            "value": false,
            "lang": "fr"
        }
    ],
    "body": [
        {
            "value": "<p>Geniet van het heerlijk broodbeleg van Aoste, nu ook zonder vlees. Een bron van prote\u00efnen met een verrassend lekkere beet en een heerlijke gekruide smaak.<\/p>\r\n",
            "format": "basic_html",
            "processed": "<p>Geniet van het heerlijk broodbeleg van Aoste, nu ook zonder vlees. Een bron van prote\u00efnen met een verrassend lekkere beet en een heerlijke gekruide smaak.<\/p>",
            "summary": "",
            "lang": "nl"
        },
        {
            "value": "<p>Savourez le d\u00e9licieux sandwich \u00e0 tartiner d\u2019Aoste, \u00e9galement sans viande. Une source de prot\u00e9ines avec une morsure \u00e9tonnamment savoureuse et un d\u00e9licieux go\u00fbt \u00e9pic\u00e9.<\/p>\r\n",
            "format": "basic_html",
            "processed": "<p>Savourez le d\u00e9licieux sandwich \u00e0 tartiner d\u2019Aoste, \u00e9galement sans viande. Une source de prot\u00e9ines avec une morsure \u00e9tonnamment savoureuse et un d\u00e9licieux go\u00fbt \u00e9pic\u00e9.<\/p>",
            "summary": "",
            "lang": "fr"
        }
    ],
    "field_nutriscore": [
        {
            "value": "D"
        }
    ],
    "field_product_gewicht": [
        {
            "value": 100
        }
    ],
    "field_product_ingredienten": [
        {
            "value": "<p>Eiwit, water, zonnebloemolie, Zout, Peterselie (1,7%), Bamboevezel, Bieslook (0,7%), Specerijen, Specerijextracten, Aroma, Suiker, Dextrose, Verdikkingsmiddelen Carrageen, Johannesbroodpitmeel, Xanthaangom; Zuurteregelaars Natriumacetaat, Melkzuur, Kaliumlactaat, Kaliumchloride; Concentraat van radijs, Appel en Bosbes.<\/p>\r\n",
            "format": "basic_html",
            "processed": "<p>Eiwit, water, zonnebloemolie, Zout, Peterselie (1,7%), Bamboevezel, Bieslook (0,7%), Specerijen, Specerijextracten, Aroma, Suiker, Dextrose, Verdikkingsmiddelen Carrageen, Johannesbroodpitmeel, Xanthaangom; Zuurteregelaars Natriumacetaat, Melkzuur, Kaliumlactaat, Kaliumchloride; Concentraat van radijs, Appel en Bosbes.<\/p>",
            "lang": "nl"
        },
        {
            "value": "<p>Blanc d'\u0153uf, Eau, Huile de tournesol, Sel, Persil (1,7%), Fibre de bambou, Ciboulette (0,7%), Epices, Extraits d'\u00e9pices, Ar\u00f4mes, Sucre, Dextrose, Epaississants carrag-h\u00e9nane, gomme de caroube, gomme de xanthane; R\u00e9gulateurs d'acidit\u00e9 Ac\u00e9tate de sodium, Acide lactique, Lactate de potassium, Chlorure de potassium; Concentr\u00e9 de radis, Pomme et Myrtille.<\/p>\r\n",
            "format": "basic_html",
            "processed": "<p>Blanc d'\u0153uf, Eau, Huile de tournesol, Sel, Persil (1,7%), Fibre de bambou, Ciboulette (0,7%), Epices, Extraits d'\u00e9pices, Ar\u00f4mes, Sucre, Dextrose, Epaississants carrag-h\u00e9nane, gomme de caroube, gomme de xanthane; R\u00e9gulateurs d'acidit\u00e9 Ac\u00e9tate de sodium, Acide lactique, Lactate de potassium, Chlorure de potassium; Concentr\u00e9 de radis, Pomme et Myrtille.<\/p>",
            "lang": "fr"
        }
    ],
    "field_product_retailers": [
        {
            "uri": "https:\/\/www.delhaize.be\/nl-be\/shop\/Vlees-vis-en-vegetarische-producten\/Vegetarisch\/Vegetarische-charcuterie-en-spreads\/Vegetarische-charcuterie\/Veggie-Sneetjes-tuinkruiden\/p\/F2017071400003310000",
            "title": "Delhaize",
            "options": [],
            "lang": "nl"
        },
        {
            "uri": "https:\/\/www.delhaize.be\/fr-be\/shop\/Viande-poisson-et-produits-vegetariens\/Vegetarien\/Charcuterie-et-tartinables-vegetariens\/Charcuterie-vegetarienne\/Veggie-Tranches-herbes\/p\/F2017071400003310000",
            "title": "Delhaize",
            "options": [],
            "lang": "fr"
        }
    ],
    "field_voeding_eiwitten": [
        {
            "value": "2.0"
        }
    ],
    "field_voeding_energie": [
        {
            "value": 120
        }
    ],
    "field_voeding_kilocalorieen": [
        {
            "value": 500
        }
    ],
    "field_voeding_koolhydraten": [
        {
            "value": "2.0"
        }
    ],
    "field_voeding_suikers": [
        {
            "value": "24.9"
        }
    ],
    "field_voeding_verzadigde_vetten": [
        {
            "value": "23.0"
        }
    ],
    "field_voeding_vetten": [
        {
            "value": "23.0"
        }
    ],
    "field_voeding_zout": [
        {
            "value": "50.0"
        }
    ]
}