{
    "_links": {
        "self": {
            "href": "http:\/\/projecten-3-groep-7-webshop-aoste.dd:8083\/nl\/vegetarisch?_format=hal_json"
        },
        "type": {
            "href": "http:\/\/projecten-3-groep-7-webshop-aoste.dd:8083\/rest\/type\/taxonomy_term\/categorie"
        },
        "http:\/\/projecten-3-groep-7-webshop-aoste.dd:8083\/rest\/relation\/taxonomy_term\/categorie\/parent": [
            null
        ],
        "http:\/\/projecten-3-groep-7-webshop-aoste.dd:8083\/rest\/relation\/taxonomy_term\/categorie\/content_translation_uid": [
            {
                "href": "http:\/\/projecten-3-groep-7-webshop-aoste.dd:8083\/en\/user\/1?_format=hal_json",
                "lang": "nl"
            },
            {
                "href": "http:\/\/projecten-3-groep-7-webshop-aoste.dd:8083\/en\/user\/1?_format=hal_json",
                "lang": "fr"
            }
        ],
        "http:\/\/projecten-3-groep-7-webshop-aoste.dd:8083\/rest\/relation\/taxonomy_term\/categorie\/field_categorie_afbeelding": [
            {
                "href": "",
                "lang": "nl"
            },
            {
                "href": "",
                "lang": "fr"
            }
        ]
    },
    "uuid": [
        {
            "value": "8dc62a0e-9e35-497b-8a6c-6bf06162d8e2"
        }
    ],
    "langcode": [
        {
            "value": "nl",
            "lang": "nl"
        },
        {
            "value": "fr",
            "lang": "fr"
        }
    ],
    "vid": [
        {
            "target_id": "categorie"
        }
    ],
    "revision_created": [
        {
            "value": "2020-11-09T14:46:06+00:00",
            "format": "Y-m-d\\TH:i:sP"
        }
    ],
    "status": [
        {
            "value": true,
            "lang": "nl"
        },
        {
            "value": true,
            "lang": "fr"
        }
    ],
    "name": [
        {
            "value": "Vegetarisch",
            "lang": "nl"
        },
        {
            "value": "V\u00e9g\u00e9tarien",
            "lang": "fr"
        }
    ],
    "description": [
        {
            "value": "<p>Lekker vegetarisch of vegan, zonder compromis op smaak.<\/p>\r\n",
            "format": "basic_html",
            "processed": "<p>Lekker vegetarisch of vegan, zonder compromis op smaak.<\/p>",
            "lang": "nl"
        },
        {
            "value": "<p>V\u00e9g\u00e9tarien ou v\u00e9gan, sans la moindre concession au niveau du go\u00fbt.<\/p>\r\n",
            "format": "basic_html",
            "processed": "<p>V\u00e9g\u00e9tarien ou v\u00e9gan, sans la moindre concession au niveau du go\u00fbt.<\/p>",
            "lang": "fr"
        }
    ],
    "weight": [
        {
            "value": 20
        }
    ],
    "_embedded": {
        "http:\/\/projecten-3-groep-7-webshop-aoste.dd:8083\/rest\/relation\/taxonomy_term\/categorie\/parent": [
            null
        ],
        "http:\/\/projecten-3-groep-7-webshop-aoste.dd:8083\/rest\/relation\/taxonomy_term\/categorie\/content_translation_uid": [
            {
                "_links": {
                    "self": {
                        "href": "http:\/\/projecten-3-groep-7-webshop-aoste.dd:8083\/en\/user\/1?_format=hal_json"
                    },
                    "type": {
                        "href": "http:\/\/projecten-3-groep-7-webshop-aoste.dd:8083\/rest\/type\/user\/user"
                    }
                },
                "uuid": [
                    {
                        "value": "489454d7-9e67-460c-9ada-25e81edcb21e"
                    }
                ],
                "lang": "nl"
            },
            {
                "_links": {
                    "self": {
                        "href": "http:\/\/projecten-3-groep-7-webshop-aoste.dd:8083\/en\/user\/1?_format=hal_json"
                    },
                    "type": {
                        "href": "http:\/\/projecten-3-groep-7-webshop-aoste.dd:8083\/rest\/type\/user\/user"
                    }
                },
                "uuid": [
                    {
                        "value": "489454d7-9e67-460c-9ada-25e81edcb21e"
                    }
                ],
                "lang": "fr"
            }
        ],
        "http:\/\/projecten-3-groep-7-webshop-aoste.dd:8083\/rest\/relation\/taxonomy_term\/categorie\/field_categorie_afbeelding": [
            {
                "_links": {
                    "self": {
                        "href": ""
                    },
                    "type": {
                        "href": "http:\/\/projecten-3-groep-7-webshop-aoste.dd:8083\/rest\/type\/file\/file"
                    }
                },
                "uuid": [
                    {
                        "value": "163d7538-cf80-459f-a809-f6ab3f4d959b"
                    }
                ],
                "lang": "nl",
                "alt": "Vegetarisch",
                "title": "",
                "width": "700",
                "height": "700"
            },
            {
                "_links": {
                    "self": {
                        "href": ""
                    },
                    "type": {
                        "href": "http:\/\/projecten-3-groep-7-webshop-aoste.dd:8083\/rest\/type\/file\/file"
                    }
                },
                "uuid": [
                    {
                        "value": "163d7538-cf80-459f-a809-f6ab3f4d959b"
                    }
                ],
                "lang": "fr",
                "alt": "V\u00e9g\u00e9tarien",
                "title": "",
                "width": "700",
                "height": "700"
            }
        ]
    },
    "changed": [
        {
            "value": "2020-12-11T10:06:11+00:00",
            "format": "Y-m-d\\TH:i:sP"
        }
    ],
    "default_langcode": [
        {
            "value": true,
            "lang": "nl"
        },
        {
            "value": false,
            "lang": "fr"
        }
    ],
    "revision_translation_affected": [
        {
            "value": true,
            "lang": "nl"
        },
        {
            "value": true,
            "lang": "fr"
        }
    ],
    "path": [
        {
            "alias": "\/vegetarisch",
            "pid": 8,
            "langcode": "nl",
            "lang": "nl"
        },
        {
            "alias": "\/v\u00e9g\u00e9tarien",
            "pid": 9,
            "langcode": "fr",
            "lang": "fr"
        }
    ],
    "content_translation_source": [
        {
            "value": "und",
            "lang": "nl"
        },
        {
            "value": "nl",
            "lang": "fr"
        }
    ],
    "content_translation_outdated": [
        {
            "value": false,
            "lang": "nl"
        },
        {
            "value": false,
            "lang": "fr"
        }
    ],
    "content_translation_created": [
        {
            "value": "2020-11-09T14:46:06+00:00",
            "lang": "nl",
            "format": "Y-m-d\\TH:i:sP"
        },
        {
            "value": "2020-11-09T15:52:45+00:00",
            "lang": "fr",
            "format": "Y-m-d\\TH:i:sP"
        }
    ]
}