{
    "_links": {
        "self": {
            "href": ""
        },
        "type": {
            "href": "http:\/\/projecten-3-groep-7-webshop-aoste.dd:8083\/rest\/type\/file\/file"
        },
        "http:\/\/projecten-3-groep-7-webshop-aoste.dd:8083\/rest\/relation\/file\/file\/uid": [
            {
                "href": "http:\/\/projecten-3-groep-7-webshop-aoste.dd:8083\/en\/user\/1?_format=hal_json"
            }
        ]
    },
    "uuid": [
        {
            "value": "caeab152-befa-48c0-82f5-0ecc15319af4"
        }
    ],
    "langcode": [
        {
            "value": "nl"
        }
    ],
    "_embedded": {
        "http:\/\/projecten-3-groep-7-webshop-aoste.dd:8083\/rest\/relation\/file\/file\/uid": [
            {
                "_links": {
                    "self": {
                        "href": "http:\/\/projecten-3-groep-7-webshop-aoste.dd:8083\/en\/user\/1?_format=hal_json"
                    },
                    "type": {
                        "href": "http:\/\/projecten-3-groep-7-webshop-aoste.dd:8083\/rest\/type\/user\/user"
                    }
                },
                "uuid": [
                    {
                        "value": "489454d7-9e67-460c-9ada-25e81edcb21e"
                    }
                ]
            }
        ]
    },
    "filename": [
        {
            "value": "download.jpg"
        }
    ],
    "uri": [
        {
            "value": "public:\/\/2020-12\/download.jpg",
            "url": "\/sites\/projecten-3-groep-7-webshop-aoste.dd\/files\/2020-12\/download.jpg"
        }
    ],
    "filemime": [
        {
            "value": "image\/jpeg"
        }
    ],
    "filesize": [
        {
            "value": 10701
        }
    ],
    "status": [
        {
            "value": true
        }
    ],
    "created": [
        {
            "value": "2020-12-11T15:31:46+00:00",
            "format": "Y-m-d\\TH:i:sP"
        }
    ],
    "changed": [
        {
            "value": "2020-12-11T15:37:44+00:00",
            "format": "Y-m-d\\TH:i:sP"
        }
    ],
    "data": [
        {
            "value": "\/9j\/4AAQSkZJRgABAQAAAQABAAD\/2wCEAAkGBxMTEhUSEhIWFhUXFxYVFRYWFxgVFRUVFhgYGBcVGBUYHSghGBolGxcXITEhJSkrLi4uFx8zODMtNygtLisBCgoKDg0OGxAQGy0lICUtLS4tLTAtLS0tLS0tLTAtLSstLS0tLS0tLS0tLS0tLS0tLS0tLS8tLS0tLS0tLS0tLf\/AABEIAQMAwgMBEQACEQEDEQH\/xAAbAAEAAgMBAQAAAAAAAAAAAAAABAUBAgMGB\/\/EAEYQAAEDAQMHBgsGBgICAwAAAAEAAgMRBBIhBQYiMUFRcRM0YYGRsSMyUlNykqHB0dLwFBUkM0JzFhdigrLhB6KTwkNjg\/\/EABoBAQADAQEBAAAAAAAAAAAAAAABAgMEBQb\/xAA2EQACAQIDBAYLAAMBAQEAAAAAAQIDEQQhMRJBUXEFMjRhodETFBUiM1KBkbHB8ELh8SNDJP\/aAAwDAQACEQMRAD8A+4oAgCAIAgCAIAgCAIAgCAIAgCAIAgCAIAgCAIAgCAIAgCAIAgCAIAgCAIAgCAIAgCAIAgCAIAgCAIAgCAIAgCAIAgCAIAgCAIAgCAIAgCAIAgCAIAgCAIAgCAIAgCAIAgCA81bc97KxxaL8lDQljQW16C4ivEYLCWIgnY9Kn0XXmruy5nD+P7P5ub1WfOq+tQ4M09j1uK8fIx\/MCzebm9Vnzp61Dgx7HrcV4+Rj+YFm83N6rPnT1qHBj2PW4rx8h\/MGzebm9Vnzp61Hgx7HrcY+PkB\/yBZvNzeqz509ahwY9j1uMfHyNhn9Z\/Nzeqz509ajwY9j1vmj4+Q\/j6z+bm7GfOnrUeDHset80fHyMH\/kCzebm7GfOnrUeDHset80fHyNT\/yFZvNzdjPnT1qPBj2PW+ZePkP5hWbzc3Yz509ajwZHsit8y8fIz\/MGz+am9Vnzp61HgyfY9b5o+PkY\/mHZvNzdjPnT1qPBj2PW+ZePkY\/mHZvNzdjPnT1qPBj2PW4rx8h\/MSzebm7GfOnrMeDI9kVuK8fIx\/MSzebm7GfOp9ZiPZFbivHyM\/zEs3m5uxnzp6zEeyK3FePkdbD\/AMgWSR9w8pGd72i72tJp1qViIMzn0XXirqz5HqmuBFQtzzjKAIAgCAICtzjmLLLO4YERvodxoRVUqu0GzowkVKvBPij5RkfJEtoJEYFG63ONGjortPBebCnKeh9TiMVToK83ru3lsMzZ\/Li9Z3yrX1afccntahwf2XmbDMufyo\/Wd8qerT7h7WocH9l5mDmXP5cfa\/5E9Wn3D2tQ4P7LzNf4Mm8uPtf8qn1afcR7Wo8H9l5mP4Ol8uPtd8qerT7h7Vo8H9l5mf4Sl8uPtd8qerS7h7Wo8H4eZk5pSecZ\/wBvgnq0uKHtalwfh5mpzPk84z\/t8FPq0uJHtal8r8PMx\/BsnnW9jk9WlxI9rUvlfh5gZnSedb2OT1aXEj2tT+V+BsM0H7ZWeq5PVZcR7Xp\/K\/A8nNaWNJFXYEjxRs4uVPQMt7Uh8r8D0zM1XkA8o3EA+KdvWvMnjYwk42eTsW9pQ+VldasmhjywvxFP04YgHyuldCqpo7qU3UgppallZM0nSRh4laKioBad9NhXXCi5xUrnFV6RjSqODi8ikt9jfC8xvFCOsEbCDuWcouLszupVY1YqUdCvhPhHcPgj0L7z7LmROX2SKuwXeppIHsC9Ci7wR8lj4qOImlx\/OZfrU5AgCAIAgKnOzmdo\/bd3LOt1GdWB7RDmjz+Y7R9kHS95PSa07gFnhuodXSr\/AP0fRF80YrY84lxtFMSFJFwWN8oILnJ8bd4Ui5wc0ILmpaEFzW6N6C5qQ3eguKt3oDFW7wguAW+UFAufJrZm\/aS55bZ5DVzqUYThUrCzN7o+mWaBwa0UODQPYvm6+ErOrJqD1e7vNFJW1PMZXsEjp3lsbyKjENJHihdyw9Wy916L8H0GDxFGNCKc0nzXE9XkSEts8bXAggGoIoRidi9ahFxppM8LGyUq8nF3R5PPto5WP0P\/AGKwxPWR6vRPw5c\/0ePj\/Md9bljuPT3n2LMLmcf93+RXoUfho+T6Q7TP+3I9GtTjCAIAgCAqc7OZ2j9t3cs63UZ1YHtEOaPO5ku\/CN9J\/es8P1Dq6U7Q+SLrlcO3vWx5wY6usoDLihBFnmptQkjCck4VKq5WLKNxI9wFSDTaoU0y2wzgLYN\/tVtpEOLW40it7HYB1aKFJMs6ckrtHXlwpKWHLhBY5S2kNBOwY9SXFji3KRdTk3OGuoLa1JpRVbe4nZ4llFlAuHjU6umtcRu7kuLWMSTOq0lx6aNGIw2jVTEnbr1Kbkkyz2m+2t1w9IUPYpIPFZ9u8LH6B\/yK5MT1ke90T8OXP9HkYj4R1frUsHoepvPsmYfM4+B\/yK9Cj1EfJ4\/tM+f6PRLU4wgCAIAgKnOzmdo\/bd3LOt1GdWB7RDmebzLP4Uem\/vWWH6h1dKdo+iLQn3962PPO8YwUlTnO9CSrlcXOoOvoCxqVLZI1hC6uzb7TdFGrHvOhQvqcJLW87U2maKESO0dHs1IWCixJklTdldmPA0p9VPsxU7T4jYjwONoDqaJxxwO1SpyRWVKDKyLKMjKmQNbQCuLjr24dNBhvWilc55U3Eu7FlOtSXC6BvdWv1X6xVrmdizhme9pu3TqoauAO\/uKm5GhIaXUq7Xjq1U2KUDxufH5kfoHvK5cR1ke90V8OXP8AR5SI+Ed9blhuPU3n2TMTmcXA\/wCRXo0eoj5LH9onzPRLQ5AgCAIAgKnO3mdo\/bcs63UZ1YHtEOZ5rMvmo9N\/essP1Dq6U7R9EWv++9annnUPwViCtyhaCAaa9Q4lUnLZVzSnDadiM1lxt3W44uO8rntZd50x9533HKqqbGEBq3HZwqpAcdQ78O5AZooAKkGEBEtkQpSlQdnuTTMm18mZyHJebpxhrsag0K6Iu6OGpHZdj0kBFMFYzMueoLI8Tnm7wjB\/Se9cuI1R73RXw5c\/0eXh\/Mdw+Cxeh6W8+zZiczi4HvK9Gj1EfJ4\/tE+Z6FaHIEAQBAEBUZ28ztH7blnW6jOrA9ohzPM5l81Hpv8AcssP1Dr6V7R9EWw+PetTzjEhwUggtZU3jqHesKju7G8FlzIk0l41x10WbdzqirKxq4FCQ0dvQVANmiqkGCKfXwQGDhsUAAUQABAc5G12n2KSSMyW67o2ncpjKzKVae1G+8v7I5dBwm8yMmJ4zPDGRno+9clfVHv9F\/Dlz\/R5mD8xyyeh6K1Ps+YvM4uB7yvRo9RHyeP7RPmegWhyBAEAQBAVGdvM7R+25Z1uozqwPaIczzGZfNv73+5ZYfqHX0r8f6ItSe8961Z56ExoFWTsiYq7Ilqdo3du1YbjqprO5BDfraoNjKAwCoBmo6EAJUgFQDVyAwd1cfrYVIM3en66lAOE0dDVCblnkt9WjowPELog7xOGpG0miXOFZlYniM8K8oz0feVyV9T3+i\/hy5\/o83CNNyzeh6G8+z5i8zi4HvK9Cj1EfKY7tE+Z6BaHIEAQBAEBUZ3cytH7blnW6jOrA9ohzPLZl82\/vf7llh+odfSvx\/oi0Bx6z3lannmspqadI9lSfcsqhpT4kK1O0lkzrgsjgD0IWMF2NEFjlabYyOl44nU0Auc7g0VJ6kSb0KtpamI7YC4Mcx7HEEtEjCy8BrLa66V1a8VaUHHUiM4y0JHBULiiAyUBFtFojjpeOk40a0Cr3Hc1oFXdSsot6ESlZZm0Nqa+8KEObS817Sx7a4glrhWh36klFrUiMk80RZMpRkaN59DiY2PkA4uY0gKVCT3B1Ip6k\/INoa4EtIIONRv1duHsV6e9GFezaaLeZaMxieIzvd4Rno+8rkr6nv8ARfw5c\/0ecg8dyzeh6C1Ps2Y3M4uHvK9Cj1EfKY7tE+Z6BaHIEAQBAEBT538ytH7blnW6jOvA9ohzPKZmO\/Df3v8AcssP1Dr6U+P9EWDZNfE95Wp55pG+rj1+wN+PsWNTVGsNCPNr1LM60aEdJ6kBGc573iGKheRec44tjZ5bqaydjduOwEq8IbRnUqKJCtOV47PVtmF+Q4SWh+k5x3A7ugUaNgVpVbZQOrDdHOp79b7Eu0yufHYXSOq4mWQk0H6HNGr9wK0vhq5y1IxjiZRirJElqwNDSadrAXOcABiSSAB1lLXDI4yhUFwimcNhbDJQ8MMeKv6KRn6WHE5Wm0uscUZEbftMzS6V79JzTgbvAF1AK0FNq0qScElE0wWFWJk5TeSJtsFkmrPJI5\/JMY2UNNGSayGOw09InAGm\/AlWc42vwMXhaymopW2r25HOfKloFmFojLIo7wayIMB0K0qTx2ADBUlKeztXOynhaCregkm3bN339xux7ftEUzRd+0wGR7Rq5RhjBdxIeAT\/AEBXedpHn1IejlKnwZbyPRmaPE53fmN9H3lclfU97ov4b5\/o87AdNyzeh6G8+0Zjczi9H3lehS6iPlMd2ifM9AtDkCAIAgCAp87+ZWj9srOr1GdWB7RDmeNzQf8Ahz6bu5qyw\/UO3pT4\/wBF+yW6TXxPetjz7G+T3VJr\/VTru\/67VlPU0joay1qsTrRFt1ouMLqEnANaNbnHBrR0kkDrUxV3YhuyuQsoXoWNskZvTzEOneNrnYBoOxtMOho6VrN\/\/OJrgaKlfEVNFp\/f2ZEznsjYBFAzY0vedrnE0qfVNB0qtVKLUUd2BqyrOVWXGy7kTLc196xRxsL3izOoAaAFxiBc52powOPZUrZxbikjxqtRKtOT4v8AJIkhLTdltsMb\/IawOA6HOc6p40as9mmsmy0Y15rahB2MyWYwNdabQY5bl0WcMqGFzv8A5CCTR3WaBpocVZ2pxuiKVOWIqKnpxO1jNrmgE8do0yTSO60MwdS6Sca4V+qpFSlG6eZ1VFhqNX0U4Zcbu\/Mp87ofxTW1JLgwuqSQC5xFGjYMNSzqJbZ29HS\/8G+F\/DiTM+5boihaA1uLyAKDc3Af3K1d5pGHRUdpyqSzehJls0lpjhs8bHMiYGX5HgtqQ2lGtOJ1nHVqUuLmktEZxqQw9SdWbTk72Sz+\/A45Qq21hpaWNiiayAYEPjPjvrvvBoprF0HapnlJLceentqUnq2TnWlSyqR5bOaWr2+j71y19Ue70Z8N8\/0UNnGm5ZPQ7959ozH5nF6PvK9Cj1EfKY7tE+ZfrQ5AgCAIAgKfO\/mVo\/bKzq9RnVge0Q5nic0j+HP7ju5qxw\/UO7pT465L9kiR2vie9as4Ejvklw0jtJJ7AAfroVGWMTnHfisTrRFs9HWi84+Ds7DM70zVrONAJDxAW1LJOTMaqcmoLeRs0mGa0yTvxIBPBz8B2NqOxRRV5Ns9HpBqjQjSjv8Awv8AZBz1lraXDyWtb7L3\/sq1eudHRcbUF3tl5nRlPkImRx4SPYAXDW1jeniTTrWladlso8\/A4ZVqjnLRP7sj2\/JbY8m1LRf8HIXbbznNrjwdRJRtTNaWIlPG2TyzX0SOOQoRPYpY5H3WsfVrjqZgD2VJ9ZRCzhZl8VJ0cVGcFdtZriQ8i5RfY5jFKNAkB42CuqRvVTiFWEnCVmb4mhDF0tuGu7yZ2y68HKLamgD4RXZTRPvSXxPsUwitgnbhL9krPWHlHB8enyYuyXRW7exbUjrruqN6tVW1mjLoyfo1szy2s1321OmTcq2ieJsLI7lGhr5ycGtAoSKjxqdP+kXOa2fEpXw1GhN1ZyvvUe\/yIGUrQHvEzB4GMNhiO+MHTk6QXXQN4YDtScltJLccUYtxlKWrJrnK7M4o89l86beB71yV9T3Ojeo+ZTWc6blm9DuWp9ozI5nF6PvK9Cl1EfJ47tE+ZfrQ5QgCAIAgKfO\/mVo\/bKzrdRnXge0Q5nzfImWI4YS194uvk0A2ENGs4bCuWlVjGNmexjMHUrVU46W8yNPnASTdYBjrca+wfFHX4IQ6LX+UvsQ\/ve0EhkbnXnGjWsAq4nGg9u1VUpzdkbSw2GoR2pr7lmc2JiAbVbmRE43CTIesl7R2ArX0UV1pHGsdKT\/8aStyuS\/uwWOxSgStlM0jaPaKAtoMKVOxrtu1Wlsxp2iyuHlOvi9uas0tPA3zXtEzI3Nhs5eXOqXuN2MAAACv6qGvalLat7qN8fClKadSdklpqyjy2ZDPJylC+8A674taAYVWcr7WZ34XYVKOxpuvqWOegJtVDquMA4Y++qvV65zdGZYe\/ey+z4tAZZxH5bgAP6WYk9tFpXeVjz+i4OVZz4L8lRZ7HJCyzl8b3RF\/Kyta0kh2Fy8BuAaab6qii42yO2dWFaVRRa2rWV\/GxMylYXW2djmxuZE0Uc97SwuFakNBxO7rKs4ucr2yMKFZYOk1JpyeiTvbmcc5JrJyv4ls8L\/FaQyrZWt1OaQHA4cCNqtOMNZHNhMVXitimtoprTnU5l1libyMTSSS8Bz5Cdrga0HXXVq1LGWIUcoHbHo+pXbniHnusV+U8v2mdtySU3DrYwBjTxpiR0E0WcsRJnRS6Lowd3nzOByvMRcL6twwIHeFmpPU1nhKT3WLWz5er4zOtp9x+K29NxRxS6N+WX3IuU5xI5padm0U2rKpJS0OvB0ZUotS4kCzt03Kr0OnefZ8yB+Di9H3lehS6iPk8d2ifMv1ocoQBAEAQFPnefwVo\/bKzrdRnXge0Q5nxh681H1pxCkHp80WiKG0WylXtpDHXYSGlx6y5vqrqp+7Tct54uLTr4qNHcv+nfNewi0Svkl0w2hN7G851aV6MDhwU0Y3d2bY6t6CmoU8r+CN89nsa5kTGtbrkcGgAEnRbgNtAe1TWedkV6MUpJzk77kelySBDHFA7B1yuOou1uaDvqa0\/wBraPupRZ5eIbq1J1Vpfw3Hi86rG6O0PeWm6519rth1VFd4NcFz1ItSue5gKsalFRWqVj12X8gstNHXrrxgHUqC3XQj61ronTUjx8JjZYe6tdcCHJk+KJzZrZaOUc0UYHAACm5gqXFUajB3k7s2VedROnh4WT1\/7uK7KmebjUQNujy3YnqbqHXVZyrN6ZHTh+iUs6rv3LzK2KG2z6d6S75b3mNnUSQKcFCpykdM54SgrO3K13\/cyVaoD9llbabTDJGGlzSJL8kcrQSwsNKkk4Xa41Wqg0rSeR5tavQlJSoJqSfDJ+J4xuyuteefSLQygMKUUkdYypZVHZrlUsa2Y6blL0KrU+zZk80i4e8r0aPUR8nju0T5l8tDkCAIAgCAqM7uZz\/tlZ1uozrwPaIcz5FHZW3b8jqA6gKXj8PrVgvOSyuz6lyd7RMfZY3gmJzgRsfTHoDhgCrWT0I2pRfvL7FxmqRLBaLHWkhPLRg4XqBoc3iC0et0Lope\/Tcd55eKfoMXGs+q\/wDhpkjKj7I6Rro6l1AWuN0gtrQ6ukqIylTdrHVicNHFKLUtN+p3ssBc91utmhG038RS+R4rWt1kYCm\/AY4q8INvakc+Irwo0\/QUc3p\/d7OFmz0Ehey1xVic6rCzx4hXRBA1keUMa71KrwldSMH0dXopTp5vev7UuIcoXh+GyhC8bGT0DxxODj1hX2X\/AIyMduhf\/wBabT7svBnG1zWymla7Mxu8SNb7btVVwqPWRtCpgI57LfP\/AKUM4soN6W2GV20QNMhP\/wCjtHtVNiEeszrjjKklahSf4X99SO7LzWc2s7I\/\/sl8NLxAOiw9qq68Y9VF\/VcTW+NOy4L+8yrtlqkmNZpHSH+s1A4N1DqCxlVnLVnVRwNClpH75nEMG4dizuzp2Y3vYyhIQGCVKKskWaIuIaNZNAp1M27Zs6XaEg6wSOsKpZO5zs403KXoRvPs+ZHNIuHvK9Gj1EfJ47tE+ZfrQ5AgCAIAgKjO7mU\/7ZWdbqM68D2iHM+ZRTNa03qBr3tOk0Oa5jYzdYTQ0oaCoxFSdhXDF2R9HODlLLcnv0d9f79g5SE7HMDSDyZaIwLzCQWkODyatoBqPbU4221JWKqjKnJO+\/XR8rb78SotTtMuaSCHEhzTQg18YEalltOMro6nSjUp7M1dEyPO+2NFC9jqfqfGC7taQPYuhYqVtDzpdEU7+7JpEK1zWm00fK8vANG3i2OMOOxoNG3qcSqTqTmu46aGEoYd5Zy+7+y0IMjC0lpFCCQegjAhYnammro2nsxAaSAQ4VBGI6QdxG0cN6nNFbxldcDiIm7h2JdkqEVokbKCwUEmbqA6izuuGShuBwaXbLxFQ3jQKbO1yu3Ha2b56\/Q1kgIa1xI0q0FdKgwvEbBWtOBSwUrtpbjmhJo9CGTsmnwjPSbsrt3bVZamM+qzraLM4OJLaAl1MKAgE6lDRMGmjjZh4R31uR6ErU+yZlc0i4e8r0aPUR8nju0T5l8tDkCAIAgCAqM7uZz+gVnW6jOvA9ohzPk9mnLWkOpcOxwqTvujfxwXnReR9TKKby1\/tTL56tPItDA6o1Uc6lK3dhp24q18siqjn7+ZWrM6URZBipJLrLEV6zWR7BVjWOY6n6Zb1XV3E6+pazXuRaOPDytXqxlq2muVsvsZkDIrHE8wML3OnY4vBqKCg6wThXcjtGmnbiQnKpiJR2mklF5f28lZSssUcj4hE4t8AYnhgDQCW3nOkrV4dUjHbqVpRim1bhb\/AKZ0alScFPaz966vzytusdspxxsbay2CIGGaMR6AwDsCCP1DoO9TNJKWSyZnQlOTpJzfvRd8+H4Nso5Oja61OZHpMfDRjWCS5G5oLiIzhQuwrsCmUEnKy4CjXnKNNSeTUs72u0+PIjSsaIXSw2YA\/ag0NfGHua0xg3CCDQF2zpVWls3it5pFy9IoVJ\/4ap2u76\/Yky5OYJnvjaHRfaWRXGxtkIwBeCXVDI6kjAbNlFZwSldaXt\/dxnGvJ01GbtLYbu3blpqzW2QAQzxtaBG220dRoNyO6QXasKb9iiS91rdteBNObdSEm83T46u\/9kRc4YWR8rGISAHtMTwwNa1lNQePHDhQ47RVVqJK6saYWcp7MnLc7q+bfLdY86sT0DnIcFKIZPyR+ZHiBpNxOA1qy1MZ9V8iflE6LMTrkGymD9lPeoloRT1f0\/BWWc+Ed9blD0L7z7LmRzSPge8r0aPUR8nju0T5l+tDkCAIAgCAqM7uZz+gVnW6jOvA9ohzPlsFlvurUANDKVbeadEGhBIwOs8V56Vz6eUrLncxlWzGpkDho0DWNFAxgOAGJpTX2narTW8ii0ls+L3v+8ivtQo93HEbjtHUahZvU3hoRJI6nCnWQPaURpc2h5Rtbj7tdd2QNrxo7FSrrQo1CWqv9P8ARq5jiKFwIx1vB169qZkqy0XgbadA3lMBiBfFAegVwTMe7e9vAxcca6YxxOlrO870GXDwMtvA3hIAd4ca9qZ8Rk1a2XIlsthFn5AOAJl5QuDiP0XbtAOvWrbXu7PeZOler6R8LWt33uQ2x01SAcCRw1BUt3mzaeqMXNemMdeLseOGKC\/caOGy8DTVrw4YISjRAcpSpRRsn5MGnHhXTbhvxGClamcuq+ROtcJLYycMZcDs00loRDrP6fggWZvhHcB7lD0L7z7HmTzSPge8r0KPUR8nj+0T5l+tTkCAIAgCAqM7eZz+gVlW6jOvA9ohzPlEMzi2l5zQP1B1AOggkA9GNeOFPPTdj6mUVe9jBncAbsrpABqrojClS2pJHUBx1Kb95Gym81YrS47VU2OUxwUF1qX9vyNCx1oZSRrYog9shcCHPLWkRkXaEkuIFNy6JU4ptcEefSxVSUYSy952a7rvPXdYrnWAGFzmtaTHcL3CQEgPw0xWgFaUI1Y16M9n3bnSqtqii3re2XDh\/v6d\/bKORhHO5jTejY1r3uLgC1t1pJJAwqXUGBOO1TKnaVtxnRxO3SUnk22lzu\/LMg2yyubJcLQ0uuloaatIf4t0kmoNQqyi07G9OpGUNpPTXjlrc75TgjgkfDdvlgul5cQb9NYAwug7DUmmtTNKLsZ0JzqwVS9r7u7z\/rG7sgzNc0XWFxLKMvgk3wXDRrW7QGp6DuU+ikmQsXSabu7Z524fsfdD5HAxBtx4e5pD6tHJ+O28QDgdVdhGJ1qPRtvIesxgrTvdWTyzz0+5lmb8ri0NdGb7S+Ojxphtbwb0jsU+il3B4ymr3vk7PLTmRoclyPDSKVcx0jGk6T2MrVwFKbDrIrQ0VVBsvOvCLae5pN7k2QCVBq2aNxKkoWeTD4WOvlt7wi1KT6r5MsMpkXGUP6pRrwFH4UGxJaFad9p\/T8FZZvzHcPgoehqfYcyeaR8D3lehR6iPksf2ifMv1qcgQBAEAQFRndzOf0D7llW6jOvA9ohzPm+R9GUHk2yBgaA1xoAXCpfShqcD7FxU8npc+ixK2qbW0433ru3f3eTM4cqPljHgWsLHB9QQ43CHChAGGOvZgtKk3JaHPhMPGlN++3fL6\/2h5a0sAcaatY6AcQOqq52enF3RHkbghZZEvL+URPMXtDrtGgNcfJaGnUTStFpUltSuY4Wk6VNReuf5uTrdlqJzLQyMPa2VsbWR3WhkVwgmlHY1prptUyqJppb\/AAMaWGmpU5Sabi3d53d\/p+zaXL8RklcOUAmjY11Lt5j2Bt1zTe0hhqNFLqq7fEiOEmoRWXutta5p31yy8SltNqLnhwe9xbdo5\/jaOIwqaAbqlZN53OyMEo2slfciXle2xTvMtHse4abQGlhfSlQ68CBgMKFWnKMncxw9OdGKhk0tHvtyt+yQ\/LQFqZaWxuusa1pBwNAy47EYDDUp9MttSRzqlD0Douau22s++5rZcrtjkJvTPbclaGyEVaXigwqes7cMFMaiTvm9TSdH0sFbZTundb7ZmbFl1jDZiWOPIMla7VpGStKbqVSNRLZ7rirhnNVFfrNfSxxkywDFEwmVro2GMcm6jXtxu12g40Ouqbd4pcC3oLVJSyak75rNMpb4VDds6QBCCfk9h5RlKVvNpXVrCLUiXVZOykMGg670tdw09VSMfaokVp7\/AKfgroPzHcPgoehofYsyOaR8D3lejR+Gj5LH9pnzL9anIEAQBAEBUZ28zn9A+5ZVuozrwHaIcz5ZY7UAakY0DcdRpgDgCQQKj4bfPiz6mcG9BbrWHChDQMKtbiTT9N4ABreHZtUuRWEGitdjUnWSSeJVDdK2RzIqafAe0ohJqKuzEthxuh7XO3ND3+1rSD1LTZ3HP6xaO1su3fZflpkqxZKkY4SODS0AnaQSQQNmGJBxpqUqF9Dlq9IU5QcVe\/8Ad5bx5SljddLW11XXNAPuK1TlF2OGUISjtXy5i3WuGbCeKjhgHMIDh24dRUSknlJF6DqUs6csuD0ODsjWUR8oHyEbiWivVQewqmzG1zb16vtbDS\/vqdYI8KRDRpQPOkeJOoH\/AGs4wjJ6W+hzzpwb2pa9xJNgDmDlGh2IJpgRrOBG3vFQrKKjuv5EU5OM703Yo8q5CeHkxNvNJJo3As\/pIJRpN2R6VHGx2f8A0dn+TlDm1O7xg1g\/qdj\/ANaqdhiePpLS7\/u8l\/wk67hI0u3EED1qnuUuNjJdIK+cXYr22UtJaRQg0I3ELNs9GLTV0SrGaSM9Jvei1RE+q+R2t7hcZvvSk6tr+hJaIrT6z+n4K+BvhHcPgoehofYMyeaR8D3lejR+Gj5PH9pnz\/RfrU4wgCAIAgKnOzmc\/oH3LKt8NnXgO0Q5nyqzw+K\/byjW044+5eclvPq5Pd3M0ypEA7ClSXl1CTjfdrx10opkKTbX2\/BAcFQ1JGSsn8vIGVoKVcdtOjpV4K7ObFYhUYX3vQ9tFZooWUaA1u\/aTvJ1krZ2R8\/KdSrK8ndlFa7YL7rrSP01rS9XDq49CwqOTa2P5FvVtM1ciRZIic5l4uvACvKSOc2tcSMTj1rVzb92LS+glSlHNZku05vxXibrmmtatd43YtbWyZCm0rpmtrfG2NrKF4aa0ONRvr0HFZtJ5ItsyqO7Z0njcyguilKEgtDThhX2LKVLNcObLKlCaeb5EgR0dHpC44EEBwIqGmjW7zTuWmxHfn9yqajFp7tMiayCmI7cSphGKXumblc4ZWkkjiL2tBIIwOGBNK4a8SCpbRpQhtzUOJQjK85\/U1vot97qrJzPWjgILrO5DldiSTUnEneTrKpc7YxSVkYsLb0sfpt7wpjqiJ9V8mWNvho1mP6pcN2mplp9ylN5v6fgq4vzXcPgoehofW8yeax9feV6ND4aPk8f2mfP9F+tTjCAIAgCAqc6+Zz+ge8LKt8NnXgO0Q5ny2FpuDVTlWdtD7F5y0Pq3ba+jM5TjOhXc7\/N2quxTMilv+n4RC5NUNjrYX8nIHA02V2dfQt6Vjy+kYOUU1uL62zPID2gdLTqcOh2PYVdnkU8maNjJxEDtRA8VzanGpAcPoLBxkneNvubKybe\/mbwyOaaCB5LjW8btBX+7AKU6ltF9\/8ARLz3kl0UjwKjqB14bSpW3q3fwX7M5JLQqxmw9zrzHuaNd2QGo14B4NaVxoaq7V+4QquOTLCHI0w8Zw9ckatxZq6FTYmtH4f7LeliTLFky4KE7anbU8KAIoy3siVW5ODQFfRWMygzjyk0t5Fhqai+RqFMbtdpr3LOTPTwGGltekem7vPOOWZ65HJQHay2i45rqaiD2KU7FZR2k0SZbQ6QNB2V7XEkn63JdvIrZQTZBgk8I7h8EehpY+uZk81Z1\/5FelQ+Gj5HpDtM+f6L9anGEAQBAEBU5180m9A94WVb4bOvAdohzPmFmGi2pw5Vmj08V5qPq5a\/RnbKkZIvNpRtajbjI4DVw3q0lv8A7UpSlZ2f9kiLFZzRUN2zBhI2KU2iGlJHezSubg12HknEf6Wqq8Tgq4GEs45FjDad7OtrvcfirXizklhKkdLMmRWloNauHEH3VVdlGToTt1SW3KTBrk7QfgpsY+gn8r+xl2VIz+sdh+CD0E\/lf2NH5UGxx9UqS8cNJ\/4siT5TOwOPEho9lSl0axwlR7rFTarZIRrDRtDdfWSqSnlkdtDBKLvPMq3kBZHonB8iEnNCDdoUEl9YskuZE+eVpaAxwjacCS4UvEbBjgt4wcYucvoebXxUalWNCm73avyWdihgIEjuA9yxeh6J9bzI5qzr\/wAivTofDR8j0h2mf9uL9anGEAQBAEBU5180m9A94WVb4bOvAdohzPl0EoAaDXCRrtlKBeYmfWSi39rFhPbmXS2hqduFPzHOx7VdzVjKNKV7\/wBpY1gbfAIJFa10HO1GmFNe3sKJXJlLZf8AtGkljJHjO\/8AG\/tTY\/rBVlw8UafYTjpOG7wbsenoCjYJ9Mv5ojCKbyHbR2a+9VtIvtw4nEW929Rdmmyh9vdvS7GyjIt7kuxsowbe5LsbKBtjkzIyObnkqSLnNyglMwI0JM3AEB9EyZZnMs8D2tbURtvNIDSQQMb51ELuSlGEZLcs7nzNapCdapCbebdmrv6W33Iec1pEkb7p0QKg7zw3bu1c9ert5LQ6ujsO6U1KWr8P7eeBs48K7h8Fk9D2z65mPzVn93+RXp0Pho+S6Q7TP+3I9AtTiCAIAgCAh5YsnKwSRjW5pA40w9qrOO1Fo1oVPRVYz4M+QWuySRuLZGFpG8dx1HqXkyhKOTR9jTrQqK8Hcjl\/SqmlgHnf7UuLGC87\/alxYxePle1Tci3cK9PtQWMBvBRcsZ5Ph2j4oDbkhvHaPipsVua3eHaEGZivBLiwvJcWCi5NjoHJcWN4Lt4FwvAa21pe6CdyXImpONouz4l+7OWRx0mgt8kGgG6mHeryqTk82cMOjqcF7uvEg27KLpBQgAdBwHxPSqPN5nVToqGhTWeMmZzWgkkCgGJ2bFe11ZGkpKKvLJH2DNaxuis7GOFDSpG4nGntXp0o7MEmfHYuqqtaU1o2W60OcIAgCAIAgOb4WnWEByNgj8hvYFFidp8TH3fH5DewJZDafEx93ReQ3sCWQ2nxH3bF5DewJZE7UuI+7YvNt7AlkNqXEx92Rebb2BLIbcuI+7IvNt7AlkNuXFj7ri8231QlkNuXFj7ri8231QlkNuXFmPuqHzbfVCWQ25cWPuqHzbfVCWRO3Li\/uPuqHzbfVCbK4D0k+L+4+6YfNt9UJsrgPST4v7mPumHzbfVCbK4D0k+L+4+6YfNt9UJsrgPST+Z\/cfdMPm2+qFGyuBPpZ\/M\/udIcnxsNWsaD0ABSkloVlKUtXclAKSoQBAEAQBAEAQBAEAQBAEAQBAEAQBAEAQBAEAQBAEAQBAEAQBAEAQBAEAQBAEAQBAEAQBAEAQBAEAQBAEAQBAEAQBAEAQBAEAQBAEAQBAEAQBAEAQBAEAQBAEAQBAEAQBAEB\/\/Z"
        }
    ]
}